%!PS-Adobe-3.0 EPSF-3.0
%%Creator: cairo 1.10.2 (http://cairographics.org)
%%CreationDate: Tue Aug 16 17:34:34 2011
%%Pages: 1
%%BoundingBox: 6 5 76 78
%%DocumentData: Clean7Bit
%%LanguageLevel: 2
%%EndComments
%%BeginProlog
/cairo_eps_state save def
/dict_count countdictstack def
/op_count count 1 sub def
userdict begin
/q { gsave } bind def
/Q { grestore } bind def
/cm { 6 array astore concat } bind def
/w { setlinewidth } bind def
/J { setlinecap } bind def
/j { setlinejoin } bind def
/M { setmiterlimit } bind def
/d { setdash } bind def
/m { moveto } bind def
/l { lineto } bind def
/c { curveto } bind def
/h { closepath } bind def
/re { exch dup neg 3 1 roll 5 3 roll moveto 0 rlineto
      0 exch rlineto 0 rlineto closepath } bind def
/S { stroke } bind def
/f { fill } bind def
/f* { eofill } bind def
/n { newpath } bind def
/W { clip } bind def
/W* { eoclip } bind def
/BT { } bind def
/ET { } bind def
/pdfmark where { pop globaldict /?pdfmark /exec load put }
    { globaldict begin /?pdfmark /pop load def /pdfmark
    /cleartomark load def end } ifelse
/BDC { mark 3 1 roll /BDC pdfmark } bind def
/EMC { mark /EMC pdfmark } bind def
/cairo_store_point { /cairo_point_y exch def /cairo_point_x exch def } def
/Tj { show currentpoint cairo_store_point } bind def
/TJ {
  {
    dup
    type /stringtype eq
    { show } { -0.001 mul 0 cairo_font_matrix dtransform rmoveto } ifelse
  } forall
  currentpoint cairo_store_point
} bind def
/cairo_selectfont { cairo_font_matrix aload pop pop pop 0 0 6 array astore
    cairo_font exch selectfont cairo_point_x cairo_point_y moveto } bind def
/Tf { pop /cairo_font exch def /cairo_font_matrix where
      { pop cairo_selectfont } if } bind def
/Td { matrix translate cairo_font_matrix matrix concatmatrix dup
      /cairo_font_matrix exch def dup 4 get exch 5 get cairo_store_point
      /cairo_font where { pop cairo_selectfont } if } bind def
/Tm { 2 copy 8 2 roll 6 array astore /cairo_font_matrix exch def
      cairo_store_point /cairo_font where { pop cairo_selectfont } if } bind def
/g { setgray } bind def
/rg { setrgbcolor } bind def
/d1 { setcachedevice } bind def
%%EndProlog
%%Page: 1 1
%%BeginPageSetup
%%PageBoundingBox: 6 5 76 78
%%EndPageSetup
q 6 5 70 73 rectclip q
0 g
41.641 76.502 m 40.305 76.502 38.988 76.396 37.691 76.252 c 35.941 
68.443 29.98 62.162 22.391 60.201 c 22.391 65.802 l 26.711 67.4 30.137 
70.806 31.789 75.103 c 28.605 74.185 25.613 72.822 22.863 71.103 c 
24.09 68.451 l 21.488 68.451 l 20.891 69.779 l 20.359 69.392 19.848 
68.99 19.34 68.576 c 19.914 66.588 20.215 64.431 20.215 62.127 c 20.215 
53.728 l 10.566 53.728 l 10.18 54.814 10.016 55.998 9.941 56.927 c 
9.344 55.736 8.801 54.513 8.34 53.252 c 8.34 37.978 l 6.34 37.978 l 
6.496 36.146 6.789 34.369 7.215 32.627 c 10.66 35.908 12.98 40.759 
13.59 45.779 c 13.891 48.377 l 19.09 45.779 l 18.363 38.381 14.539 
31.615 8.988 27.228 c 9.809 25.291 10.805 23.47 11.941 21.728 c 12.137 
21.791 12.469 21.935 12.816 22.103 c 13.227 22.302 13.59 22.474 13.613 
22.502 c 13.641 22.533 13.773 22.627 13.914 22.701 c 14.055 22.779 
14.246 22.884 14.363 22.951 c 14.484 23.021 14.629 23.142 14.664 23.201 
c 14.703 23.259 14.758 23.302 14.816 23.302 c 14.871 23.302 15.035 
23.388 15.164 23.502 c 15.293 23.615 15.391 23.748 15.391 23.802 c 
15.391 23.857 15.473 23.904 15.566 23.904 c 15.66 23.904 15.738 23.955 
15.738 24.002 c 15.738 24.052 15.984 24.326 16.289 24.627 c 16.594 
24.927 16.863 25.209 16.863 25.252 c 16.863 25.295 16.926 25.431 17.016 
25.529 c 17.105 25.623 17.258 25.783 17.363 25.904 c 17.473 26.025 
17.586 26.158 17.59 26.177 c 17.59 26.201 17.801 26.673 18.066 27.228 c 
18.332 27.783 18.566 28.259 18.566 28.302 c 18.566 28.345 18.648 28.556 
18.738 28.752 c 18.836 28.951 18.891 29.193 18.891 29.302 c 18.891 
29.412 18.941 29.634 18.988 29.802 c 19.039 29.97 19.133 30.498 19.191 
30.951 c 19.266 31.513 19.273 32.802 19.266 35.002 c 19.25 36.97 19.289 
38.248 19.34 38.279 c 19.387 38.306 19.438 38.256 19.465 38.154 c 
19.492 38.052 19.551 37.978 19.59 37.978 c 19.629 37.978 19.688 37.896 
19.715 37.802 c 19.746 37.705 19.824 37.627 19.891 37.627 c 19.957 
37.627 20.016 37.58 20.016 37.529 c 20.016 37.478 20.07 37.373 20.141 
37.302 c 20.211 37.232 20.266 37.095 20.266 37.002 c 20.266 36.904 
20.309 36.853 20.391 36.853 c 20.504 36.853 20.527 36.787 20.488 36.502 
c 20.465 36.31 20.488 36.131 20.539 36.103 c 20.586 36.072 20.59 35.986 
20.566 35.904 c 20.539 35.818 20.535 35.326 20.539 34.826 c 20.539 
27.853 l 20.539 27.756 20.527 26.888 20.539 25.904 c 20.555 24.916 
20.523 24.056 20.488 24.002 c 20.457 23.947 20.445 23.904 20.488 23.904 
c 20.527 23.904 20.57 22.181 20.566 20.076 c 20.551 16.888 20.539 16.24 
20.441 16.177 c 20.375 16.134 20.219 16.103 20.113 16.103 c 20.008 
16.103 19.941 16.127 19.941 16.177 c 19.941 16.232 19.875 16.24 19.816 
16.201 c 19.758 16.166 19.555 16.134 19.363 16.127 c 19.176 16.115 
18.523 16.107 17.914 16.103 c 17.828 16.103 16.699 16.103 16.465 16.103 
c 18.426 14.127 20.633 12.377 23.016 10.904 c 22.898 11.853 22.84 
12.818 22.84 13.826 c 22.84 22.252 l 32.465 22.252 l 33.238 20.08 
33.164 17.451 33.164 17.451 c 27.965 17.451 l 27.965 13.826 l 27.965 
11.595 28.227 9.716 28.641 8.103 c 30.52 7.361 32.469 6.767 34.488 
6.353 c 34.488 22.252 l 36.84 22.252 l 36.84 5.951 l 37.418 5.873 
38.004 5.802 38.59 5.752 c 38.59 22.252 l 43.863 22.252 l 43.863 5.701 
l 44.621 5.748 45.371 5.81 46.113 5.904 c 46.113 22.228 l 46.113 22.228 
48.879 21.341 51.516 19.377 c 51.516 7.029 l 52.215 7.232 52.906 7.459 
53.59 7.701 c 53.59 21.279 l 54.574 21.998 55.488 22.357 56.09 22.627 c 
56.719 22.345 57.652 21.994 58.664 21.201 c 58.664 9.978 l 59.32 10.338 
59.961 10.728 60.59 11.127 c 60.59 32.377 l 65.863 32.377 l 65.863 
15.201 l 66.613 15.904 67.328 16.638 68.016 17.404 c 68.016 29.279 l 
69.805 28.916 71.473 28.287 73.016 27.502 c 73.016 24.627 l 73.809 
26.142 74.492 27.72 75.066 29.353 c 75.055 29.353 75.055 29.353 75.039 
29.353 c 74.605 29.365 74.18 29.384 73.84 29.4 c 73.5 29.42 73.262 
29.431 73.141 29.451 c 72.988 29.482 72.68 29.529 72.465 29.552 c 
72.344 29.564 72.23 29.599 72.141 29.627 c 72.094 29.642 72.059 29.65 
72.016 29.677 c 72 29.685 71.984 29.709 71.965 29.724 c 71.973 29.724 
71.961 29.716 71.941 29.724 c 71.895 29.736 71.82 29.752 71.738 29.752 
c 71.637 29.752 71.523 29.759 71.441 29.775 c 71.398 29.783 71.355 
29.81 71.316 29.826 c 71.285 29.838 71.25 29.838 71.215 29.873 c 71.207 
29.884 71.195 29.892 71.164 29.9 c 71.102 29.92 71.016 29.935 70.914 
29.951 c 70.68 29.982 70.402 30.045 70.215 30.15 c 70.105 30.209 69.719 
30.4 69.414 30.548 c 69.102 30.701 68.758 30.896 68.613 30.974 c 68.453 
31.064 68.184 31.248 67.988 31.4 c 67.789 31.556 67.332 31.974 66.965 
32.349 c 66.781 32.537 66.59 32.724 66.441 32.9 c 66.293 33.076 66.203 
33.228 66.141 33.349 c 66.102 33.427 66.051 33.49 66.016 33.548 c 66 
33.58 65.977 33.607 65.965 33.623 c 65.914 33.67 65.902 33.701 65.863 
33.748 c 65.824 33.802 65.781 33.881 65.738 33.951 c 65.695 34.021 
65.648 34.099 65.613 34.173 c 65.582 34.248 65.566 34.298 65.566 34.4 c 
65.531 34.42 65.484 34.42 65.465 34.447 c 65.418 34.513 65.414 34.588 
65.414 34.65 c 65.414 34.615 65.398 34.65 65.391 34.673 c 65.383 34.697 
65.383 34.732 65.363 34.775 c 65.332 34.857 65.293 34.947 65.238 35.048 
c 65.117 35.287 64.945 35.713 64.863 36.048 c 64.785 36.377 64.684 
37.017 64.613 37.474 c 64.543 37.931 64.449 38.67 64.414 39.123 c 
64.395 39.412 64.379 39.607 64.391 39.775 c 64.398 39.916 64.426 40.021 
64.488 40.123 c 64.488 40.123 64.492 40.146 64.488 40.15 c 64.488 
40.158 64.492 40.17 64.488 40.173 c 64.484 40.185 64.469 40.213 64.465 
40.224 c 64.457 40.259 64.445 40.279 64.441 40.322 c 64.426 40.412 
64.426 40.529 64.414 40.673 c 64.395 40.959 64.391 41.353 64.391 41.798 
c 64.391 42.259 64.398 42.642 64.414 42.923 c 64.426 43.064 64.426 
43.185 64.441 43.271 c 64.445 43.318 64.453 43.361 64.465 43.396 c 
64.469 43.416 64.48 43.423 64.488 43.447 c 64.516 43.447 l 64.516 
43.455 64.512 43.466 64.516 43.47 c 64.504 43.498 64.473 43.517 64.465 
43.548 c 64.449 43.599 64.426 43.681 64.414 43.748 c 64.395 43.881 
64.391 44.033 64.391 44.197 c 64.391 44.513 64.414 44.923 64.414 45.099 
c 64.414 45.279 64.402 45.541 64.391 45.673 c 64.387 45.736 64.367 
45.857 64.367 46.048 c 64.363 46.236 64.367 46.49 64.367 46.798 c 
64.359 47.408 64.363 48.213 64.367 49.072 c 64.371 49.986 64.375 50.783 
64.391 51.373 c 64.398 51.666 64.406 51.923 64.414 52.099 c 64.422 
52.185 64.434 52.24 64.441 52.298 c 64.441 52.326 64.434 52.349 64.441 
52.373 c 64.445 52.396 64.465 52.423 64.488 52.474 c 64.531 52.552 
64.582 52.607 64.641 52.646 c 64.695 52.685 64.75 52.716 64.84 52.724 c 
64.844 52.724 64.848 52.736 64.863 52.748 c 64.898 52.771 64.945 52.802 
64.988 52.849 c 65.027 52.881 65.059 52.92 65.09 52.947 c 65.121 52.974 
65.16 53.002 65.238 53.021 c 65.305 53.037 65.418 52.998 65.465 52.947 
c 65.516 52.896 65.531 52.865 65.539 52.822 c 65.562 52.744 65.562 
52.646 65.566 52.521 c 65.566 52.412 65.543 52.314 65.539 52.224 c 
65.535 52.131 65.535 52.08 65.516 51.998 c 65.512 51.986 65.516 51.974 
65.516 51.947 c 65.512 51.896 65.516 51.806 65.516 51.724 c 65.512 
51.552 65.516 51.334 65.516 51.099 c 65.516 47.271 l 65.516 46.998 
65.539 46.634 65.539 46.447 c 65.539 46.271 65.527 45.705 65.516 45.173 
c 65.508 44.916 65.504 44.658 65.516 44.474 c 65.52 44.381 65.535 
44.302 65.539 44.248 c 65.543 44.236 65.539 44.232 65.539 44.224 c 
65.562 44.177 65.543 44.185 65.539 44.197 c 65.59 44.103 65.57 44.045 
65.566 43.974 c 65.559 43.896 65.539 43.806 65.516 43.724 c 65.492 
43.642 65.516 43.384 65.539 43.248 c 65.559 43.154 65.559 43.048 65.566 
42.974 c 65.566 42.935 65.566 42.908 65.566 42.873 c 65.562 42.857 
65.57 42.845 65.566 42.822 c 65.562 42.814 65.543 42.787 65.539 42.775 
c 65.539 42.767 65.543 42.752 65.539 42.748 c 65.535 42.705 65.543 
42.634 65.539 42.548 c 65.535 42.377 65.539 42.134 65.539 41.873 c 
65.539 41.357 65.551 40.341 65.566 39.623 c 65.57 39.267 65.578 38.943 
65.59 38.701 c 65.598 38.576 65.609 38.47 65.613 38.4 c 65.617 38.377 
65.613 38.365 65.613 38.349 c 65.621 38.338 65.613 38.33 65.613 38.326 
c 65.633 38.287 65.633 38.256 65.641 38.224 c 65.648 38.185 65.656 
38.15 65.664 38.099 c 65.684 38.002 65.723 37.869 65.738 37.752 c 
65.773 37.517 65.824 37.248 65.84 37.15 c 65.848 37.099 65.926 36.732 
66.016 36.423 c 66.102 36.127 66.262 35.756 66.316 35.65 c 66.359 
35.564 66.391 35.478 66.414 35.4 c 66.438 35.33 66.461 35.271 66.465 
35.201 c 66.465 35.193 66.465 35.185 66.465 35.173 c 66.477 35.162 
66.504 35.162 66.516 35.15 c 66.539 35.123 66.566 35.084 66.59 35.048 c 
66.637 34.978 66.691 34.9 66.738 34.798 c 66.82 34.634 67.062 34.228 
67.266 33.951 c 67.469 33.67 67.84 33.24 68.039 33.025 c 68.137 32.92 
68.23 32.814 68.316 32.752 c 68.348 32.724 68.367 32.689 68.391 32.673 
c 68.441 32.673 68.438 32.673 68.441 32.673 c 68.48 32.666 68.516 
32.638 68.539 32.627 c 68.574 32.603 68.609 32.599 68.641 32.576 c 
68.699 32.525 68.754 32.466 68.816 32.4 c 68.816 32.377 l 68.887 32.295 
69.125 32.127 69.238 32.076 c 69.332 32.037 69.422 32.006 69.488 31.951 
c 69.523 31.923 69.539 31.888 69.566 31.849 c 69.613 31.849 l 69.664 
31.841 69.734 31.822 69.789 31.802 c 69.902 31.759 70.023 31.689 70.164 
31.627 c 70.438 31.502 70.77 31.345 70.914 31.275 c 71.023 31.228 
71.324 31.142 71.539 31.103 c 71.758 31.056 72.281 30.978 72.664 30.9 c 
73.031 30.83 73.66 30.724 74.039 30.701 c 74.078 30.701 74.348 30.709 
74.641 30.701 c 74.934 30.693 75.273 30.681 75.488 30.677 c 75.617 
31.099 75.75 31.521 75.863 31.951 c 72.039 31.951 l 72.039 59.252 l 
71.32 60.451 70.516 61.599 69.664 62.701 c 69.664 58.752 l 64.34 58.752 
l 64.34 68.252 l 62.859 69.49 61.285 70.591 59.613 71.576 c 55.391 
69.478 l 55.113 72.076 l 55.039 72.705 54.945 73.33 54.816 73.951 c 
53.738 74.384 52.641 74.752 51.516 75.076 c 52.043 73.158 52.316 71.107 
52.316 68.9 c 52.316 60.478 l 42.664 60.478 l 41.895 62.65 41.988 
65.275 41.988 65.275 c 47.191 65.275 l 47.191 68.9 l 47.191 71.904 
46.742 74.291 46.039 76.201 c 44.598 76.381 43.129 76.502 41.641 76.502 
c h
64.516 43.451 m 64.516 43.396 64.531 43.381 64.516 43.404 c 64.539 
43.404 l 64.539 43.427 l 64.531 43.439 64.52 43.443 64.516 43.451 c h
40.664 75.177 m 45.789 75.177 l 43.59 71.853 l 41.215 68.377 l 35.863 
68.377 l h
35.441 67.252 m 36.191 67.252 l 40.914 60.478 l 35.59 60.478 l 33.215 
63.951 l h
54.863 65.603 m 62.215 65.603 l 62.215 60.478 l 54.863 60.478 l h
14.988 64.404 m 13.406 62.599 12.008 60.627 10.816 58.529 c 15.09 
58.529 l 15.09 62.127 l 15.09 62.927 15.051 63.685 14.988 64.404 c h
45.215 59.052 m 45.418 59.06 45.68 59.052 45.988 59.052 c 46.613 59.052 
47.168 59.029 47.215 59.002 c 47.262 58.974 47.727 58.935 48.266 58.927 
c 48.855 58.912 49.281 58.884 49.316 58.826 c 49.352 58.771 49.383 
58.779 49.414 58.826 c 49.449 58.881 49.605 58.873 49.863 58.826 c 
50.09 58.783 50.344 58.771 50.414 58.779 c 50.484 58.791 50.676 58.752 
50.84 58.728 c 51.004 58.697 51.492 58.658 51.914 58.627 c 52.336 
58.603 52.676 58.545 52.691 58.502 c 52.703 58.466 52.891 58.463 53.09 
58.502 c 53.289 58.541 53.469 58.541 53.516 58.502 c 53.562 58.466 
53.746 58.404 53.914 58.377 c 54.086 58.353 54.27 58.377 54.316 58.427 
c 54.367 58.482 54.484 58.466 54.641 58.404 c 54.773 58.353 55.023 
58.33 55.191 58.353 c 55.355 58.377 56.008 58.427 56.641 58.455 c 
57.273 58.482 58.223 58.509 58.738 58.529 c 59.258 58.548 60.02 58.576 
60.441 58.58 c 60.863 58.58 61.281 58.591 61.363 58.58 c 61.445 58.564 
61.488 58.502 61.488 58.455 c 61.488 58.4 61.531 58.416 61.59 58.478 c 
61.648 58.537 61.781 58.58 61.863 58.58 c 61.945 58.58 62.094 58.49 
62.215 58.377 c 62.414 58.189 62.445 58.095 62.516 57.154 c 62.559 
56.588 62.582 55.705 62.566 55.228 c 62.551 54.752 62.52 53.982 62.488 
53.502 c 62.461 53.025 62.406 52.123 62.391 51.502 c 62.375 50.884 
62.363 50.002 62.363 49.529 c 62.363 49.021 62.32 48.623 62.266 48.552 
c 62.199 48.474 62.199 48.427 62.266 48.427 c 62.32 48.427 62.336 48.17 
62.34 47.752 c 62.34 47.384 62.379 46.228 62.414 45.205 c 62.449 44.177 
62.484 42.627 62.488 41.752 c 62.488 40.881 62.516 40.177 62.539 40.177 
c 62.562 40.177 62.578 39.185 62.59 37.978 c 62.605 36.771 62.59 35.658 
62.566 35.502 c 62.531 35.306 62.473 35.228 62.363 35.228 c 62.281 
35.228 62.012 35.427 61.766 35.677 c 61.52 35.927 61.285 36.248 61.238 
36.377 c 61.195 36.509 61.078 36.654 60.988 36.705 c 60.902 36.752 
60.816 36.861 60.816 36.927 c 60.816 36.994 60.773 37.064 60.715 37.103 
c 60.656 37.142 60.551 37.322 60.465 37.478 c 60.379 37.634 60.223 
37.845 60.113 37.955 c 60.008 38.06 59.883 38.197 59.84 38.279 c 59.793 
38.357 59.629 38.451 59.488 38.478 c 59.289 38.517 59.234 38.486 59.141 
38.33 c 59.074 38.22 58.961 37.732 58.891 37.228 c 58.82 36.724 58.75 
36.146 58.738 35.955 c 58.727 35.763 58.762 35.506 58.789 35.377 c 
58.824 35.252 58.812 35.134 58.789 35.103 c 58.762 35.072 58.75 34.775 
58.738 34.455 c 58.727 34.134 58.695 33.826 58.691 33.752 c 58.691 
33.681 58.723 33.416 58.738 33.177 c 58.762 32.939 58.809 31.904 58.84 
30.853 c 58.871 29.802 58.895 28.795 58.914 28.627 c 58.934 28.463 
58.969 28.056 58.988 27.728 c 59.012 27.4 59.066 27.056 59.09 26.978 c 
59.113 26.9 59.082 26.795 59.039 26.728 c 58.996 26.658 59.023 26.447 
59.09 26.228 c 59.152 26.021 59.176 25.826 59.141 25.802 c 59.105 
25.783 59.086 25.463 59.09 25.08 c 59.105 24.474 59.062 24.345 58.914 
24.205 c 58.816 24.115 58.578 24.002 58.391 23.955 c 58.203 23.904 
57.875 23.881 57.664 23.904 c 57.453 23.927 56.801 23.966 56.215 23.978 
c 55.629 23.994 55.008 23.955 54.816 23.927 c 54.621 23.892 53.945 
23.834 53.316 23.802 c 52.688 23.775 52.027 23.744 51.84 23.728 c 
51.652 23.713 50.922 23.615 50.238 23.529 c 49.332 23.416 48.531 23.388 
47.215 23.404 c 46.23 23.42 45.277 23.431 45.066 23.455 c 44.855 23.474 
44.34 23.529 43.941 23.552 c 43.543 23.58 43.203 23.634 43.191 23.677 c 
43.176 23.724 43.094 23.736 43.016 23.705 c 42.938 23.673 42.758 23.646 
42.613 23.654 c 42.473 23.654 41.875 23.697 41.266 23.728 c 40.656 
23.759 40.094 23.787 40.039 23.802 c 39.984 23.822 39.82 23.818 39.664 
23.779 c 39.508 23.736 39.035 23.662 38.613 23.631 c 38.191 23.599 
37.633 23.572 37.363 23.552 c 37.098 23.541 36.84 23.509 36.789 23.478 
c 36.742 23.447 36.609 23.451 36.516 23.506 c 36.402 23.564 36.289 
23.552 36.191 23.506 c 36.105 23.459 35.754 23.423 35.391 23.404 c 
35.363 23.404 l 35 23.384 34.688 23.384 34.664 23.404 c 34.645 23.423 
34.465 23.443 34.238 23.455 c 34.016 23.466 33.566 23.521 33.238 23.552 
c 32.91 23.584 32.422 23.634 32.164 23.677 c 31.906 23.724 31.555 
23.779 31.391 23.802 c 31.227 23.826 31.008 23.884 30.914 23.904 c 
30.82 23.927 30.555 23.951 30.316 23.978 c 30.078 24.006 29.805 24.052 
29.691 24.08 c 29.574 24.103 29.086 24.142 28.613 24.177 c 28.145 
24.216 27.629 24.244 27.465 24.228 c 27.301 24.213 26.758 24.177 26.266 
24.154 c 25.773 24.127 25.227 24.072 25.039 24.029 c 24.852 23.986 24.5 
23.955 24.238 23.955 c 23.98 23.955 23.598 23.97 23.414 24.002 c 23.168 
24.045 23.078 24.127 23.066 24.252 c 23.051 24.349 23.004 24.638 22.965 
24.904 c 22.926 25.166 22.91 25.963 22.914 26.701 c 22.914 27.443 
22.957 30.599 22.988 33.701 c 23.023 36.806 23.047 40.177 23.066 41.201 
c 23.082 42.228 23.129 43.513 23.141 44.029 c 23.156 44.545 23.176 
44.978 23.215 45.002 c 23.254 45.025 23.25 45.123 23.215 45.201 c 
23.172 45.283 23.125 45.591 23.113 45.904 c 23.102 46.213 23.082 46.689 
23.066 46.951 c 23.047 47.216 23.031 47.748 23.016 48.127 c 22.996 
48.509 22.973 48.83 22.965 48.853 c 22.949 48.877 22.93 49.025 22.914 
49.177 c 22.898 49.33 22.836 49.513 22.789 49.603 c 22.746 49.689 
22.676 50.095 22.641 50.502 c 22.602 50.908 22.555 51.384 22.539 51.576 
c 22.527 51.767 22.484 52.193 22.441 52.502 c 22.395 52.814 22.332 
53.185 22.316 53.326 c 22.297 53.47 22.293 53.736 22.289 53.927 c 
22.289 54.404 l 22.289 54.474 22.23 55.006 22.191 55.576 c 22.148 56.15 
22.129 56.97 22.141 57.404 c 22.156 57.834 22.191 58.283 22.238 58.404 
c 22.289 58.525 22.398 58.673 22.465 58.728 c 22.531 58.783 22.703 
58.869 22.863 58.904 c 23.027 58.939 23.438 58.959 23.766 58.951 c 
29.441 58.951 l 30.449 58.951 31.672 58.912 32.164 58.877 c 32.656 
58.845 33.121 58.802 33.191 58.775 c 33.258 58.752 34.207 58.752 35.289 
58.752 c 36.375 58.752 37.309 58.713 37.363 58.677 c 37.422 58.642 
37.645 58.642 37.863 58.677 c 38.086 58.713 38.836 58.752 39.539 58.775 
c 40.242 58.802 41.32 58.857 41.941 58.877 c 42.562 58.9 43.117 58.947 
43.164 58.978 c 43.215 59.006 43.238 58.978 43.238 58.927 c 43.238 
58.869 43.344 58.869 43.516 58.927 c 43.656 58.978 44.012 59.025 44.316 
59.002 c 44.617 58.982 44.863 58.974 44.863 59.002 c 44.863 59.017 
45.012 59.045 45.215 59.052 c h
25.016 57.201 m 25.016 43.103 l 26.613 43.103 l 26.613 43.529 l 27.133 
43.252 27.711 43.103 28.34 43.103 c 29.371 43.103 30.148 43.506 30.664 
44.302 c 31.184 45.099 31.441 46.271 31.441 47.826 c 31.441 48.576 l 
31.441 50.451 31.18 51.728 30.613 52.404 c 30.066 53.052 29.48 53.377 
28.863 53.377 c 28.066 53.377 l 27.629 53.377 27.137 53.146 26.613 
52.728 c 26.613 57.201 l h
41.59 57.201 m 41.59 44.752 l 41.59 44.213 41.75 43.81 42.039 43.529 c 
42.332 43.244 42.738 43.103 43.289 43.103 c 44.016 43.103 l 44.016 
44.603 l 43.289 44.603 l 43.246 44.603 43.254 44.611 43.238 44.627 c 
43.227 44.646 43.191 44.673 43.191 44.752 c 43.191 57.201 l h
67.34 57.076 m 69.664 57.076 l 69.664 35.951 l 67.34 35.951 l h
36.191 53.377 m 35.277 53.377 34.551 53.068 34.039 52.451 c 33.535 
51.845 33.262 51.138 33.215 50.302 c 33.191 50.201 l 34.789 50.201 l 
34.816 50.279 l 34.902 50.857 35.062 51.275 35.289 51.529 c 35.516 
51.775 35.84 51.904 36.316 51.904 c 36.793 51.904 37.172 51.787 37.441 
51.576 c 37.699 51.373 37.816 51.029 37.816 50.502 c 37.816 49.826 l 
36.312 49.705 35.191 49.345 34.414 48.728 c 33.621 48.095 33.215 47.213 
33.215 46.076 c 33.215 45.107 33.418 44.353 33.863 43.853 c 34.312 
43.349 34.973 43.103 35.84 43.103 c 36.562 43.103 37.215 43.341 37.816 
43.779 c 37.816 43.103 l 39.441 43.103 l 39.441 50.502 l 39.441 51.521 
39.156 52.271 38.59 52.728 c 38.043 53.17 37.477 53.377 36.914 53.377 c 
h
47.59 53.377 m 46.941 53.377 46.367 53.142 45.84 52.627 c 45.309 52.111 
45.039 51.423 45.039 50.627 c 45.039 49.56 45.363 48.779 46.016 48.302 
c 46.648 47.841 47.266 47.572 47.863 47.478 c 48.391 47.326 l 48.73 
47.283 49.008 47.166 49.191 46.978 c 49.383 46.779 49.504 46.615 49.566 
46.451 c 49.625 46.287 49.641 46.041 49.641 45.728 c 49.641 45.338 
49.539 45.06 49.34 44.877 c 49.145 44.701 48.789 44.603 48.266 44.603 c 
47.793 44.603 47.434 44.724 47.164 44.978 c 46.902 45.224 46.727 45.681 
46.641 46.353 c 46.613 46.451 l 45.016 46.451 l 45.039 46.326 l 45.129 
45.22 45.461 44.4 46.066 43.877 c 46.664 43.361 47.398 43.103 48.266 
43.103 c 49.129 43.103 49.832 43.33 50.363 43.779 c 50.902 44.228 
51.191 44.888 51.191 45.728 c 51.191 46.33 51.074 46.849 50.863 47.279 
c 50.656 47.701 50.359 48.041 49.965 48.302 c 49.574 48.56 49.105 48.74 
48.516 48.877 c 47.965 49.029 l 47.535 49.115 47.191 49.295 46.941 
49.552 c 46.695 49.802 46.566 50.146 46.566 50.627 c 46.566 51.017 
46.668 51.295 46.891 51.502 c 47.109 51.705 47.469 51.826 47.988 51.826 
c 48.414 51.826 48.77 51.705 49.066 51.427 c 49.355 51.154 49.547 
50.728 49.59 50.154 c 49.59 50.052 l 51.191 50.052 l 51.191 50.154 l 
51.145 51.17 50.82 51.986 50.238 52.552 c 49.668 53.111 49.035 53.377 
48.34 53.377 c h
55.941 53.377 m 55.027 53.377 54.273 53.068 53.766 52.451 c 53.262 
51.845 53.012 51.138 52.965 50.302 c 52.941 50.201 l 54.539 50.201 l 
54.539 50.279 l 54.629 50.857 54.789 51.275 55.016 51.529 c 55.238 
51.775 55.59 51.904 56.066 51.904 c 56.543 51.904 56.895 51.787 57.164 
51.576 c 57.426 51.373 57.59 51.029 57.59 50.502 c 57.59 49.826 l 56.09 
49.705 54.914 49.345 54.141 48.728 c 53.348 48.095 52.965 47.213 52.965 
46.076 c 52.965 45.107 53.168 44.353 53.613 43.853 c 54.062 43.349 
54.723 43.103 55.59 43.103 c 56.312 43.103 56.988 43.341 57.59 43.779 c 
57.59 43.103 l 59.191 43.103 l 59.191 50.502 l 59.191 51.521 58.906 
52.271 58.34 52.728 c 57.793 53.17 57.227 53.377 56.664 53.377 c h
12.641 51.904 m 20.215 51.904 l 20.215 49.802 l 12.641 49.802 l h
28.465 51.826 m 28.969 51.826 29.336 51.584 29.59 51.052 c 29.844 
50.517 29.965 49.681 29.965 48.576 c 29.965 47.904 l 29.965 46.775 
29.816 45.947 29.539 45.404 c 29.266 44.857 28.891 44.603 28.34 44.603 
c 27.703 44.603 27.129 44.802 26.613 45.228 c 26.613 51.052 l 27.262 
51.572 27.879 51.826 28.465 51.826 c h
37.816 48.279 m 37.816 45.529 l 37.121 44.916 36.531 44.603 36.039 
44.603 c 35.59 44.603 35.277 44.716 35.066 44.951 c 34.855 45.185 
34.742 45.556 34.738 46.052 c 34.738 46.076 l 34.766 46.701 35.02 
47.185 35.539 47.552 c 36.047 47.912 36.812 48.158 37.816 48.279 c h
57.59 48.279 m 57.59 45.529 l 56.898 44.916 56.281 44.603 55.789 44.603 
c 55.34 44.603 55.027 44.716 54.816 44.951 c 54.605 45.185 54.492 
45.556 54.488 46.052 c 54.488 46.076 l 54.516 46.701 54.77 47.185 
55.289 47.552 c 55.797 47.912 56.586 48.158 57.59 48.279 c h
37.816 40.627 m 37.816 38.052 l 39.414 38.052 l 39.414 40.627 l h
25.316 36.826 m 25.316 26.529 l 26.863 26.529 l 26.863 34.701 l 27.203 
35.123 27.676 35.302 28.316 35.302 c 28.703 35.302 29.016 35.252 29.266 
35.103 c 29.5 34.963 29.613 34.685 29.613 34.252 c 29.613 26.529 l 
31.164 26.529 l 31.164 34.677 l 31.59 35.099 32.078 35.302 32.715 
35.302 c 33.195 35.302 33.543 35.236 33.715 35.103 c 33.879 34.97 
33.965 34.693 33.965 34.252 c 33.965 26.529 l 35.59 26.529 l 35.59 
34.252 l 35.59 35.134 35.34 35.791 34.863 36.201 c 34.406 36.599 33.938 
36.826 33.465 36.826 c 32.715 36.826 l 31.918 36.826 31.25 36.49 30.664 
35.927 c 30.484 36.177 30.258 36.4 29.965 36.552 c 29.641 36.716 29.285 
36.826 28.914 36.826 c 28.316 36.826 l 27.711 36.826 27.234 36.65 
26.863 36.353 c 26.863 36.826 l h
37.816 36.826 m 37.816 26.529 l 39.414 26.529 l 39.414 36.826 l h
41.566 36.826 m 41.566 26.529 l 43.113 26.529 l 43.113 34.103 l 43.371 
34.443 43.645 34.716 43.941 34.951 c 44.234 35.185 44.617 35.302 45.09 
35.302 c 45.48 35.302 45.789 35.252 45.988 35.127 c 46.168 35.017 
46.266 34.736 46.266 34.252 c 46.266 26.529 l 47.789 26.529 l 47.789 
34.529 l 47.789 35.228 47.586 35.795 47.164 36.201 c 46.75 36.603 
46.281 36.826 45.766 36.826 c 45.016 36.826 l 44.605 36.826 44.281 
36.752 44.039 36.654 c 43.809 36.556 43.598 36.443 43.391 36.279 c 
43.266 36.177 43.203 36.064 43.113 35.951 c 43.113 36.826 l h
52.891 36.826 m 52.102 36.826 51.383 36.42 50.766 35.677 c 50.141 
34.923 49.84 33.791 49.84 32.279 c 49.84 31.127 l 49.84 29.791 50.18 
28.689 50.863 27.826 c 51.551 26.966 52.477 26.529 53.613 26.529 c 
54.301 26.529 54.941 26.701 55.516 27.052 c 56.098 27.408 56.48 27.986 
56.664 28.779 c 56.691 28.904 l 55.016 28.904 l 54.988 28.853 l 54.863 
28.591 54.699 28.404 54.488 28.252 c 54.293 28.111 53.996 28.029 53.613 
28.029 c 52.887 28.076 52.352 28.365 51.988 28.904 c 51.637 29.431 
51.445 30.103 51.391 30.951 c 56.715 30.951 l 56.715 32.279 l 56.715 
33.791 56.41 34.923 55.766 35.677 c 55.129 36.42 54.438 36.826 53.691 
36.826 c h
53.266 35.302 m 53.867 35.302 54.348 35.084 54.691 34.627 c 55.012 
34.193 55.145 33.474 55.113 32.451 c 51.391 32.451 l 51.406 33.381 
51.57 34.099 51.914 34.576 c 52.281 35.08 52.715 35.302 53.266 35.302 c 
h
31.039 15.802 m 33.141 15.802 l 33.141 11.529 l 31.039 11.529 l h
31.039 15.802 m f
Q Q
showpage
%%Trailer
count op_count sub {pop} repeat
countdictstack dict_count sub {end} repeat
cairo_eps_state restore
%%EOF
