%!PS-Adobe-3.0 EPSF-3.0
%%Creator: cairo 1.10.2 (http://cairographics.org)
%%CreationDate: Tue Aug 16 17:49:37 2011
%%Pages: 1
%%BoundingBox: 17 26 94 73
%%DocumentData: Clean7Bit
%%LanguageLevel: 2
%%EndComments
%%BeginProlog
/cairo_eps_state save def
/dict_count countdictstack def
/op_count count 1 sub def
userdict begin
/q { gsave } bind def
/Q { grestore } bind def
/cm { 6 array astore concat } bind def
/w { setlinewidth } bind def
/J { setlinecap } bind def
/j { setlinejoin } bind def
/M { setmiterlimit } bind def
/d { setdash } bind def
/m { moveto } bind def
/l { lineto } bind def
/c { curveto } bind def
/h { closepath } bind def
/re { exch dup neg 3 1 roll 5 3 roll moveto 0 rlineto
      0 exch rlineto 0 rlineto closepath } bind def
/S { stroke } bind def
/f { fill } bind def
/f* { eofill } bind def
/n { newpath } bind def
/W { clip } bind def
/W* { eoclip } bind def
/BT { } bind def
/ET { } bind def
/pdfmark where { pop globaldict /?pdfmark /exec load put }
    { globaldict begin /?pdfmark /pop load def /pdfmark
    /cleartomark load def end } ifelse
/BDC { mark 3 1 roll /BDC pdfmark } bind def
/EMC { mark /EMC pdfmark } bind def
/cairo_store_point { /cairo_point_y exch def /cairo_point_x exch def } def
/Tj { show currentpoint cairo_store_point } bind def
/TJ {
  {
    dup
    type /stringtype eq
    { show } { -0.001 mul 0 cairo_font_matrix dtransform rmoveto } ifelse
  } forall
  currentpoint cairo_store_point
} bind def
/cairo_selectfont { cairo_font_matrix aload pop pop pop 0 0 6 array astore
    cairo_font exch selectfont cairo_point_x cairo_point_y moveto } bind def
/Tf { pop /cairo_font exch def /cairo_font_matrix where
      { pop cairo_selectfont } if } bind def
/Td { matrix translate cairo_font_matrix matrix concatmatrix dup
      /cairo_font_matrix exch def dup 4 get exch 5 get cairo_store_point
      /cairo_font where { pop cairo_selectfont } if } bind def
/Tm { 2 copy 8 2 roll 6 array astore /cairo_font_matrix exch def
      cairo_store_point /cairo_font where { pop cairo_selectfont } if } bind def
/g { setgray } bind def
/rg { setrgbcolor } bind def
/d1 { setcachedevice } bind def
%%EndProlog
%%Page: 1 1
%%BeginPageSetup
%%PageBoundingBox: 17 26 94 73
%%EndPageSetup
q 17 26 77 47 rectclip q
0 g
17.426 71.388 m 17.426 38.338 l 21.176 38.338 l 21.176 39.361 l 22.387 
38.713 23.723 38.338 25.199 38.338 c 27.609 38.338 29.484 39.295 30.699 
41.162 c 31.914 43.033 32.5 45.795 32.5 49.439 c 32.5 51.189 l 32.5 
55.576 31.875 58.537 30.551 60.111 c 29.27 61.634 27.891 62.412 26.449 
62.412 c 24.551 62.412 l 23.523 62.412 22.406 61.849 21.176 60.861 c 
21.176 71.388 l h
56.25 71.388 m 56.25 42.213 l 56.25 40.947 56.617 39.955 57.301 39.287 
c 57.98 38.623 58.957 38.338 60.25 38.338 c 61.926 38.338 l 61.926 
41.838 l 60.25 41.838 l 60.145 41.838 60.16 41.842 60.125 41.888 c 
60.09 41.935 60 42.029 60 42.213 c 60 71.388 l h
43.602 62.412 m 41.461 62.412 39.77 61.674 38.574 60.236 c 37.395 
58.818 36.73 57.146 36.625 55.189 c 36.602 54.912 l 40.352 54.912 l 
40.375 55.138 l 40.582 56.494 40.945 57.502 41.477 58.088 c 42 58.67 
42.793 58.912 43.898 58.912 c 45.016 58.912 45.918 58.658 46.551 58.162 
c 47.16 57.685 47.426 56.896 47.426 55.662 c 47.426 54.111 l 43.91 
53.826 41.215 52.959 39.398 51.513 c 37.543 50.033 36.625 47.951 36.625 
45.287 c 36.625 43.017 37.156 41.263 38.199 40.088 c 39.242 38.912 
40.797 38.338 42.824 38.338 c 44.512 38.338 46.016 38.888 47.426 39.912 
c 47.426 38.338 l 51.199 38.338 l 51.199 55.662 l 51.199 58.049 50.523 
59.799 49.199 60.861 c 47.918 61.896 46.641 62.412 45.324 62.412 c h
70.324 62.412 m 68.801 62.412 67.438 61.818 66.199 60.611 c 64.957 59.4 
64.324 57.826 64.324 55.963 c 64.324 53.467 65.094 51.627 66.625 50.513 
c 68.109 49.431 69.52 48.783 70.926 48.564 c 72.176 48.213 l 72.199 
48.213 l 73 48.111 73.598 47.849 74.023 47.412 c 74.48 46.947 74.785 
46.517 74.926 46.138 c 75.066 45.752 75.148 45.24 75.148 44.513 c 
75.148 43.599 74.918 42.916 74.449 42.486 c 73.996 42.072 73.152 41.838 
71.926 41.838 c 70.816 41.838 69.984 42.142 69.352 42.736 c 68.73 
43.318 68.281 44.369 68.074 45.939 c 68.023 46.138 l 64.273 46.138 l 
64.324 45.888 l 64.539 43.295 65.332 41.357 66.75 40.138 c 68.152 
38.931 69.895 38.338 71.926 38.338 c 73.949 38.338 75.574 38.861 76.824 
39.912 c 78.082 40.97 78.75 42.549 78.75 44.513 c 78.75 45.924 78.488 
47.088 78 48.088 c 77.512 49.08 76.82 49.904 75.898 50.513 c 74.984 
51.119 73.828 51.564 72.449 51.888 c 71.176 52.189 l 70.164 52.392 
69.367 52.834 68.773 53.439 c 68.195 54.025 67.926 54.834 67.926 55.963 
c 67.926 56.873 68.176 57.525 68.699 58.013 c 69.215 58.49 70.051 
58.787 71.273 58.787 c 72.27 58.787 73.109 58.443 73.801 57.787 c 74.48 
57.146 74.898 56.158 75 54.814 c 75 54.611 l 78.75 54.611 l 78.75 
54.861 l 78.645 57.248 77.906 59.115 76.551 60.439 c 75.211 61.748 
73.68 62.412 72.051 62.412 c h
89.852 62.412 m 87.711 62.412 85.992 61.674 84.801 60.236 c 83.617 
58.818 83.008 57.146 82.898 55.189 c 82.852 54.912 l 86.602 54.912 l 
86.602 55.138 l 86.805 56.494 87.223 57.502 87.75 58.088 c 88.273 58.67 
89.043 58.912 90.148 58.912 c 91.195 58.912 92.008 58.701 92.625 58.263 
c 92.34 59.674 91.969 61.052 91.551 62.412 c h
25.523 58.787 m 26.703 58.787 27.523 58.185 28.125 56.939 c 28.727 
55.689 29.051 53.775 29.051 51.189 c 29.051 49.564 l 29.051 46.92 
28.699 44.963 28.051 43.689 c 27.398 42.412 26.484 41.838 25.199 41.838 
c 23.707 41.838 22.379 42.365 21.176 43.361 c 21.176 56.939 l 22.691 
58.154 24.148 58.787 25.523 58.787 c h
93.25 54.037 m 89.961 53.713 87.434 52.896 85.699 51.513 c 83.844 
50.033 82.898 47.951 82.898 45.287 c 82.898 43.017 83.383 41.263 84.426 
40.088 c 85.469 38.912 87.047 38.338 89.074 38.338 c 90.191 38.338 
91.234 38.576 92.227 39.037 c 92.578 40.482 92.867 41.943 93.074 43.439 
c 91.73 42.377 90.516 41.838 89.523 41.838 c 88.469 41.838 87.746 
42.158 87.25 42.713 c 86.758 43.259 86.48 44.072 86.477 45.236 c 86.477 
45.287 l 86.535 46.748 87.129 47.873 88.352 48.736 c 89.492 49.545 
91.25 50.099 93.477 50.388 c 93.449 51.619 93.371 52.834 93.25 54.037 c 
h
47.449 50.412 m 47.449 43.963 l 45.828 42.533 44.426 41.838 43.273 
41.838 c 42.219 41.838 41.496 42.158 41 42.713 c 40.508 43.259 40.23 
44.072 40.227 45.236 c 40.227 45.287 l 40.285 46.748 40.879 47.873 
42.102 48.736 c 43.285 49.576 45.102 50.134 47.449 50.412 c h
18.727 41.912 m 20.301 41.912 l 20.301 39.611 l 18.727 39.611 l h
47.398 32.537 m 47.398 26.486 l 51.148 26.486 l 51.148 32.537 l h
47.398 32.537 m f
Q Q
showpage
%%Trailer
count op_count sub {pop} repeat
countdictstack dict_count sub {end} repeat
cairo_eps_state restore
%%EOF
