%!PS-Adobe-3.0 EPSF-3.0
%%Creator: cairo 1.10.2 (http://cairographics.org)
%%CreationDate: Tue Aug 16 17:48:07 2011
%%Pages: 1
%%BoundingBox: 15 22 77 60
%%DocumentData: Clean7Bit
%%LanguageLevel: 2
%%EndComments
%%BeginProlog
/cairo_eps_state save def
/dict_count countdictstack def
/op_count count 1 sub def
userdict begin
/q { gsave } bind def
/Q { grestore } bind def
/cm { 6 array astore concat } bind def
/w { setlinewidth } bind def
/J { setlinecap } bind def
/j { setlinejoin } bind def
/M { setmiterlimit } bind def
/d { setdash } bind def
/m { moveto } bind def
/l { lineto } bind def
/c { curveto } bind def
/h { closepath } bind def
/re { exch dup neg 3 1 roll 5 3 roll moveto 0 rlineto
      0 exch rlineto 0 rlineto closepath } bind def
/S { stroke } bind def
/f { fill } bind def
/f* { eofill } bind def
/n { newpath } bind def
/W { clip } bind def
/W* { eoclip } bind def
/BT { } bind def
/ET { } bind def
/pdfmark where { pop globaldict /?pdfmark /exec load put }
    { globaldict begin /?pdfmark /pop load def /pdfmark
    /cleartomark load def end } ifelse
/BDC { mark 3 1 roll /BDC pdfmark } bind def
/EMC { mark /EMC pdfmark } bind def
/cairo_store_point { /cairo_point_y exch def /cairo_point_x exch def } def
/Tj { show currentpoint cairo_store_point } bind def
/TJ {
  {
    dup
    type /stringtype eq
    { show } { -0.001 mul 0 cairo_font_matrix dtransform rmoveto } ifelse
  } forall
  currentpoint cairo_store_point
} bind def
/cairo_selectfont { cairo_font_matrix aload pop pop pop 0 0 6 array astore
    cairo_font exch selectfont cairo_point_x cairo_point_y moveto } bind def
/Tf { pop /cairo_font exch def /cairo_font_matrix where
      { pop cairo_selectfont } if } bind def
/Td { matrix translate cairo_font_matrix matrix concatmatrix dup
      /cairo_font_matrix exch def dup 4 get exch 5 get cairo_store_point
      /cairo_font where { pop cairo_selectfont } if } bind def
/Tm { 2 copy 8 2 roll 6 array astore /cairo_font_matrix exch def
      cairo_store_point /cairo_font where { pop cairo_selectfont } if } bind def
/g { setgray } bind def
/rg { setrgbcolor } bind def
/d1 { setcachedevice } bind def
%%EndProlog
%%Page: 1 1
%%BeginPageSetup
%%PageBoundingBox: 15 22 77 60
%%EndPageSetup
q 15 22 62 38 rectclip q
0 g
15.148 58.654 m 15.148 32.006 l 18.176 32.006 l 18.176 32.83 l 19.152 
32.306 20.234 32.006 21.426 32.006 c 23.367 32.006 24.871 32.771 25.852 
34.279 c 26.828 35.787 27.301 38.017 27.301 40.955 c 27.301 42.381 l 
27.301 45.92 26.793 48.31 25.727 49.58 c 24.691 50.806 23.586 51.431 
22.426 51.431 c 20.898 51.431 l 20.07 51.431 19.168 50.974 18.176 
50.181 c 18.176 58.654 l h
46.449 58.654 m 46.449 35.131 l 46.449 34.111 46.75 33.318 47.301 
32.779 c 47.852 32.244 48.633 32.006 49.676 32.006 c 51.023 32.006 l 
51.023 34.83 l 49.676 34.83 l 49.59 34.83 49.602 34.841 49.574 34.881 c 
49.547 34.92 49.477 34.982 49.477 35.131 c 49.477 58.654 l h
36.25 51.431 m 34.523 51.431 33.164 50.838 32.199 49.681 c 31.246 
48.533 30.711 47.185 30.625 45.603 c 30.602 45.381 l 33.625 45.381 l 
33.648 45.556 l 33.816 46.65 34.125 47.455 34.551 47.931 c 34.973 48.4 
35.605 48.603 36.5 48.603 c 37.398 48.603 38.117 48.404 38.625 48.006 c 
39.117 47.619 39.352 46.974 39.352 45.978 c 39.352 44.728 l 36.516 
44.498 34.34 43.795 32.875 42.631 c 31.379 41.435 30.625 39.752 30.625 
37.603 c 30.625 35.775 31.059 34.377 31.898 33.431 c 32.742 32.482 
33.988 32.006 35.625 32.006 c 36.984 32.006 38.211 32.455 39.352 33.279 
c 39.352 32.006 l 42.375 32.006 l 42.375 45.978 l 42.375 47.904 41.84 
49.322 40.773 50.181 c 39.738 51.013 38.711 51.431 37.648 51.431 c h
57.801 51.431 m 56.57 51.431 55.473 50.951 54.477 49.978 c 53.473 
49.002 52.977 47.732 52.977 46.228 c 52.977 44.216 53.59 42.728 54.824 
41.83 c 56.023 40.959 57.168 40.431 58.301 40.256 c 59.301 39.978 l 
59.324 39.978 l 59.969 39.896 60.453 39.681 60.801 39.33 c 61.168 
38.955 61.41 38.611 61.523 38.306 c 61.641 37.994 61.699 37.568 61.699 
36.978 c 61.699 36.244 61.5 35.701 61.125 35.353 c 60.758 35.017 60.09 
34.83 59.102 34.83 c 58.207 34.83 57.535 35.076 57.023 35.556 c 56.527 
36.025 56.164 36.865 56 38.131 c 55.949 38.306 l 52.926 38.306 l 52.977 
38.103 l 53.145 36.013 53.781 34.439 54.926 33.455 c 56.055 32.482 
57.461 32.006 59.102 32.006 c 60.734 32.006 62.043 32.431 63.051 33.279 
c 64.062 34.131 64.602 35.396 64.602 36.978 c 64.602 38.119 64.395 
39.076 64 39.881 c 63.605 40.681 63.043 41.341 62.301 41.83 c 61.559 
42.318 60.637 42.67 59.523 42.931 c 58.5 43.181 l 57.684 43.345 57.027 
43.693 56.551 44.181 c 56.082 44.654 55.875 45.318 55.875 46.228 c 
55.875 46.963 56.078 47.486 56.5 47.881 c 56.914 48.263 57.59 48.506 
58.574 48.506 c 59.379 48.506 60.043 48.232 60.602 47.705 c 61.148 
47.185 61.492 46.388 61.574 45.306 c 61.574 45.131 l 64.602 45.131 l 
64.602 45.33 l 64.516 47.252 63.918 48.763 62.824 49.83 c 61.746 50.884 
60.516 51.431 59.199 51.431 c h
73.551 51.431 m 71.824 51.431 70.438 50.838 69.477 49.681 c 68.523 
48.533 68.035 47.185 67.949 45.603 c 67.898 45.381 l 70.926 45.381 l 
70.926 45.556 l 71.09 46.65 71.422 47.455 71.852 47.931 c 72.273 48.4 
72.906 48.603 73.801 48.603 c 74.645 48.603 75.305 48.431 75.801 48.08 
c 75.57 49.216 75.262 50.334 74.926 51.431 c h
21.676 48.506 m 22.625 48.506 23.289 48.013 23.773 47.006 c 24.258 
45.998 24.523 44.466 24.523 42.381 c 24.523 41.056 l 24.523 38.923 
24.25 37.357 23.727 36.33 c 23.199 35.302 22.461 34.83 21.426 34.83 c 
20.223 34.83 19.145 35.252 18.176 36.056 c 18.176 47.006 l 19.398 
47.986 20.562 48.506 21.676 48.506 c h
76.301 44.681 m 73.648 44.42 71.598 43.744 70.199 42.631 c 68.703 
41.435 67.949 39.752 67.949 37.603 c 67.949 35.775 68.332 34.377 69.176 
33.431 c 70.016 32.482 71.289 32.006 72.926 32.006 c 73.824 32.006 
74.676 32.209 75.477 32.58 c 75.762 33.744 75.984 34.923 76.148 36.131 
c 75.066 35.275 74.098 34.83 73.301 34.83 c 72.449 34.83 71.852 35.084 
71.449 35.529 c 71.055 35.97 70.832 36.638 70.824 37.58 c 70.824 37.603 
l 70.875 38.783 71.363 39.709 72.352 40.404 c 73.27 41.056 74.68 41.498 
76.477 41.728 c 76.457 42.72 76.398 43.709 76.301 44.681 c h
39.352 41.756 m 39.352 36.556 l 38.043 35.4 36.926 34.83 36 34.83 c 
35.148 34.83 34.551 35.084 34.148 35.529 c 33.754 35.97 33.531 36.638 
33.523 37.58 c 33.523 37.603 l 33.57 38.783 34.066 39.709 35.051 40.404 
c 36.008 41.08 37.457 41.533 39.352 41.756 c h
16.199 34.904 m 17.477 34.904 l 17.477 33.056 l 16.199 33.056 l h
39.324 27.33 m 39.324 22.455 l 42.352 22.455 l 42.352 27.33 l h
39.324 27.33 m f
Q Q
showpage
%%Trailer
count op_count sub {pop} repeat
countdictstack dict_count sub {end} repeat
cairo_eps_state restore
%%EOF
