<?xml version="1.0" encoding="UTF-8" standalone="no"?>
<!-- Created with Inkscape (http://www.inkscape.org/) -->

<svg
   xmlns:dc="http://purl.org/dc/elements/1.1/"
   xmlns:cc="http://creativecommons.org/ns#"
   xmlns:rdf="http://www.w3.org/1999/02/22-rdf-syntax-ns#"
   xmlns:svg="http://www.w3.org/2000/svg"
   xmlns="http://www.w3.org/2000/svg"
   xmlns:sodipodi="http://sodipodi.sourceforge.net/DTD/sodipodi-0.dtd"
   xmlns:inkscape="http://www.inkscape.org/namespaces/inkscape"
   width="26.574802"
   height="42.519684"
   id="svg3140"
   version="1.1"
   inkscape:version="0.48.1 r9760"
   sodipodi:docname="arrow-lettres.svg">
  <defs
     id="defs3142">
    <inkscape:path-effect
       is_visible="true"
       id="path-effect3134"
       effect="spiro" />
    <inkscape:path-effect
       fuse_tolerance="0"
       vertical_pattern="false"
       prop_units="false"
       tang_offset="0"
       normal_offset="0"
       spacing="0"
       scale_y_rel="false"
       prop_scale="1"
       copytype="repeated"
       pattern="m 821.00377,800.3079 c -2.99891,-0.0689 -5.97831,-0.87238 -8.6052,-2.3207 -4.23901,-2.33716 -7.53567,-6.45596 -8.5528,-11.1885 -0.17461,-0.81241 -0.28131,-1.67307 -0.0239,-2.46316 0.12872,-0.39504 0.35018,-0.76436 0.66316,-1.03762 0.31297,-0.27326 0.72044,-0.44535 1.13592,-0.44392 0.41446,10e-4 0.81975,0.17542 1.13075,0.44938 0.31101,0.27397 0.53076,0.64287 0.65881,1.03705 0.2561,0.78838 0.15228,1.64628 -0.0145,2.45827 -0.95199,4.63589 -3.96294,8.80372 -8.0508,11.1885 -2.59631,1.51464 -5.59928,2.32451 -8.6051,2.3207"
       is_visible="true"
       id="path-effect3136"
       effect="skeletal" />
    <inkscape:path-effect
       effect="spiro"
       id="path-effect4422"
       is_visible="true" />
    <inkscape:path-effect
       is_visible="true"
       id="path-effect3134-7"
       effect="spiro" />
    <inkscape:path-effect
       fuse_tolerance="0"
       vertical_pattern="false"
       prop_units="false"
       tang_offset="0"
       normal_offset="0"
       spacing="0"
       scale_y_rel="false"
       prop_scale="1"
       copytype="repeated"
       pattern="m 406.64976,900.02459 c -2.99891,-0.0689 -5.97831,-0.87238 -8.6052,-2.3207 -4.23901,-2.33716 -7.53567,-6.45596 -8.5528,-11.1885 -0.17461,-0.81241 -0.28131,-1.67307 -0.0239,-2.46316 0.12872,-0.39504 0.35018,-0.76436 0.66316,-1.03762 0.31297,-0.27326 0.72044,-0.44535 1.13592,-0.44392 0.41446,10e-4 0.81975,0.17542 1.13075,0.44938 0.31101,0.27397 0.53076,0.64287 0.65881,1.03705 0.2561,0.78838 0.15228,1.64628 -0.0145,2.45827 -0.95199,4.63589 -3.96294,8.80372 -8.0508,11.1885 -2.59631,1.51464 -5.59928,2.32451 -8.6051,2.3207"
       is_visible="true"
       id="path-effect3136-9"
       effect="skeletal" />
  </defs>
  <sodipodi:namedview
     id="base"
     pagecolor="#ffffff"
     bordercolor="#666666"
     borderopacity="1.0"
     inkscape:pageopacity="0.0"
     inkscape:pageshadow="2"
     inkscape:zoom="8.5902069"
     inkscape:cx="28.571429"
     inkscape:cy="18.571429"
     inkscape:document-units="px"
     inkscape:current-layer="layer1"
     showgrid="false"
     units="cm"
     inkscape:showpageshadow="false"
     inkscape:window-width="1280"
     inkscape:window-height="721"
     inkscape:window-x="0"
     inkscape:window-y="25"
     inkscape:window-maximized="1" />
  <metadata
     id="metadata3145">
    <rdf:RDF>
      <cc:Work
         rdf:about="">
        <dc:format>image/svg+xml</dc:format>
        <dc:type
           rdf:resource="http://purl.org/dc/dcmitype/StillImage" />
        <dc:title></dc:title>
      </cc:Work>
    </rdf:RDF>
  </metadata>
  <g
     inkscape:label="Layer 1"
     inkscape:groupmode="layer"
     id="layer1"
     transform="translate(0,-1009.8053)">
    <path
       sodipodi:nodetypes="ccc"
       inkscape:original-d="m 11.774415,1042.6902 0.0999,-8.3648 0,-27.1367"
       inkscape:path-effect="#path-effect3134;#path-effect3136"
       inkscape:connector-curvature="0"
       id="path3132"
       d="m 20.639715,1012.3785 c -0.05199,3.0168 -0.84844,6.0173 -2.297249,8.6552 -2.337949,4.2569 -6.476129,7.5374 -11.2146071,8.5232 -0.8134294,0.1692 -1.6747075,0.27 -2.463258,0.01 -0.3942701,-0.1304 -0.7622802,-0.3529 -1.0338214,-0.6656 -0.2715412,-0.3127 -0.4415133,-0.7187 -0.4381235,-1.1317 0.00296,-0.412 0.1790928,-0.8141 0.4542828,-1.1223 0.2752001,-0.3082 0.6448798,-0.5254 1.0395086,-0.6515 0.7892775,-0.252 1.6468087,-0.1459 2.4582033,0.023 4.6324913,0.9654 8.7899533,3.9984 11.1378233,8.1251 0.04567,0.08 0.09067,0.1609 0.135001,0.2419 1.402949,2.5647 2.129878,5.5034 2.082938,8.4339"
       style="fill:none;stroke:#000000;stroke-width:0.625;stroke-linecap:butt;stroke-linejoin:miter;stroke-miterlimit:4;stroke-opacity:1;stroke-dasharray:none" />
    <polygon
       points="130.375,-196.5 135.625,-196.5 135.625,-196.5 133,-189 "
       id="polygon3138"
       style="fill:#000000;stroke:#000000"
       transform="matrix(0.9375,0,0,0.9375,-104.24348,1226.8583)" />
  </g>
</svg>
