<?xml version="1.0" encoding="UTF-8" standalone="no"?>
<!-- Created with Inkscape (http://www.inkscape.org/) -->

<svg
   xmlns:dc="http://purl.org/dc/elements/1.1/"
   xmlns:cc="http://creativecommons.org/ns#"
   xmlns:rdf="http://www.w3.org/1999/02/22-rdf-syntax-ns#"
   xmlns:svg="http://www.w3.org/2000/svg"
   xmlns="http://www.w3.org/2000/svg"
   xmlns:sodipodi="http://sodipodi.sourceforge.net/DTD/sodipodi-0.dtd"
   xmlns:inkscape="http://www.inkscape.org/namespaces/inkscape"
   width="124.01575"
   height="74.409447"
   id="svg10471"
   version="1.1"
   inkscape:version="0.48.1 r9760"
   sodipodi:docname="logi3.svg">
  <defs
     id="defs10473" />
  <sodipodi:namedview
     id="base"
     pagecolor="#ffffff"
     bordercolor="#666666"
     borderopacity="1.0"
     inkscape:pageopacity="0.0"
     inkscape:pageshadow="2"
     inkscape:zoom="2.1512393"
     inkscape:cx="59.045042"
     inkscape:cy="3.7102169"
     inkscape:document-units="px"
     inkscape:current-layer="layer1"
     showgrid="false"
     borderlayer="true"
     inkscape:showpageshadow="false"
     inkscape:window-width="1280"
     inkscape:window-height="721"
     inkscape:window-x="0"
     inkscape:window-y="25"
     inkscape:window-maximized="1"
     units="mm" />
  <metadata
     id="metadata10476">
    <rdf:RDF>
      <cc:Work
         rdf:about="">
        <dc:format>image/svg+xml</dc:format>
        <dc:type
           rdf:resource="http://purl.org/dc/dcmitype/StillImage" />
        <dc:title></dc:title>
      </cc:Work>
    </rdf:RDF>
  </metadata>
  <g
     inkscape:label="Layer 1"
     inkscape:groupmode="layer"
     id="layer1"
     transform="translate(0,-977.95272)">
    <rect
       style="fill:#ffffff;fill-opacity:1;fill-rule:nonzero;stroke:#000000;stroke-width:0.3125;stroke-linecap:round;stroke-linejoin:round;stroke-miterlimit:4;stroke-opacity:1;stroke-dasharray:none;stroke-dashoffset:0"
       id="rect3030"
       width="105.95621"
       height="59.893223"
       x="9.7057762"
       y="983.16162" />
    <text
       xml:space="preserve"
       style="font-size:7.24935722px;font-style:normal;font-variant:normal;font-weight:normal;font-stretch:normal;text-align:center;line-height:100%;letter-spacing:0.02230571px;word-spacing:0px;writing-mode:lr-tb;text-anchor:middle;fill:#000000;fill-opacity:1;stroke:none;font-family:Ume P Gothic Vertical;-inkscape-font-specification:Ume P Gothic Vertical"
       x="62.55645"
       y="994.89734"
       id="text3032"
       sodipodi:linespacing="100%"><tspan
         sodipodi:role="line"
         id="tspan3034"
         x="62.567604"
         y="994.89734">BELGIQUE - BELGIË</tspan></text>
    <text
       sodipodi:linespacing="130%"
       id="text3036"
       y="1010.5096"
       x="62.717506"
       style="font-size:7.24935722px;font-style:normal;font-variant:normal;font-weight:normal;font-stretch:normal;text-align:center;line-height:129.99999523%;letter-spacing:0.02230571px;word-spacing:0px;writing-mode:lr-tb;text-anchor:middle;fill:#000000;fill-opacity:1;stroke:none;font-family:Ume P Gothic Vertical;-inkscape-font-specification:Ume P Gothic Vertical"
       xml:space="preserve"><tspan
         y="1010.5096"
         x="62.728661"
         id="tspan3038"
         sodipodi:role="line">P.P.</tspan><tspan
         y="1019.9338"
         x="62.728661"
         sodipodi:role="line"
         id="tspan3044">1040 BRUXELLES 4</tspan><tspan
         y="1029.3579"
         x="62.717506"
         sodipodi:role="line"
         id="tspan3040" /></text>
    <text
       sodipodi:linespacing="100%"
       id="text3048"
       y="1038.0391"
       x="62.83255"
       style="font-size:7.24935722px;font-style:normal;font-variant:normal;font-weight:normal;font-stretch:normal;text-align:center;line-height:100%;letter-spacing:0.02230571px;word-spacing:0px;writing-mode:lr-tb;text-anchor:middle;fill:#000000;fill-opacity:1;stroke:none;font-family:Ume P Gothic Vertical;-inkscape-font-specification:Ume P Gothic Vertical"
       xml:space="preserve"><tspan
         y="1038.0391"
         x="62.843704"
         id="tspan3050"
         sodipodi:role="line">1/4122</tspan></text>
    <path
       style="fill:none;stroke:#000000;stroke-width:0.2630744;stroke-linecap:butt;stroke-linejoin:miter;stroke-miterlimit:4;stroke-opacity:1;stroke-dasharray:none"
       d="m 9.6450084,999.0931 106.0777416,0"
       id="path3838"
       inkscape:connector-curvature="0" />
    <path
       inkscape:connector-curvature="0"
       id="path3840"
       d="m 9.6450064,1026.6598 106.0777436,0"
       style="fill:none;stroke:#000000;stroke-width:0.2630744;stroke-linecap:butt;stroke-linejoin:miter;stroke-miterlimit:4;stroke-opacity:1;stroke-dasharray:none" />
  </g>
</svg>
