%!PS-Adobe-3.0 EPSF-3.0
%%Creator: cairo 1.10.2 (http://cairographics.org)
%%CreationDate: Tue Jun 21 18:09:55 2011
%%Pages: 1
%%BoundingBox: 62 120 3056 446
%%DocumentData: Clean7Bit
%%LanguageLevel: 2
%%EndComments
%%BeginProlog
/cairo_eps_state save def
/dict_count countdictstack def
/op_count count 1 sub def
userdict begin
/q { gsave } bind def
/Q { grestore } bind def
/cm { 6 array astore concat } bind def
/w { setlinewidth } bind def
/J { setlinecap } bind def
/j { setlinejoin } bind def
/M { setmiterlimit } bind def
/d { setdash } bind def
/m { moveto } bind def
/l { lineto } bind def
/c { curveto } bind def
/h { closepath } bind def
/re { exch dup neg 3 1 roll 5 3 roll moveto 0 rlineto
      0 exch rlineto 0 rlineto closepath } bind def
/S { stroke } bind def
/f { fill } bind def
/f* { eofill } bind def
/n { newpath } bind def
/W { clip } bind def
/W* { eoclip } bind def
/BT { } bind def
/ET { } bind def
/pdfmark where { pop globaldict /?pdfmark /exec load put }
    { globaldict begin /?pdfmark /pop load def /pdfmark
    /cleartomark load def end } ifelse
/BDC { mark 3 1 roll /BDC pdfmark } bind def
/EMC { mark /EMC pdfmark } bind def
/cairo_store_point { /cairo_point_y exch def /cairo_point_x exch def } def
/Tj { show currentpoint cairo_store_point } bind def
/TJ {
  {
    dup
    type /stringtype eq
    { show } { -0.001 mul 0 cairo_font_matrix dtransform rmoveto } ifelse
  } forall
  currentpoint cairo_store_point
} bind def
/cairo_selectfont { cairo_font_matrix aload pop pop pop 0 0 6 array astore
    cairo_font exch selectfont cairo_point_x cairo_point_y moveto } bind def
/Tf { pop /cairo_font exch def /cairo_font_matrix where
      { pop cairo_selectfont } if } bind def
/Td { matrix translate cairo_font_matrix matrix concatmatrix dup
      /cairo_font_matrix exch def dup 4 get exch 5 get cairo_store_point
      /cairo_font where { pop cairo_selectfont } if } bind def
/Tm { 2 copy 8 2 roll 6 array astore /cairo_font_matrix exch def
      cairo_store_point /cairo_font where { pop cairo_selectfont } if } bind def
/g { setgray } bind def
/rg { setrgbcolor } bind def
/d1 { setcachedevice } bind def
%%EndProlog
%%Page: 1 1
%%BeginPageSetup
%%PageBoundingBox: 62 120 3056 446
%%EndPageSetup
q 62 120 2994 326 rectclip q
0 g
296.496 355.98 m 255.059 121.699 l 208.84 121.699 l 180.152 319.324 l 
149.871 121.699 l 103.652 121.699 l 62.215 355.98 l 94.09 355.98 l 
125.965 158.355 l 159.434 355.98 l 202.465 355.98 l 231.152 158.355 l 
264.621 355.98 l 296.496 355.98 l f
561.633 355.98 m 520.195 121.699 l 473.977 121.699 l 445.289 319.324 l 
415.008 121.699 l 368.789 121.699 l 327.352 355.98 l 359.227 355.98 l 
391.102 158.355 l 424.57 355.98 l 467.602 355.98 l 496.289 158.355 l 
529.758 355.98 l 561.633 355.98 l f
826.766 355.98 m 785.328 121.699 l 739.109 121.699 l 710.422 319.324 l 
680.141 121.699 l 633.922 121.699 l 592.484 355.98 l 624.359 355.98 l 
656.234 158.355 l 689.703 355.98 l 732.734 355.98 l 761.422 158.355 l 
794.891 355.98 l 826.766 355.98 l f
862.402 201.386 43.031 -79.688 re f
987.285 336.855 m 1002.16 349.605 1014.91 355.98 1025.535 355.98 c 
1044.66 355.98 l 1058.473 355.98 1071.488 348.808 1083.707 334.464 c 
1095.926 320.12 1102.035 291.167 1102.035 247.605 c 1102.035 230.074 l 
1102.035 157.824 1078.66 121.699 1031.91 121.699 c 1015.973 121.699 
1001.098 126.48 987.285 136.042 c 987.285 121.699 l 957.004 121.699 l 
957.004 445.23 l 987.285 445.23 l 987.285 336.855 l 987.285 306.574 m 
987.285 167.917 l 1001.098 156.23 1015.973 150.386 1031.91 150.386 c 
1060.598 150.386 1074.941 177.48 1074.941 231.667 c 1074.941 247.605 l 
1074.941 300.73 1061.66 327.292 1035.098 327.292 c 1020.223 327.292 
1004.285 320.386 987.285 306.574 c f
1292.266 121.699 m 1261.984 121.699 l 1261.984 142.417 l 1246.047 
128.605 1229.047 121.699 1210.984 121.699 c 1171.672 121.699 1152.016 
144.011 1152.016 188.636 c 1152.016 239.636 1188.672 267.792 1261.984 
273.105 c 1261.984 292.23 l 1261.984 304.98 1258.266 314.277 1250.828 
320.12 c 1243.391 325.964 1233.828 328.886 1222.141 328.886 c 1210.453 
328.886 1201.422 325.433 1195.047 318.527 c 1188.672 311.62 1184.422 
301.792 1182.297 289.042 c 1152.016 289.042 l 1153.078 307.105 1159.188 
322.777 1170.344 336.058 c 1181.5 349.339 1197.703 355.98 1218.953 
355.98 c 1236.484 355.98 l 1249.234 355.98 1261.719 351.199 1273.938 
341.636 c 1286.156 332.074 1292.266 315.605 1292.266 292.23 c 1292.266 
121.699 l 1261.984 244.417 m 1208.859 239.105 1181.766 220.511 1180.703 
188.636 c 1180.703 163.136 1192.391 150.386 1215.766 150.386 c 1228.516 
150.386 1243.922 158.355 1261.984 174.292 c 1261.984 244.417 l f
1401.211 121.699 m 1388.461 121.699 l 1364.023 121.699 1351.805 133.917 
1351.805 158.355 c 1351.805 445.23 l 1382.086 445.23 l 1382.086 158.355 
l 1382.086 153.042 1384.211 150.386 1388.461 150.386 c 1401.211 150.386 
l 1401.211 121.699 l f
1500.598 327.292 m 1487.848 327.292 1478.285 324.37 1471.91 318.527 c 
1465.535 312.683 1462.348 304.98 1462.348 295.417 c 1462.348 283.73 
1465.535 274.433 1471.91 267.527 c 1478.285 260.62 1487.316 256.105 
1499.004 253.98 c 1511.754 250.792 l 1525.566 247.605 1536.723 243.089 
1545.223 237.245 c 1553.723 231.402 1560.363 223.964 1565.145 214.933 c 
1569.926 205.902 1572.316 194.48 1572.316 180.667 c 1572.316 161.542 
1566.473 146.933 1554.785 136.839 c 1543.098 126.745 1527.16 121.699 
1506.973 121.699 c 1486.785 121.699 1470.051 127.542 1456.77 139.23 c 
1443.488 150.917 1435.785 168.98 1433.66 193.417 c 1463.941 193.417 l 
1466.066 178.542 1470.848 167.652 1478.285 160.745 c 1485.723 153.839 
1495.285 150.386 1506.973 150.386 c 1519.723 150.386 1529.02 153.042 
1534.863 158.355 c 1540.707 163.667 1543.629 171.105 1543.629 180.667 c 
1543.629 188.105 1542.832 194.214 1541.238 198.995 c 1539.645 203.777 
1536.191 208.558 1530.879 213.339 c 1525.566 218.12 1518.66 221.042 
1510.16 222.105 c 1497.41 225.292 l 1483.598 227.417 1469.52 233.792 
1455.176 244.417 c 1440.832 255.042 1433.66 272.042 1433.66 295.417 c 
1433.66 313.48 1439.504 328.089 1451.191 339.245 c 1462.879 350.402 
1476.16 355.98 1491.035 355.98 c 1508.566 355.98 l 1524.504 355.98 
1538.848 349.87 1551.598 337.652 c 1564.348 325.433 1571.254 308.167 
1572.316 285.855 c 1542.035 285.855 l 1540.973 298.605 1536.457 308.699 
1528.488 316.136 c 1520.52 323.574 1511.223 327.292 1500.598 327.292 c f
1762.543 121.699 m 1732.262 121.699 l 1732.262 142.417 l 1716.324 
128.605 1699.324 121.699 1681.262 121.699 c 1641.949 121.699 1622.293 
144.011 1622.293 188.636 c 1622.293 239.636 1658.949 267.792 1732.262 
273.105 c 1732.262 292.23 l 1732.262 304.98 1728.543 314.277 1721.105 
320.12 c 1713.668 325.964 1704.105 328.886 1692.418 328.886 c 1680.73 
328.886 1671.699 325.433 1665.324 318.527 c 1658.949 311.62 1654.699 
301.792 1652.574 289.042 c 1622.293 289.042 l 1623.355 307.105 1629.465 
322.777 1640.621 336.058 c 1651.777 349.339 1667.98 355.98 1689.23 
355.98 c 1706.762 355.98 l 1719.512 355.98 1731.996 351.199 1744.215 
341.636 c 1756.434 332.074 1762.543 315.605 1762.543 292.23 c 1762.543 
121.699 l 1732.262 244.417 m 1679.137 239.105 1652.043 220.511 1650.98 
188.636 c 1650.98 163.136 1662.668 150.386 1686.043 150.386 c 1698.793 
150.386 1714.199 158.355 1732.262 174.292 c 1732.262 244.417 l f
2061.148 121.699 m 2030.867 121.699 l 2030.867 300.199 l 2030.867 
310.824 2028.211 318.261 2022.898 322.511 c 2017.586 326.761 2009.086 
328.886 1997.398 328.886 c 1981.461 328.886 1967.648 323.042 1955.961 
311.355 c 1955.961 121.699 l 1927.273 121.699 l 1927.273 300.199 l 
1927.273 311.886 1923.82 319.589 1916.914 323.308 c 1910.008 327.027 
1901.773 328.886 1892.211 328.886 c 1875.211 328.886 1862.461 323.042 
1853.961 311.355 c 1853.961 121.699 l 1825.273 121.699 l 1825.273 
355.98 l 1853.961 355.98 l 1853.961 340.042 l 1863.523 350.667 1876.273 
355.98 1892.211 355.98 c 1906.555 355.98 l 1915.055 355.98 1922.758 
354.12 1929.664 350.402 c 1936.57 346.683 1942.68 341.636 1947.992 
335.261 c 1961.805 349.074 1978.273 355.98 1997.398 355.98 c 2014.93 
355.98 l 2025.555 355.98 2035.914 351.73 2046.008 343.23 c 2056.102 
334.73 2061.148 320.386 2061.148 300.199 c 2061.148 121.699 l f
2152.562 121.699 m 2122.281 121.699 l 2122.281 355.98 l 2152.562 355.98 
l 2152.562 121.699 l 2152.562 392.636 m 2122.281 392.636 l 2122.281 
445.23 l 2152.562 445.23 l 2152.562 392.636 l f
2352.355 121.699 m 2323.668 121.699 l 2323.668 300.199 l 2323.668 
312.949 2320.746 320.917 2314.902 324.105 c 2309.059 327.292 2301.355 
328.886 2291.793 328.886 c 2280.105 328.886 2270.277 325.964 2262.309 
320.12 c 2254.34 314.277 2247.168 306.574 2240.793 297.011 c 2240.793 
121.699 l 2212.105 121.699 l 2212.105 355.98 l 2240.793 355.98 l 
2240.793 328.886 l 2245.043 335.261 2249.559 340.308 2254.34 344.027 c 
2259.121 347.745 2263.902 350.667 2268.684 352.792 c 2273.465 354.917 
2280.637 355.98 2290.199 355.98 c 2307.73 355.98 l 2319.418 355.98 
2329.777 351.73 2338.809 343.23 c 2347.84 334.73 2352.355 322.511 
2352.355 306.574 c 2352.355 121.699 l f
2437.395 226.886 m 2438.457 204.574 2443.504 186.511 2452.535 172.699 c 
2461.566 158.886 2475.645 151.449 2494.77 150.386 c 2504.332 150.386 
2512.035 152.245 2517.879 155.964 c 2523.723 159.683 2528.238 164.73 
2531.426 171.105 c 2563.301 171.105 l 2559.051 155.167 2550.551 142.949 
2537.801 134.449 c 2525.051 125.949 2510.707 121.699 2494.77 121.699 c 
2468.207 121.699 2447.223 131.527 2431.816 151.183 c 2416.41 170.839 
2408.707 196.074 2408.707 226.886 c 2408.707 253.98 l 2408.707 289.042 
2415.613 314.808 2429.426 331.277 c 2443.238 347.745 2459.176 355.98 
2477.238 355.98 c 2496.363 355.98 l 2513.363 355.98 2529.035 347.745 
2543.379 331.277 c 2557.723 314.808 2564.895 289.042 2564.895 253.98 c 
2564.895 226.886 l 2437.395 226.886 l 2534.613 253.98 m 2535.676 
280.542 2531.957 299.667 2523.457 311.355 c 2514.957 323.042 2502.738 
328.886 2486.801 328.886 c 2472.988 328.886 2461.301 322.511 2451.738 
309.761 c 2442.176 297.011 2437.395 278.417 2437.395 253.98 c 2534.613 
253.98 l f
2610.094 201.386 43.031 -79.688 re f
2734.977 336.855 m 2749.852 349.605 2762.602 355.98 2773.227 355.98 c 
2792.352 355.98 l 2806.164 355.98 2819.18 348.808 2831.398 334.464 c 
2843.617 320.12 2849.727 291.167 2849.727 247.605 c 2849.727 230.074 l 
2849.727 157.824 2826.352 121.699 2779.602 121.699 c 2763.664 121.699 
2748.789 126.48 2734.977 136.042 c 2734.977 121.699 l 2704.695 121.699 
l 2704.695 445.23 l 2734.977 445.23 l 2734.977 336.855 l 2734.977 
306.574 m 2734.977 167.917 l 2748.789 156.23 2763.664 150.386 2779.602 
150.386 c 2808.289 150.386 2822.633 177.48 2822.633 231.667 c 2822.633 
247.605 l 2822.633 300.73 2809.352 327.292 2782.789 327.292 c 2767.914 
327.292 2751.977 320.386 2734.977 306.574 c f
2928.395 226.886 m 2929.457 204.574 2934.504 186.511 2943.535 172.699 c 
2952.566 158.886 2966.645 151.449 2985.77 150.386 c 2995.332 150.386 
3003.035 152.245 3008.879 155.964 c 3014.723 159.683 3019.238 164.73 
3022.426 171.105 c 3054.301 171.105 l 3050.051 155.167 3041.551 142.949 
3028.801 134.449 c 3016.051 125.949 3001.707 121.699 2985.77 121.699 c 
2959.207 121.699 2938.223 131.527 2922.816 151.183 c 2907.41 170.839 
2899.707 196.074 2899.707 226.886 c 2899.707 253.98 l 2899.707 289.042 
2906.613 314.808 2920.426 331.277 c 2934.238 347.745 2950.176 355.98 
2968.238 355.98 c 2987.363 355.98 l 3004.363 355.98 3020.035 347.745 
3034.379 331.277 c 3048.723 314.808 3055.895 289.042 3055.895 253.98 c 
3055.895 226.886 l 2928.395 226.886 l 3025.613 253.98 m 3026.676 
280.542 3022.957 299.667 3014.457 311.355 c 3005.957 323.042 2993.738 
328.886 2977.801 328.886 c 2963.988 328.886 2952.301 322.511 2942.738 
309.761 c 2933.176 297.011 2928.395 278.417 2928.395 253.98 c 3025.613 
253.98 l f
Q Q
showpage
%%Trailer
count op_count sub {pop} repeat
countdictstack dict_count sub {end} repeat
cairo_eps_state restore
%%EOF
