<?xml version="1.0" encoding="UTF-8" standalone="no"?>
<!-- Created with Inkscape (http://www.inkscape.org/) -->

<svg
   xmlns:dc="http://purl.org/dc/elements/1.1/"
   xmlns:cc="http://creativecommons.org/ns#"
   xmlns:rdf="http://www.w3.org/1999/02/22-rdf-syntax-ns#"
   xmlns:svg="http://www.w3.org/2000/svg"
   xmlns="http://www.w3.org/2000/svg"
   xmlns:sodipodi="http://sodipodi.sourceforge.net/DTD/sodipodi-0.dtd"
   xmlns:inkscape="http://www.inkscape.org/namespaces/inkscape"
   width="744.09448819"
   height="1052.3622047"
   id="svg9437"
   version="1.1"
   inkscape:version="0.48.2 r9819"
   sodipodi:docname="decembre.svg">
  <defs
     id="defs9439" />
  <sodipodi:namedview
     id="base"
     pagecolor="#ffffff"
     bordercolor="#666666"
     borderopacity="1.0"
     inkscape:pageopacity="0.0"
     inkscape:pageshadow="2"
     inkscape:zoom="2.8"
     inkscape:cx="446.77482"
     inkscape:cy="298.26446"
     inkscape:document-units="px"
     inkscape:current-layer="layer1"
     showgrid="false"
     inkscape:window-width="1278"
     inkscape:window-height="779"
     inkscape:window-x="0"
     inkscape:window-y="19"
     inkscape:window-maximized="1">
    <sodipodi:guide
       position="615.63117,201.67461"
       orientation="-29.123492,0"
       id="guide7463" />
    <sodipodi:guide
       position="615.63117,230.7981"
       orientation="0,29.056192"
       id="guide7465" />
    <sodipodi:guide
       position="644.68737,230.7981"
       orientation="29.123492,0"
       id="guide7467" />
    <sodipodi:guide
       position="644.68737,201.67461"
       orientation="0,-29.056192"
       id="guide7469" />
    <sodipodi:guide
       position="400.68577,201.7026"
       orientation="-29.067512,0"
       id="guide7471" />
    <sodipodi:guide
       position="400.68577,230.77011"
       orientation="0,28.944601"
       id="guide7473" />
    <sodipodi:guide
       position="429.63038,230.77011"
       orientation="29.067512,0"
       id="guide7475" />
    <sodipodi:guide
       position="429.63038,201.7026"
       orientation="0,-28.944601"
       id="guide7477" />
    <sodipodi:guide
       position="436.51931,201.7026"
       orientation="-29.067512,0"
       id="guide7479" />
    <sodipodi:guide
       position="436.51931,230.77011"
       orientation="0,28.944601"
       id="guide7481" />
    <sodipodi:guide
       position="465.46392,230.77011"
       orientation="29.067512,0"
       id="guide7483" />
    <sodipodi:guide
       position="465.46392,201.7026"
       orientation="0,-28.944601"
       id="guide7485" />
    <sodipodi:guide
       position="472.35283,201.7026"
       orientation="-29.067512,0"
       id="guide7487" />
    <sodipodi:guide
       position="472.35283,230.77011"
       orientation="0,28.944601"
       id="guide7489" />
    <sodipodi:guide
       position="501.29744,230.77011"
       orientation="29.067512,0"
       id="guide7491" />
    <sodipodi:guide
       position="501.29744,201.7026"
       orientation="0,-28.944601"
       id="guide7493" />
    <sodipodi:guide
       position="508.18636,201.7026"
       orientation="-29.067512,0"
       id="guide7495" />
    <sodipodi:guide
       position="508.18636,230.77011"
       orientation="0,28.944601"
       id="guide7497" />
    <sodipodi:guide
       position="537.13097,230.77011"
       orientation="29.067512,0"
       id="guide7499" />
    <sodipodi:guide
       position="537.13097,201.7026"
       orientation="0,-28.944601"
       id="guide7501" />
    <sodipodi:guide
       position="544.0199,201.7026"
       orientation="-29.067512,0"
       id="guide7503" />
    <sodipodi:guide
       position="544.0199,230.77011"
       orientation="0,28.944601"
       id="guide7505" />
    <sodipodi:guide
       position="572.96451,230.77011"
       orientation="29.067512,0"
       id="guide7507" />
    <sodipodi:guide
       position="572.96451,201.7026"
       orientation="0,-28.944601"
       id="guide7509" />
    <sodipodi:guide
       position="579.85347,201.7026"
       orientation="-29.067512,0"
       id="guide7511" />
    <sodipodi:guide
       position="579.85347,230.77011"
       orientation="0,28.944601"
       id="guide7513" />
    <sodipodi:guide
       position="608.79808,230.77011"
       orientation="29.067512,0"
       id="guide7515" />
    <sodipodi:guide
       position="608.79808,201.7026"
       orientation="0,-28.944601"
       id="guide7517" />
    <sodipodi:guide
       position="615.63116,339.78613"
       orientation="-28.751341,0"
       id="guide7529" />
    <sodipodi:guide
       position="615.63116,368.53747"
       orientation="0,28.318413"
       id="guide7531" />
    <sodipodi:guide
       position="643.94958,339.78613"
       orientation="0,-28.318413"
       id="guide7535" />
    <sodipodi:guide
       position="615.63116,270.66089"
       orientation="-29.190949,0"
       id="guide7537" />
    <sodipodi:guide
       position="615.63116,299.85184"
       orientation="0,29.190949"
       id="guide7539" />
    <sodipodi:guide
       position="644.82211,270.66089"
       orientation="0,-29.190949"
       id="guide7543" />
    <sodipodi:guide
       position="615.63116,304.85479"
       orientation="-28.751341,0"
       id="guide7545" />
    <sodipodi:guide
       position="615.63116,333.60613"
       orientation="0,28.318413"
       id="guide7547" />
    <sodipodi:guide
       position="643.94958,304.85479"
       orientation="0,-28.318413"
       id="guide7551" />
    <sodipodi:guide
       position="615.63117,236.72049"
       orientation="-29.123492,0"
       id="guide7553" />
    <sodipodi:guide
       position="615.63117,265.84398"
       orientation="0,29.056192"
       id="guide7555" />
    <sodipodi:guide
       position="644.68737,265.84398"
       orientation="29.123492,0"
       id="guide7557" />
    <sodipodi:guide
       position="644.68737,236.72049"
       orientation="0,-29.056192"
       id="guide7559" />
    <sodipodi:guide
       position="400.68577,166.65672"
       orientation="-29.067512,0"
       id="guide7563" />
    <sodipodi:guide
       position="400.68577,195.72423"
       orientation="0,28.944601"
       id="guide7565" />
    <sodipodi:guide
       position="429.63038,195.72423"
       orientation="29.067512,0"
       id="guide7567" />
    <sodipodi:guide
       position="429.63038,166.65672"
       orientation="0,-28.944601"
       id="guide7569" />
  </sodipodi:namedview>
  <metadata
     id="metadata9442">
    <rdf:RDF>
      <cc:Work
         rdf:about="">
        <dc:format>image/svg+xml</dc:format>
        <dc:type
           rdf:resource="http://purl.org/dc/dcmitype/StillImage" />
        <dc:title />
      </cc:Work>
    </rdf:RDF>
  </metadata>
  <g
     inkscape:label="Layer 1"
     inkscape:groupmode="layer"
     id="layer1">
    <text
       xml:space="preserve"
       style="font-size:40px;font-style:normal;font-weight:normal;line-height:125%;letter-spacing:0px;word-spacing:0px;fill:#000000;fill-opacity:1;stroke:none;font-family:Sans"
       x="404.08859"
       y="702.61176"
       id="text9282-5"
       sodipodi:linespacing="125%"><tspan
         sodipodi:role="line"
         id="tspan9284-9"
         x="404.08859"
         y="702.61176"
         style="font-size:10px;font-style:normal;font-variant:normal;font-weight:normal;font-stretch:normal;font-family:Ume P Gothic Balsa;-inkscape-font-specification:Ume P Gothic Balsa">Décembre</tspan></text>
    <path
       transform="matrix(0.83215275,0,0,0.83215275,217.3331,260.04976)"
       d="m 392.09451,609.3305 1.32346,-6.65349 3.7689,-5.64056 5.64056,-3.7689 6.6535,-1.32346 6.65349,1.32346 5.64056,3.7689 3.7689,5.64056 1.32346,6.6535 -1.32346,6.65349 -3.7689,5.64056 -5.64056,3.7689 -6.65349,1.32346 -6.6535,-1.32346 -5.64056,-3.7689 -3.7689,-5.64056 z"
       inkscape:randomized="0"
       inkscape:rounded="0"
       inkscape:flatsided="true"
       sodipodi:arg2="3.3379422"
       sodipodi:arg1="3.1415927"
       sodipodi:r2="16.535465"
       sodipodi:r1="17.386417"
       sodipodi:cy="609.33051"
       sodipodi:cx="409.48093"
       sodipodi:sides="16"
       id="path6928-9"
       style="opacity:0.98999999;fill:#ffffff;stroke:#000000;stroke-width:0.30599999;stroke-linecap:round;stroke-linejoin:round;stroke-miterlimit:4;stroke-opacity:1;stroke-dasharray:none;stroke-dashoffset:0"
       sodipodi:type="star" />
    <path
       transform="matrix(0.83215275,0,0,0.83215275,181.50887,260.04976)"
       sodipodi:type="star"
       style="opacity:0.98999999;fill:#ffffff;stroke:#000000;stroke-width:0.30599999;stroke-linecap:round;stroke-linejoin:round;stroke-miterlimit:4;stroke-opacity:1;stroke-dasharray:none;stroke-dashoffset:0"
       id="path6930-7"
       sodipodi:sides="15"
       sodipodi:cx="409.48093"
       sodipodi:cy="609.33051"
       sodipodi:r1="17.386417"
       sodipodi:r2="16.535465"
       sodipodi:arg1="3.1415927"
       sodipodi:arg2="3.3510322"
       inkscape:flatsided="true"
       inkscape:rounded="0"
       inkscape:randomized="0"
       d="m 392.09451,609.3305 1.50313,-7.07169 4.2495,-5.84893 6.26109,-3.61484 7.19007,-0.75571 6.87584,2.2341 5.37269,4.8376 2.94058,6.60464 0,7.22968 -2.94058,6.60464 -5.3727,4.83759 -6.87583,2.2341 -7.19007,-0.75571 -6.26109,-3.61484 -4.2495,-5.84893 z" />
    <path
       d="m 392.09451,609.3305 1.99151,-8.07987 5.5183,-6.22887 7.78091,-2.95091 8.26101,1.00307 6.84861,4.72726 3.86728,7.36848 0,8.32169 -3.86728,7.36848 -6.84862,4.72726 -8.26101,1.00307 -7.7809,-2.95091 -5.5183,-6.22887 z"
       inkscape:randomized="0"
       inkscape:rounded="0"
       inkscape:flatsided="true"
       sodipodi:arg2="3.3832537"
       sodipodi:arg1="3.1415927"
       sodipodi:r2="16.535465"
       sodipodi:r1="17.386417"
       sodipodi:cy="609.33051"
       sodipodi:cx="409.48093"
       sodipodi:sides="13"
       id="path6932-3"
       style="opacity:0.98999999;fill:#ffffff;stroke:#000000;stroke-width:0.30599999;stroke-linecap:round;stroke-linejoin:round;stroke-miterlimit:4;stroke-opacity:1;stroke-dasharray:none;stroke-dashoffset:0"
       sodipodi:type="star"
       transform="matrix(0.83215275,0,0,0.83215275,145.68465,260.04976)" />
    <path
       transform="matrix(0.83215275,0,0,0.83215275,109.86041,260.04976)"
       sodipodi:type="star"
       style="opacity:0.98999999;fill:#ffffff;stroke:#000000;stroke-width:0.30599999;stroke-linecap:round;stroke-linejoin:round;stroke-miterlimit:4;stroke-opacity:1;stroke-dasharray:none;stroke-dashoffset:0"
       id="path6934-6"
       sodipodi:sides="13"
       sodipodi:cx="409.48093"
       sodipodi:cy="609.33051"
       sodipodi:r1="17.386417"
       sodipodi:r2="16.535465"
       sodipodi:arg1="3.1415927"
       sodipodi:arg2="3.3832537"
       inkscape:flatsided="true"
       inkscape:rounded="0"
       inkscape:randomized="0"
       d="m 392.09451,609.3305 1.99151,-8.07987 5.5183,-6.22887 7.78091,-2.95091 8.26101,1.00307 6.84861,4.72726 3.86728,7.36848 0,8.32169 -3.86728,7.36848 -6.84862,4.72726 -8.26101,1.00307 -7.7809,-2.95091 -5.5183,-6.22887 z" />
    <path
       d="m 392.09451,609.3305 2.32934,-8.6932 6.36387,-6.36387 8.69321,-2.32934 8.69321,2.32934 6.36387,6.36387 2.32933,8.69321 -2.32933,8.6932 -6.36388,6.36387 -8.6932,2.32934 -8.69321,-2.32934 -6.36387,-6.36387 z"
       inkscape:randomized="0"
       inkscape:rounded="0"
       inkscape:flatsided="true"
       sodipodi:arg2="3.4033921"
       sodipodi:arg1="3.1415927"
       sodipodi:r2="16.535465"
       sodipodi:r1="17.386417"
       sodipodi:cy="609.33051"
       sodipodi:cx="409.48093"
       sodipodi:sides="12"
       id="path6936-1"
       style="opacity:0.98999999;fill:#ffffff;stroke:#000000;stroke-width:0.30599999;stroke-linecap:round;stroke-linejoin:round;stroke-miterlimit:4;stroke-opacity:1;stroke-dasharray:none;stroke-dashoffset:0"
       sodipodi:type="star"
       transform="matrix(0.83215275,0,0,0.83215275,74.03618,260.04976)" />
    <path
       transform="matrix(0.83215275,0,0,0.83215275,289.39518,226.28049)"
       sodipodi:type="star"
       style="opacity:0.98999999;fill:#ffffff;stroke:#000000;stroke-width:0.30599999;stroke-linecap:round;stroke-linejoin:round;stroke-miterlimit:4;stroke-opacity:1;stroke-dasharray:none;stroke-dashoffset:0"
       id="path6938-2"
       sodipodi:sides="11"
       sodipodi:cx="409.48093"
       sodipodi:cy="609.33051"
       sodipodi:r1="17.386417"
       sodipodi:r2="16.535465"
       sodipodi:arg1="3.1415927"
       sodipodi:arg2="3.427192"
       inkscape:flatsided="true"
       inkscape:rounded="0"
       inkscape:randomized="0"
       d="m 392.09451,609.3305 2.76003,-9.3998 7.40381,-6.41544 9.69692,-1.3942 8.91134,4.06967 5.29646,8.24146 0,9.79664 -5.29646,8.24145 -8.91134,4.06967 -9.69692,-1.3942 -7.40381,-6.41544 z" />
    <path
       d="m 392.09451,609.3305 3.32051,-10.21948 8.69321,-6.31598 10.7454,0 8.6932,6.31599 3.32051,10.21948 -3.32051,10.21948 -8.69321,6.31598 -10.74539,0 -8.69321,-6.31599 z"
       inkscape:randomized="0"
       inkscape:rounded="0"
       inkscape:flatsided="true"
       sodipodi:arg2="3.4557519"
       sodipodi:arg1="3.1415927"
       sodipodi:r2="16.535465"
       sodipodi:r1="17.386417"
       sodipodi:cy="609.33051"
       sodipodi:cx="409.48093"
       sodipodi:sides="10"
       id="path6940-9"
       style="opacity:0.98999999;fill:#ffffff;stroke:#000000;stroke-width:0.30599999;stroke-linecap:round;stroke-linejoin:round;stroke-miterlimit:4;stroke-opacity:1;stroke-dasharray:none;stroke-dashoffset:0"
       sodipodi:type="star"
       transform="matrix(0.83215275,0,0,0.83215275,253.57095,226.28049)" />
    <path
       sodipodi:type="star"
       style="opacity:0.98999999;fill:#ffffff;stroke:#000000;stroke-width:0.30599999;stroke-linecap:round;stroke-linejoin:round;stroke-miterlimit:4;stroke-opacity:1;stroke-dasharray:none;stroke-dashoffset:0"
       id="path6942-3"
       sodipodi:sides="9"
       sodipodi:cx="409.48093"
       sodipodi:cy="609.33051"
       sodipodi:r1="17.386417"
       sodipodi:r2="16.535465"
       sodipodi:arg1="3.1415927"
       sodipodi:arg2="3.4906586"
       inkscape:flatsided="true"
       inkscape:rounded="0"
       inkscape:randomized="0"
       d="m 392.09451,609.3305 4.06765,-11.17577 10.29965,-5.9465 11.71233,2.0652 7.64467,9.11057 0,11.89301 -7.64468,9.11057 -11.71232,2.0652 -10.29965,-5.9465 z"
       transform="matrix(0.83215275,0,0,0.83215275,218.04739,226.07567)" />
    <path
       d="m 392.09451,609.3305 5.09236,-12.29405 12.29406,-5.09236 12.29405,5.09236 5.09236,12.29406 -5.09236,12.29405 -12.29405,5.09236 -12.29406,-5.09236 z"
       inkscape:randomized="0"
       inkscape:rounded="0"
       inkscape:flatsided="true"
       sodipodi:arg2="3.5342918"
       sodipodi:arg1="3.1415927"
       sodipodi:r2="16.535465"
       sodipodi:r1="17.386417"
       sodipodi:cy="609.33051"
       sodipodi:cx="409.48093"
       sodipodi:sides="8"
       id="path6944-1"
       style="opacity:0.98999999;fill:#ffffff;stroke:#000000;stroke-width:0.30599999;stroke-linecap:round;stroke-linejoin:round;stroke-miterlimit:4;stroke-opacity:1;stroke-dasharray:none;stroke-dashoffset:0"
       sodipodi:type="star"
       transform="matrix(0.83215275,0,0,0.83215275,182.22316,226.07567)" />
    <path
       transform="matrix(0.83215275,0,0,0.83215275,146.39894,226.07567)"
       sodipodi:type="star"
       style="opacity:0.98999999;fill:#ffffff;stroke:#000000;stroke-width:0.30599999;stroke-linecap:round;stroke-linejoin:round;stroke-miterlimit:4;stroke-opacity:1;stroke-dasharray:none;stroke-dashoffset:0"
       id="path6946-9"
       sodipodi:sides="7"
       sodipodi:cx="409.48093"
       sodipodi:cy="609.33051"
       sodipodi:r1="17.386417"
       sodipodi:r2="16.535465"
       sodipodi:arg1="3.1415927"
       sodipodi:arg2="3.5903917"
       inkscape:flatsided="true"
       inkscape:rounded="0"
       inkscape:randomized="0"
       d="m 392.09451,609.3305 6.54616,-13.59324 14.7091,-3.35726 11.79578,9.40682 0,15.08737 -11.79578,9.40682 -14.7091,-3.35726 z" />
    <path
       d="m 392.09451,609.3305 8.69321,-15.05707 17.38642,0 8.6932,15.05708 -8.69321,15.05707 -17.38641,0 z"
       inkscape:randomized="0"
       inkscape:rounded="0"
       inkscape:flatsided="true"
       sodipodi:arg2="3.6651915"
       sodipodi:arg1="3.1415927"
       sodipodi:r2="16.535465"
       sodipodi:r1="17.386417"
       sodipodi:cy="609.33051"
       sodipodi:cx="409.48093"
       sodipodi:sides="6"
       id="path6948-4"
       style="opacity:0.98999999;fill:#ffffff;stroke:#000000;stroke-width:0.30599999;stroke-linecap:round;stroke-linejoin:round;stroke-miterlimit:4;stroke-opacity:1;stroke-dasharray:none;stroke-dashoffset:0"
       sodipodi:type="star"
       transform="matrix(0.83215275,0,0,0.83215275,110.5747,226.07567)" />
    <path
       transform="matrix(0.83215275,0,0,0.83215275,74.75047,226.07567)"
       sodipodi:type="star"
       style="opacity:0.98999999;fill:#ffffff;stroke:#000000;stroke-width:0.30599999;stroke-linecap:round;stroke-linejoin:round;stroke-miterlimit:4;stroke-opacity:1;stroke-dasharray:none;stroke-dashoffset:0"
       id="path6950-7"
       sodipodi:sides="5"
       sodipodi:cx="409.48093"
       sodipodi:cy="609.33051"
       sodipodi:r1="17.386417"
       sodipodi:r2="16.535465"
       sodipodi:arg1="3.1415927"
       sodipodi:arg2="3.7699112"
       inkscape:flatsided="true"
       inkscape:rounded="0"
       inkscape:randomized="0"
       d="m 392.09451,609.3305 12.01372,-16.53546 19.4386,6.31599 0,20.43896 -19.4386,6.31598 z" />
    <path
       d="m 392.09451,609.3305 17.38642,-17.38641 17.38641,17.38642 -17.38641,17.38641 z"
       inkscape:randomized="0"
       inkscape:rounded="0"
       inkscape:flatsided="true"
       sodipodi:arg2="3.9269909"
       sodipodi:arg1="3.1415927"
       sodipodi:r2="16.535465"
       sodipodi:r1="17.386417"
       sodipodi:cy="609.33051"
       sodipodi:cx="409.48093"
       sodipodi:sides="4"
       id="path6952-8"
       style="opacity:0.98999999;fill:#ffffff;stroke:#000000;stroke-width:0.30599999;stroke-linecap:round;stroke-linejoin:round;stroke-miterlimit:4;stroke-opacity:1;stroke-dasharray:none;stroke-dashoffset:0"
       sodipodi:type="star"
       transform="matrix(0.83215275,0,0,0.83215275,289.16395,191.23681)" />
    <path
       transform="matrix(0.83215275,0,0,0.83215275,253.8448,191.23681)"
       sodipodi:type="star"
       style="opacity:0.98999999;fill:#ffffff;stroke:#000000;stroke-width:0.30599999;stroke-linecap:round;stroke-linejoin:round;stroke-miterlimit:4;stroke-opacity:1;stroke-dasharray:none;stroke-dashoffset:0"
       id="path6954-4"
       sodipodi:sides="3"
       sodipodi:cx="409.48093"
       sodipodi:cy="609.33051"
       sodipodi:r1="17.386417"
       sodipodi:r2="16.535465"
       sodipodi:arg1="3.1415927"
       sodipodi:arg2="4.1887903"
       inkscape:flatsided="true"
       inkscape:rounded="0"
       inkscape:randomized="0"
       d="m 392.09451,609.3305 26.07963,-15.05707 -1e-5,30.11415 z" />
    <text
       xml:space="preserve"
       style="font-size:50.06554031px;font-style:normal;font-weight:normal;line-height:125%;letter-spacing:0px;word-spacing:0px;fill:#000000;fill-opacity:1;stroke:none;font-family:Sans"
       x="593.97205"
       y="739.30139"
       id="text6960-5"
       sodipodi:linespacing="125%"><tspan
         sodipodi:role="line"
         id="tspan6962-0"
         x="593.97205"
         y="739.30139"
         style="font-size:16.27130127px;font-style:normal;font-variant:normal;font-weight:normal;font-stretch:normal;text-align:center;text-anchor:middle;font-family:Ume P Gothic Balsa;-inkscape-font-specification:Ume P Gothic Balsa">10</tspan></text>
    <text
       sodipodi:linespacing="125%"
       id="text6964-3"
       y="739.30139"
       x="630.14587"
       style="font-size:50.06554031px;font-style:normal;font-weight:normal;line-height:125%;letter-spacing:0px;word-spacing:0px;fill:#000000;fill-opacity:1;stroke:none;font-family:Sans"
       xml:space="preserve"><tspan
         style="font-size:16.27130127px;font-style:normal;font-variant:normal;font-weight:normal;font-stretch:normal;text-align:center;text-anchor:middle;font-family:Ume P Gothic Balsa;-inkscape-font-specification:Ume P Gothic Balsa"
         y="739.30139"
         x="630.14587"
         id="tspan6966-6"
         sodipodi:role="line">11</tspan></text>
    <text
       xml:space="preserve"
       style="font-size:50.06554031px;font-style:normal;font-weight:normal;line-height:125%;letter-spacing:0px;word-spacing:0px;fill:#000000;fill-opacity:1;stroke:none;font-family:Sans"
       x="414.56442"
       y="773.07062"
       id="text6968-1"
       sodipodi:linespacing="125%"><tspan
         sodipodi:role="line"
         id="tspan6970-0"
         x="414.56442"
         y="773.07062"
         style="font-size:16.27130127px;font-style:normal;font-variant:normal;font-weight:normal;font-stretch:normal;text-align:center;text-anchor:middle;font-family:Ume P Gothic Balsa;-inkscape-font-specification:Ume P Gothic Balsa">12</tspan></text>
    <text
       sodipodi:linespacing="125%"
       id="text6972-6"
       y="773.07062"
       x="450.38852"
       style="font-size:50.06554031px;font-style:normal;font-weight:normal;line-height:125%;letter-spacing:0px;word-spacing:0px;fill:#000000;fill-opacity:1;stroke:none;font-family:Sans"
       xml:space="preserve"><tspan
         style="font-size:16.27130127px;font-style:normal;font-variant:normal;font-weight:normal;font-stretch:normal;text-align:center;text-anchor:middle;font-family:Ume P Gothic Balsa;-inkscape-font-specification:Ume P Gothic Balsa"
         y="773.07062"
         x="450.38852"
         id="tspan6974-3"
         sodipodi:role="line">13</tspan></text>
    <text
       sodipodi:linespacing="125%"
       id="text6976-2"
       y="773.07062"
       x="485.92673"
       style="font-size:50.06554031px;font-style:normal;font-weight:normal;line-height:125%;letter-spacing:0px;word-spacing:0px;fill:#000000;fill-opacity:1;stroke:none;font-family:Sans"
       xml:space="preserve"><tspan
         style="font-size:16.27130127px;font-style:normal;font-variant:normal;font-weight:normal;font-stretch:normal;text-align:center;text-anchor:middle;font-family:Ume P Gothic Balsa;-inkscape-font-specification:Ume P Gothic Balsa"
         y="773.07062"
         x="485.92673"
         id="tspan6978-0"
         sodipodi:role="line">14</tspan></text>
    <text
       xml:space="preserve"
       style="font-size:50.06554031px;font-style:normal;font-weight:normal;line-height:125%;letter-spacing:0px;word-spacing:0px;fill:#000000;fill-opacity:1;stroke:none;font-family:Sans"
       x="522.03699"
       y="773.07062"
       id="text6980-6"
       sodipodi:linespacing="125%"><tspan
         sodipodi:role="line"
         id="tspan6982-1"
         x="522.03699"
         y="773.07062"
         style="font-size:16.27130127px;font-style:normal;font-variant:normal;font-weight:normal;font-stretch:normal;text-align:center;text-anchor:middle;font-family:Ume P Gothic Balsa;-inkscape-font-specification:Ume P Gothic Balsa">15</tspan></text>
    <text
       sodipodi:linespacing="125%"
       id="text6984-5"
       y="773.07062"
       x="557.86121"
       style="font-size:50.06554031px;font-style:normal;font-weight:normal;line-height:125%;letter-spacing:0px;word-spacing:0px;fill:#000000;fill-opacity:1;stroke:none;font-family:Sans"
       xml:space="preserve"><tspan
         style="font-size:16.27130127px;font-style:normal;font-variant:normal;font-weight:normal;font-stretch:normal;text-align:center;text-anchor:middle;font-family:Ume P Gothic Balsa;-inkscape-font-specification:Ume P Gothic Balsa"
         y="773.07062"
         x="557.86121"
         id="tspan6986-5"
         sodipodi:role="line">16</tspan></text>
    <g
       id="g9718-4"
       transform="matrix(1.2516385,0,0,1.2516385,-39.85622,765.77505)">
      <rect
         y="-54.975952"
         x="449.22449"
         height="2.5210273"
         width="1.312933"
         id="rect9720-7"
         style="opacity:0.98999999;fill:#000000;fill-opacity:1;fill-rule:evenodd;stroke:none" />
      <rect
         y="-60.158607"
         x="444.84723"
         height="12.886341"
         width="10.067454"
         id="rect9722-6"
         style="opacity:0.98999999;fill:none;stroke:none" />
    </g>
    <path
       style="fill:none;stroke:#000000;stroke-width:0.31290963;stroke-linecap:butt;stroke-linejoin:miter;stroke-miterlimit:4;stroke-opacity:1;stroke-dasharray:none"
       d="m 549.11153,698.54274 19.13847,0"
       id="path9724-5"
       inkscape:connector-curvature="0" />
    <text
       sodipodi:linespacing="125%"
       id="text9789-6"
       y="704.57263"
       x="594.32159"
       style="font-size:50.06554031px;font-style:normal;font-weight:normal;line-height:125%;letter-spacing:0px;word-spacing:0px;fill:#000000;fill-opacity:1;stroke:none;font-family:Sans"
       xml:space="preserve"><tspan
         style="font-size:16.27130127px;font-style:normal;font-variant:normal;font-weight:normal;font-stretch:normal;text-align:center;text-anchor:middle;font-family:Ume P Gothic Balsa;-inkscape-font-specification:Ume P Gothic Balsa"
         y="704.57263"
         x="594.32159"
         id="tspan9791-9"
         sodipodi:role="line">3</tspan></text>
    <text
       xml:space="preserve"
       style="font-size:50.06554031px;font-style:normal;font-weight:normal;line-height:125%;letter-spacing:0px;word-spacing:0px;fill:#000000;fill-opacity:1;stroke:none;font-family:Sans"
       x="629.91467"
       y="704.57263"
       id="text9793-3"
       sodipodi:linespacing="125%"><tspan
         sodipodi:role="line"
         id="tspan9795-7"
         x="629.91467"
         y="704.57263"
         style="font-size:16.27130127px;font-style:normal;font-variant:normal;font-weight:normal;font-stretch:normal;text-align:center;text-anchor:middle;font-family:Ume P Gothic Balsa;-inkscape-font-specification:Ume P Gothic Balsa">4</tspan></text>
    <text
       sodipodi:linespacing="125%"
       id="text9797-4"
       y="739.4115"
       x="415.27872"
       style="font-size:50.06554031px;font-style:normal;font-weight:normal;line-height:125%;letter-spacing:0px;word-spacing:0px;fill:#000000;fill-opacity:1;stroke:none;font-family:Sans"
       xml:space="preserve"><tspan
         style="font-size:16.27130127px;font-style:normal;font-variant:normal;font-weight:normal;font-stretch:normal;text-align:center;text-anchor:middle;font-family:Ume P Gothic Balsa;-inkscape-font-specification:Ume P Gothic Balsa"
         y="739.4115"
         x="415.27872"
         id="tspan9799-5"
         sodipodi:role="line">5</tspan></text>
    <text
       xml:space="preserve"
       style="font-size:50.06554031px;font-style:normal;font-weight:normal;line-height:125%;letter-spacing:0px;word-spacing:0px;fill:#000000;fill-opacity:1;stroke:none;font-family:Sans"
       x="451.10281"
       y="739.4115"
       id="text9801-2"
       sodipodi:linespacing="125%"><tspan
         sodipodi:role="line"
         id="tspan9803-5"
         x="451.10281"
         y="739.4115"
         style="font-size:16.27130127px;font-style:normal;font-variant:normal;font-weight:normal;font-stretch:normal;text-align:center;text-anchor:middle;font-family:Ume P Gothic Balsa;-inkscape-font-specification:Ume P Gothic Balsa">6</tspan></text>
    <text
       xml:space="preserve"
       style="font-size:50.06554031px;font-style:normal;font-weight:normal;line-height:125%;letter-spacing:0px;word-spacing:0px;fill:#000000;fill-opacity:1;stroke:none;font-family:Sans"
       x="486.64102"
       y="739.4115"
       id="text9805-4"
       sodipodi:linespacing="125%"><tspan
         sodipodi:role="line"
         id="tspan9807-7"
         x="486.64102"
         y="739.4115"
         style="font-size:16.27130127px;font-style:normal;font-variant:normal;font-weight:normal;font-stretch:normal;text-align:center;text-anchor:middle;font-family:Ume P Gothic Balsa;-inkscape-font-specification:Ume P Gothic Balsa">7</tspan></text>
    <text
       sodipodi:linespacing="125%"
       id="text9809-4"
       y="739.4115"
       x="522.75128"
       style="font-size:50.06554031px;font-style:normal;font-weight:normal;line-height:125%;letter-spacing:0px;word-spacing:0px;fill:#000000;fill-opacity:1;stroke:none;font-family:Sans"
       xml:space="preserve"><tspan
         style="font-size:16.27130127px;font-style:normal;font-variant:normal;font-weight:normal;font-stretch:normal;text-align:center;text-anchor:middle;font-family:Ume P Gothic Balsa;-inkscape-font-specification:Ume P Gothic Balsa"
         y="739.4115"
         x="522.75128"
         id="tspan9811-4"
         sodipodi:role="line">8</tspan></text>
    <text
       xml:space="preserve"
       style="font-size:50.06554031px;font-style:normal;font-weight:normal;line-height:125%;letter-spacing:0px;word-spacing:0px;fill:#000000;fill-opacity:1;stroke:none;font-family:Sans"
       x="558.5755"
       y="739.4115"
       id="text9813-3"
       sodipodi:linespacing="125%"><tspan
         sodipodi:role="line"
         id="tspan9815-0"
         x="558.5755"
         y="739.4115"
         style="font-size:16.27130127px;font-style:normal;font-variant:normal;font-weight:normal;font-stretch:normal;text-align:center;text-anchor:middle;font-family:Ume P Gothic Balsa;-inkscape-font-specification:Ume P Gothic Balsa">9</tspan></text>
    <path
       sodipodi:type="star"
       style="opacity:0.98999999;fill:#ffffff;stroke:#000000;stroke-width:0.30599999;stroke-linecap:round;stroke-linejoin:round;stroke-miterlimit:4;stroke-opacity:1;stroke-dasharray:none;stroke-dashoffset:0"
       id="path6914-8"
       sodipodi:sides="23"
       sodipodi:cx="409.48093"
       sodipodi:cy="609.33051"
       sodipodi:r1="17.386417"
       sodipodi:r2="16.535465"
       sodipodi:arg1="3.1415927"
       sodipodi:arg2="3.2781837"
       inkscape:flatsided="true"
       inkscape:rounded="0"
       inkscape:randomized="0"
       d="m 392.09451,609.3305 0.64473,-4.69079 1.88639,-4.34291 2.98814,-3.67291 3.86827,-2.73053 4.46152,-1.58562 4.72386,-0.32312 4.63586,0.96334 4.20405,2.17837 3.46044,3.23182 2.46018,4.04559 1.27746,4.55932 0,4.7349 -1.27747,4.55931 -2.46017,4.04559 -3.46044,3.23183 -4.20405,2.17836 -4.63586,0.96334 -4.72387,-0.32312 -4.46151,-1.58562 -3.86827,-2.73053 -2.98814,-3.67291 -1.88639,-4.34291 z"
       transform="matrix(0.83215275,0,0,0.83215275,218.0474,294.02389)" />
    <path
       transform="matrix(0.83215275,0,0,0.83215275,253.69412,261.07079)"
       sodipodi:type="star"
       style="opacity:0.98999999;fill:#ffffff;stroke:#000000;stroke-width:0.30599999;stroke-linecap:round;stroke-linejoin:round;stroke-miterlimit:4;stroke-opacity:1;stroke-dasharray:none;stroke-dashoffset:0"
       id="path6926-6"
       sodipodi:sides="17"
       sodipodi:cx="409.48093"
       sodipodi:cy="609.33051"
       sodipodi:r1="17.386417"
       sodipodi:r2="16.535465"
       sodipodi:arg1="3.1415927"
       sodipodi:arg2="3.3263923"
       inkscape:flatsided="true"
       inkscape:rounded="0"
       inkscape:randomized="0"
       d="m 392.09451,609.3305 1.17407,-6.28069 3.36363,-5.43246 5.09892,-3.85053 6.14558,-1.74856 6.36224,0.58954 5.71963,2.84805 4.30458,4.72189 2.30815,5.95802 0,6.38949 -2.30815,5.95803 -4.30458,4.72189 -5.71964,2.84804 -6.36223,0.58955 -6.14558,-1.74857 -5.09892,-3.85053 -3.36364,-5.43246 z" />
    <path
       d="m 392.09451,609.3305 1.17407,-6.28069 3.36363,-5.43246 5.09892,-3.85053 6.14558,-1.74856 6.36224,0.58954 5.71963,2.84805 4.30458,4.72189 2.30815,5.95802 0,6.38949 -2.30815,5.95803 -4.30458,4.72189 -5.71964,2.84804 -6.36223,0.58955 -6.14558,-1.74857 -5.09892,-3.85053 -3.36364,-5.43246 z"
       inkscape:randomized="0"
       inkscape:rounded="0"
       inkscape:flatsided="true"
       sodipodi:arg2="3.3263923"
       sodipodi:arg1="3.1415927"
       sodipodi:r2="16.535465"
       sodipodi:r1="17.386417"
       sodipodi:cy="609.33051"
       sodipodi:cx="409.48093"
       sodipodi:sides="17"
       id="path9819-8"
       style="opacity:0.98999999;fill:#ffffff;stroke:#000000;stroke-width:0.30599999;stroke-linecap:round;stroke-linejoin:round;stroke-miterlimit:4;stroke-opacity:1;stroke-dasharray:none;stroke-dashoffset:0"
       sodipodi:type="star"
       transform="matrix(0.83215275,0,0,0.83215275,289.22532,261.07079)" />
    <path
       transform="matrix(0.83215275,0,0,0.83215275,74.76906,294.02389)"
       sodipodi:type="star"
       style="opacity:0.98999999;fill:#ffffff;stroke:#000000;stroke-width:0.30599999;stroke-linecap:round;stroke-linejoin:round;stroke-miterlimit:4;stroke-opacity:1;stroke-dasharray:none;stroke-dashoffset:0"
       id="path9821-8"
       sodipodi:sides="17"
       sodipodi:cx="409.48093"
       sodipodi:cy="609.33051"
       sodipodi:r1="17.386417"
       sodipodi:r2="16.535465"
       sodipodi:arg1="3.1415927"
       sodipodi:arg2="3.3263923"
       inkscape:flatsided="true"
       inkscape:rounded="0"
       inkscape:randomized="0"
       d="m 392.09451,609.3305 1.17407,-6.28069 3.36363,-5.43246 5.09892,-3.85053 6.14558,-1.74856 6.36224,0.58954 5.71963,2.84805 4.30458,4.72189 2.30815,5.95802 0,6.38949 -2.30815,5.95803 -4.30458,4.72189 -5.71964,2.84804 -6.36223,0.58955 -6.14558,-1.74857 -5.09892,-3.85053 -3.36364,-5.43246 z" />
    <path
       d="m 392.09451,609.3305 1.17407,-6.28069 3.36363,-5.43246 5.09892,-3.85053 6.14558,-1.74856 6.36224,0.58954 5.71963,2.84805 4.30458,4.72189 2.30815,5.95802 0,6.38949 -2.30815,5.95803 -4.30458,4.72189 -5.71964,2.84804 -6.36223,0.58955 -6.14558,-1.74857 -5.09892,-3.85053 -3.36364,-5.43246 z"
       inkscape:randomized="0"
       inkscape:rounded="0"
       inkscape:flatsided="true"
       sodipodi:arg2="3.3263923"
       sodipodi:arg1="3.1415927"
       sodipodi:r2="16.535465"
       sodipodi:r1="17.386417"
       sodipodi:cy="609.33051"
       sodipodi:cx="409.48093"
       sodipodi:sides="17"
       id="path9823-4"
       style="opacity:0.98999999;fill:#ffffff;stroke:#000000;stroke-width:0.30599999;stroke-linecap:round;stroke-linejoin:round;stroke-miterlimit:4;stroke-opacity:1;stroke-dasharray:none;stroke-dashoffset:0"
       sodipodi:type="star"
       transform="matrix(0.83215275,0,0,0.83215275,110.60259,294.02389)" />
    <path
       transform="matrix(0.83215275,0,0,0.83215275,146.43613,294.02389)"
       sodipodi:type="star"
       style="opacity:0.98999999;fill:#ffffff;stroke:#000000;stroke-width:0.30599999;stroke-linecap:round;stroke-linejoin:round;stroke-miterlimit:4;stroke-opacity:1;stroke-dasharray:none;stroke-dashoffset:0"
       id="path9825-3"
       sodipodi:sides="17"
       sodipodi:cx="409.48093"
       sodipodi:cy="609.33051"
       sodipodi:r1="17.386417"
       sodipodi:r2="16.535465"
       sodipodi:arg1="3.1415927"
       sodipodi:arg2="3.3263923"
       inkscape:flatsided="true"
       inkscape:rounded="0"
       inkscape:randomized="0"
       d="m 392.09451,609.3305 1.17407,-6.28069 3.36363,-5.43246 5.09892,-3.85053 6.14558,-1.74856 6.36224,0.58954 5.71963,2.84805 4.30458,4.72189 2.30815,5.95802 0,6.38949 -2.30815,5.95803 -4.30458,4.72189 -5.71964,2.84804 -6.36223,0.58955 -6.14558,-1.74857 -5.09892,-3.85053 -3.36364,-5.43246 z" />
    <path
       d="m 392.09451,609.3305 1.17407,-6.28069 3.36363,-5.43246 5.09892,-3.85053 6.14558,-1.74856 6.36224,0.58954 5.71963,2.84805 4.30458,4.72189 2.30815,5.95802 0,6.38949 -2.30815,5.95803 -4.30458,4.72189 -5.71964,2.84804 -6.36223,0.58955 -6.14558,-1.74857 -5.09892,-3.85053 -3.36364,-5.43246 z"
       inkscape:randomized="0"
       inkscape:rounded="0"
       inkscape:flatsided="true"
       sodipodi:arg2="3.3263923"
       sodipodi:arg1="3.1415927"
       sodipodi:r2="16.535465"
       sodipodi:r1="17.386417"
       sodipodi:cy="609.33051"
       sodipodi:cx="409.48093"
       sodipodi:sides="17"
       id="path9827-1"
       style="opacity:0.98999999;fill:#ffffff;stroke:#000000;stroke-width:0.30599999;stroke-linecap:round;stroke-linejoin:round;stroke-miterlimit:4;stroke-opacity:1;stroke-dasharray:none;stroke-dashoffset:0"
       sodipodi:type="star"
       transform="matrix(0.83215275,0,0,0.83215275,182.2697,294.02389)" />
    <path
       transform="matrix(0.83215275,0,0,0.83215275,217.69026,329.06977)"
       d="m 392.09451,609.3305 0.64473,-4.69079 1.88639,-4.34291 2.98814,-3.67291 3.86827,-2.73053 4.46152,-1.58562 4.72386,-0.32312 4.63586,0.96334 4.20405,2.17837 3.46044,3.23182 2.46018,4.04559 1.27746,4.55932 0,4.7349 -1.27747,4.55931 -2.46017,4.04559 -3.46044,3.23183 -4.20405,2.17836 -4.63586,0.96334 -4.72387,-0.32312 -4.46151,-1.58562 -3.86827,-2.73053 -2.98814,-3.67291 -1.88639,-4.34291 z"
       inkscape:randomized="0"
       inkscape:rounded="0"
       inkscape:flatsided="true"
       sodipodi:arg2="3.2781837"
       sodipodi:arg1="3.1415927"
       sodipodi:r2="16.535465"
       sodipodi:r1="17.386417"
       sodipodi:cy="609.33051"
       sodipodi:cx="409.48093"
       sodipodi:sides="23"
       id="path9840-9"
       style="opacity:0.98999999;fill:#ffffff;stroke:#000000;stroke-width:0.30599999;stroke-linecap:round;stroke-linejoin:round;stroke-miterlimit:4;stroke-opacity:1;stroke-dasharray:none;stroke-dashoffset:0"
       sodipodi:type="star" />
    <path
       d="m 392.09451,609.3305 1.17407,-6.28069 3.36363,-5.43246 5.09892,-3.85053 6.14558,-1.74856 6.36224,0.58954 5.71963,2.84805 4.30458,4.72189 2.30815,5.95802 0,6.38949 -2.30815,5.95803 -4.30458,4.72189 -5.71964,2.84804 -6.36223,0.58955 -6.14558,-1.74857 -5.09892,-3.85053 -3.36364,-5.43246 z"
       inkscape:randomized="0"
       inkscape:rounded="0"
       inkscape:flatsided="true"
       sodipodi:arg2="3.3263923"
       sodipodi:arg1="3.1415927"
       sodipodi:r2="16.535465"
       sodipodi:r1="17.386417"
       sodipodi:cy="609.33051"
       sodipodi:cx="409.48093"
       sodipodi:sides="17"
       id="path9842-2"
       style="opacity:0.98999999;fill:#ffffff;stroke:#000000;stroke-width:0.30599999;stroke-linecap:round;stroke-linejoin:round;stroke-miterlimit:4;stroke-opacity:1;stroke-dasharray:none;stroke-dashoffset:0"
       sodipodi:type="star"
       transform="matrix(0.83215275,0,0,0.83215275,253.80208,294.02389)" />
    <path
       transform="matrix(0.83215275,0,0,0.83215275,289.63562,294.02389)"
       sodipodi:type="star"
       style="opacity:0.98999999;fill:#ffffff;stroke:#000000;stroke-width:0.30599999;stroke-linecap:round;stroke-linejoin:round;stroke-miterlimit:4;stroke-opacity:1;stroke-dasharray:none;stroke-dashoffset:0"
       id="path9844-0"
       sodipodi:sides="17"
       sodipodi:cx="409.48093"
       sodipodi:cy="609.33051"
       sodipodi:r1="17.386417"
       sodipodi:r2="16.535465"
       sodipodi:arg1="3.1415927"
       sodipodi:arg2="3.3263923"
       inkscape:flatsided="true"
       inkscape:rounded="0"
       inkscape:randomized="0"
       d="m 392.09451,609.3305 1.17407,-6.28069 3.36363,-5.43246 5.09892,-3.85053 6.14558,-1.74856 6.36224,0.58954 5.71963,2.84805 4.30458,4.72189 2.30815,5.95802 0,6.38949 -2.30815,5.95803 -4.30458,4.72189 -5.71964,2.84804 -6.36223,0.58955 -6.14558,-1.74857 -5.09892,-3.85053 -3.36364,-5.43246 z" />
    <path
       d="m 392.09451,609.3305 1.17407,-6.28069 3.36363,-5.43246 5.09892,-3.85053 6.14558,-1.74856 6.36224,0.58954 5.71963,2.84805 4.30458,4.72189 2.30815,5.95802 0,6.38949 -2.30815,5.95803 -4.30458,4.72189 -5.71964,2.84804 -6.36223,0.58955 -6.14558,-1.74857 -5.09892,-3.85053 -3.36364,-5.43246 z"
       inkscape:randomized="0"
       inkscape:rounded="0"
       inkscape:flatsided="true"
       sodipodi:arg2="3.3263923"
       sodipodi:arg1="3.1415927"
       sodipodi:r2="16.535465"
       sodipodi:r1="17.386417"
       sodipodi:cy="609.33051"
       sodipodi:cx="409.48093"
       sodipodi:sides="17"
       id="path9846-6"
       style="opacity:0.98999999;fill:#ffffff;stroke:#000000;stroke-width:0.30599999;stroke-linecap:round;stroke-linejoin:round;stroke-miterlimit:4;stroke-opacity:1;stroke-dasharray:none;stroke-dashoffset:0"
       sodipodi:type="star"
       transform="matrix(0.83215275,0,0,0.83215275,74.41192,329.06977)" />
    <path
       transform="matrix(0.83215275,0,0,0.83215275,110.24545,329.06977)"
       sodipodi:type="star"
       style="opacity:0.98999999;fill:#ffffff;stroke:#000000;stroke-width:0.30599999;stroke-linecap:round;stroke-linejoin:round;stroke-miterlimit:4;stroke-opacity:1;stroke-dasharray:none;stroke-dashoffset:0"
       id="path9848-8"
       sodipodi:sides="17"
       sodipodi:cx="409.48093"
       sodipodi:cy="609.33051"
       sodipodi:r1="17.386417"
       sodipodi:r2="16.535465"
       sodipodi:arg1="3.1415927"
       sodipodi:arg2="3.3263923"
       inkscape:flatsided="true"
       inkscape:rounded="0"
       inkscape:randomized="0"
       d="m 392.09451,609.3305 1.17407,-6.28069 3.36363,-5.43246 5.09892,-3.85053 6.14558,-1.74856 6.36224,0.58954 5.71963,2.84805 4.30458,4.72189 2.30815,5.95802 0,6.38949 -2.30815,5.95803 -4.30458,4.72189 -5.71964,2.84804 -6.36223,0.58955 -6.14558,-1.74857 -5.09892,-3.85053 -3.36364,-5.43246 z" />
    <path
       d="m 392.09451,609.3305 1.17407,-6.28069 3.36363,-5.43246 5.09892,-3.85053 6.14558,-1.74856 6.36224,0.58954 5.71963,2.84805 4.30458,4.72189 2.30815,5.95802 0,6.38949 -2.30815,5.95803 -4.30458,4.72189 -5.71964,2.84804 -6.36223,0.58955 -6.14558,-1.74857 -5.09892,-3.85053 -3.36364,-5.43246 z"
       inkscape:randomized="0"
       inkscape:rounded="0"
       inkscape:flatsided="true"
       sodipodi:arg2="3.3263923"
       sodipodi:arg1="3.1415927"
       sodipodi:r2="16.535465"
       sodipodi:r1="17.386417"
       sodipodi:cy="609.33051"
       sodipodi:cx="409.48093"
       sodipodi:sides="17"
       id="path9850-9"
       style="opacity:0.98999999;fill:#ffffff;stroke:#000000;stroke-width:0.30599999;stroke-linecap:round;stroke-linejoin:round;stroke-miterlimit:4;stroke-opacity:1;stroke-dasharray:none;stroke-dashoffset:0"
       sodipodi:type="star"
       transform="matrix(0.83215275,0,0,0.83215275,146.07899,329.06977)" />
    <path
       transform="matrix(0.83215275,0,0,0.83215275,181.91256,329.06977)"
       sodipodi:type="star"
       style="opacity:0.98999999;fill:#ffffff;stroke:#000000;stroke-width:0.30599999;stroke-linecap:round;stroke-linejoin:round;stroke-miterlimit:4;stroke-opacity:1;stroke-dasharray:none;stroke-dashoffset:0"
       id="path9852-2"
       sodipodi:sides="17"
       sodipodi:cx="409.48093"
       sodipodi:cy="609.33051"
       sodipodi:r1="17.386417"
       sodipodi:r2="16.535465"
       sodipodi:arg1="3.1415927"
       sodipodi:arg2="3.3263923"
       inkscape:flatsided="true"
       inkscape:rounded="0"
       inkscape:randomized="0"
       d="m 392.09451,609.3305 1.17407,-6.28069 3.36363,-5.43246 5.09892,-3.85053 6.14558,-1.74856 6.36224,0.58954 5.71963,2.84805 4.30458,4.72189 2.30815,5.95802 0,6.38949 -2.30815,5.95803 -4.30458,4.72189 -5.71964,2.84804 -6.36223,0.58955 -6.14558,-1.74857 -5.09892,-3.85053 -3.36364,-5.43246 z" />
    <path
       transform="matrix(0.83215275,0,0,0.83215275,253.80208,329.06977)"
       sodipodi:type="star"
       style="opacity:0.98999999;fill:#ffffff;stroke:#000000;stroke-width:0.30599999;stroke-linecap:round;stroke-linejoin:round;stroke-miterlimit:4;stroke-opacity:1;stroke-dasharray:none;stroke-dashoffset:0"
       id="path9858-6"
       sodipodi:sides="17"
       sodipodi:cx="409.48093"
       sodipodi:cy="609.33051"
       sodipodi:r1="17.386417"
       sodipodi:r2="16.535465"
       sodipodi:arg1="3.1415927"
       sodipodi:arg2="3.3263923"
       inkscape:flatsided="true"
       inkscape:rounded="0"
       inkscape:randomized="0"
       d="m 392.09451,609.3305 1.17407,-6.28069 3.36363,-5.43246 5.09892,-3.85053 6.14558,-1.74856 6.36224,0.58954 5.71963,2.84805 4.30458,4.72189 2.30815,5.95802 0,6.38949 -2.30815,5.95803 -4.30458,4.72189 -5.71964,2.84804 -6.36223,0.58955 -6.14558,-1.74857 -5.09892,-3.85053 -3.36364,-5.43246 z" />
    <text
       sodipodi:linespacing="125%"
       id="text9895-6"
       y="774.29211"
       x="594.09918"
       style="font-size:50.06554031px;font-style:normal;font-weight:normal;line-height:125%;letter-spacing:0px;word-spacing:0px;fill:#000000;fill-opacity:1;stroke:none;font-family:Sans"
       xml:space="preserve"><tspan
         style="font-size:16.27130127px;font-style:normal;font-variant:normal;font-weight:normal;font-stretch:normal;text-align:center;text-anchor:middle;font-family:Ume P Gothic Balsa;-inkscape-font-specification:Ume P Gothic Balsa"
         y="774.29211"
         x="594.09918"
         id="tspan9897-4"
         sodipodi:role="line">17</tspan></text>
    <text
       xml:space="preserve"
       style="font-size:50.06554031px;font-style:normal;font-weight:normal;line-height:125%;letter-spacing:0px;word-spacing:0px;fill:#000000;fill-opacity:1;stroke:none;font-family:Sans"
       x="629.63037"
       y="774.29211"
       id="text9899-9"
       sodipodi:linespacing="125%"><tspan
         sodipodi:role="line"
         id="tspan9901-5"
         x="629.63037"
         y="774.29211"
         style="font-size:16.27130127px;font-style:normal;font-variant:normal;font-weight:normal;font-stretch:normal;text-align:center;text-anchor:middle;font-family:Ume P Gothic Balsa;-inkscape-font-specification:Ume P Gothic Balsa">18</tspan></text>
    <text
       sodipodi:linespacing="125%"
       id="text9903-0"
       y="807.24524"
       x="415.27872"
       style="font-size:50.06554031px;font-style:normal;font-weight:normal;line-height:125%;letter-spacing:0px;word-spacing:0px;fill:#000000;fill-opacity:1;stroke:none;font-family:Sans"
       xml:space="preserve"><tspan
         style="font-size:16.27130127px;font-style:normal;font-variant:normal;font-weight:normal;font-stretch:normal;text-align:center;text-anchor:middle;font-family:Ume P Gothic Balsa;-inkscape-font-specification:Ume P Gothic Balsa"
         y="807.24524"
         x="415.27872"
         id="tspan9905-4"
         sodipodi:role="line">19</tspan></text>
    <text
       xml:space="preserve"
       style="font-size:50.06554031px;font-style:normal;font-weight:normal;line-height:125%;letter-spacing:0px;word-spacing:0px;fill:#000000;fill-opacity:1;stroke:none;font-family:Sans"
       x="451.10281"
       y="807.24524"
       id="text9907-8"
       sodipodi:linespacing="125%"><tspan
         sodipodi:role="line"
         id="tspan9909-7"
         x="451.10281"
         y="807.24524"
         style="font-size:16.27130127px;font-style:normal;font-variant:normal;font-weight:normal;font-stretch:normal;text-align:center;text-anchor:middle;font-family:Ume P Gothic Balsa;-inkscape-font-specification:Ume P Gothic Balsa">20</tspan></text>
    <text
       xml:space="preserve"
       style="font-size:50.06554031px;font-style:normal;font-weight:normal;line-height:125%;letter-spacing:0px;word-spacing:0px;fill:#000000;fill-opacity:1;stroke:none;font-family:Sans"
       x="486.64102"
       y="807.24524"
       id="text9911-1"
       sodipodi:linespacing="125%"><tspan
         sodipodi:role="line"
         id="tspan9913-7"
         x="486.64102"
         y="807.24524"
         style="font-size:16.27130127px;font-style:normal;font-variant:normal;font-weight:normal;font-stretch:normal;text-align:center;text-anchor:middle;font-family:Ume P Gothic Balsa;-inkscape-font-specification:Ume P Gothic Balsa">21</tspan></text>
    <text
       sodipodi:linespacing="125%"
       id="text9915-2"
       y="807.24524"
       x="522.75128"
       style="font-size:50.06554031px;font-style:normal;font-weight:normal;line-height:125%;letter-spacing:0px;word-spacing:0px;fill:#000000;fill-opacity:1;stroke:none;font-family:Sans"
       xml:space="preserve"><tspan
         style="font-size:16.27130127px;font-style:normal;font-variant:normal;font-weight:normal;font-stretch:normal;text-align:center;text-anchor:middle;font-family:Ume P Gothic Balsa;-inkscape-font-specification:Ume P Gothic Balsa"
         y="807.24524"
         x="522.75128"
         id="tspan9917-7"
         sodipodi:role="line">22</tspan></text>
    <text
       xml:space="preserve"
       style="font-size:50.06554031px;font-style:normal;font-weight:normal;line-height:125%;letter-spacing:0px;word-spacing:0px;fill:#000000;fill-opacity:1;stroke:none;font-family:Sans"
       x="558.5755"
       y="807.24524"
       id="text9919-2"
       sodipodi:linespacing="125%"><tspan
         sodipodi:role="line"
         id="tspan9921-2"
         x="558.5755"
         y="807.24524"
         style="font-size:16.27130127px;font-style:normal;font-variant:normal;font-weight:normal;font-stretch:normal;text-align:center;text-anchor:middle;font-family:Ume P Gothic Balsa;-inkscape-font-specification:Ume P Gothic Balsa">23</tspan></text>
    <text
       xml:space="preserve"
       style="font-size:50.06554031px;font-style:normal;font-weight:normal;line-height:125%;letter-spacing:0px;word-spacing:0px;fill:#000000;fill-opacity:1;stroke:none;font-family:Sans"
       x="594.20319"
       y="807.24524"
       id="text9967-6"
       sodipodi:linespacing="125%"><tspan
         sodipodi:role="line"
         id="tspan9969-1"
         x="594.20319"
         y="807.24524"
         style="font-size:16.27130127px;font-style:normal;font-variant:normal;font-weight:normal;font-stretch:normal;text-align:center;text-anchor:middle;font-family:Ume P Gothic Balsa;-inkscape-font-specification:Ume P Gothic Balsa">24</tspan></text>
    <text
       sodipodi:linespacing="125%"
       id="text9971-0"
       y="807.24524"
       x="630.37701"
       style="font-size:50.06554031px;font-style:normal;font-weight:normal;line-height:125%;letter-spacing:0px;word-spacing:0px;fill:#000000;fill-opacity:1;stroke:none;font-family:Sans"
       xml:space="preserve"><tspan
         style="font-size:16.27130127px;font-style:normal;font-variant:normal;font-weight:normal;font-stretch:normal;text-align:center;text-anchor:middle;font-family:Ume P Gothic Balsa;-inkscape-font-specification:Ume P Gothic Balsa"
         y="807.24524"
         x="630.37701"
         id="tspan9973-6"
         sodipodi:role="line">25</tspan></text>
    <text
       xml:space="preserve"
       style="font-size:50.06554031px;font-style:normal;font-weight:normal;line-height:125%;letter-spacing:0px;word-spacing:0px;fill:#000000;fill-opacity:1;stroke:none;font-family:Sans"
       x="414.9216"
       y="842.29114"
       id="text9975-1"
       sodipodi:linespacing="125%"><tspan
         sodipodi:role="line"
         id="tspan9977-5"
         x="414.9216"
         y="842.29114"
         style="font-size:16.27130127px;font-style:normal;font-variant:normal;font-weight:normal;font-stretch:normal;text-align:center;text-anchor:middle;font-family:Ume P Gothic Balsa;-inkscape-font-specification:Ume P Gothic Balsa">26</tspan></text>
    <text
       sodipodi:linespacing="125%"
       id="text9979-9"
       y="842.29114"
       x="450.7457"
       style="font-size:50.06554031px;font-style:normal;font-weight:normal;line-height:125%;letter-spacing:0px;word-spacing:0px;fill:#000000;fill-opacity:1;stroke:none;font-family:Sans"
       xml:space="preserve"><tspan
         style="font-size:16.27130127px;font-style:normal;font-variant:normal;font-weight:normal;font-stretch:normal;text-align:center;text-anchor:middle;font-family:Ume P Gothic Balsa;-inkscape-font-specification:Ume P Gothic Balsa"
         y="842.29114"
         x="450.7457"
         id="tspan9981-4"
         sodipodi:role="line">27</tspan></text>
    <text
       sodipodi:linespacing="125%"
       id="text9983-9"
       y="842.29114"
       x="486.28391"
       style="font-size:50.06554031px;font-style:normal;font-weight:normal;line-height:125%;letter-spacing:0px;word-spacing:0px;fill:#000000;fill-opacity:1;stroke:none;font-family:Sans"
       xml:space="preserve"><tspan
         style="font-size:16.27130127px;font-style:normal;font-variant:normal;font-weight:normal;font-stretch:normal;text-align:center;text-anchor:middle;font-family:Ume P Gothic Balsa;-inkscape-font-specification:Ume P Gothic Balsa"
         y="842.29114"
         x="486.28391"
         id="tspan9985-0"
         sodipodi:role="line">28</tspan></text>
    <text
       xml:space="preserve"
       style="font-size:50.06554031px;font-style:normal;font-weight:normal;line-height:125%;letter-spacing:0px;word-spacing:0px;fill:#000000;fill-opacity:1;stroke:none;font-family:Sans"
       x="522.39417"
       y="842.29114"
       id="text9987-9"
       sodipodi:linespacing="125%"><tspan
         sodipodi:role="line"
         id="tspan9989-1"
         x="522.39417"
         y="842.29114"
         style="font-size:16.27130127px;font-style:normal;font-variant:normal;font-weight:normal;font-stretch:normal;text-align:center;text-anchor:middle;font-family:Ume P Gothic Balsa;-inkscape-font-specification:Ume P Gothic Balsa">29</tspan></text>
    <text
       sodipodi:linespacing="125%"
       id="text9991-7"
       y="842.29114"
       x="558.21838"
       style="font-size:50.06554031px;font-style:normal;font-weight:normal;line-height:125%;letter-spacing:0px;word-spacing:0px;fill:#000000;fill-opacity:1;stroke:none;font-family:Sans"
       xml:space="preserve"><tspan
         style="font-size:16.27130127px;font-style:normal;font-variant:normal;font-weight:normal;font-stretch:normal;text-align:center;text-anchor:middle;font-family:Ume P Gothic Balsa;-inkscape-font-specification:Ume P Gothic Balsa"
         y="842.29114"
         x="558.21838"
         id="tspan9993-7"
         sodipodi:role="line">30</tspan></text>
    <text
       sodipodi:linespacing="125%"
       id="text9995-1"
       y="842.29108"
       x="594.6521"
       style="font-size:50.06554031px;font-style:normal;font-weight:normal;line-height:125%;letter-spacing:0px;word-spacing:0px;fill:#000000;fill-opacity:1;stroke:none;font-family:Sans"
       xml:space="preserve"><tspan
         style="font-size:16.27130127px;font-style:normal;font-variant:normal;font-weight:normal;font-stretch:normal;text-align:center;text-anchor:middle;font-family:Ume P Gothic Balsa;-inkscape-font-specification:Ume P Gothic Balsa"
         y="842.29108"
         x="594.6521"
         id="tspan9997-1"
         sodipodi:role="line">31</tspan></text>
    <text
       sodipodi:linespacing="125%"
       id="text9999-5"
       y="704.36566"
       x="558.5755"
       style="font-size:50.06554031px;font-style:normal;font-weight:normal;line-height:125%;letter-spacing:0px;word-spacing:0px;fill:#000000;fill-opacity:1;stroke:none;font-family:Sans"
       xml:space="preserve"><tspan
         style="font-size:16.27130127px;font-style:normal;font-variant:normal;font-weight:normal;font-stretch:normal;text-align:center;text-anchor:middle;font-family:Ume P Gothic Balsa;-inkscape-font-specification:Ume P Gothic Balsa"
         y="704.36566"
         x="558.5755"
         id="tspan10001-9"
         sodipodi:role="line">2</tspan></text>
    <text
       xml:space="preserve"
       style="font-size:50.06554031px;font-style:normal;font-weight:normal;line-height:125%;letter-spacing:0px;word-spacing:0px;fill:#000000;fill-opacity:1;stroke:none;font-family:Sans"
       x="523.52966"
       y="704.36566"
       id="text10003-7"
       sodipodi:linespacing="125%"><tspan
         sodipodi:role="line"
         id="tspan10005-7"
         x="523.52966"
         y="704.36566"
         style="font-size:16.27130127px;font-style:normal;font-variant:normal;font-weight:normal;font-stretch:normal;text-align:center;text-anchor:middle;font-family:Ume P Gothic Balsa;-inkscape-font-specification:Ume P Gothic Balsa">1</tspan></text>
  </g>
</svg>
