digraph protagonistes {
//size="6,3!";
//ratio="compress";
//ratio=0.5; 
//page="16.5,11.7";
//margin=0;
//center = false;
overlap=false;
splines=true;
//bgcolor=transparent;
fontname="Ume P Gothic Balsa";
//fontpath="/home/svilayphiou/.fonts";
//rankdir=LR;
//ranksep=-1;
nodesep=0.1;
//sep=-1;
//overlap="compress";

	node [color="black", fontcolor="black", fontname="Ume P Gothic Balsa",  fontsize=10, arrowsize=0.5, tooltip="\N"] ;
	edge [color="black", fontname="Ume P Gothic Balsa", len = 2, arrowsize=0.5, dir= back]
  {
        "Festival Genèse"[shape=Mdiamond]
	"Hichem Dahes"[shape=box]
	"Pierre Megos"[shape=box];
	"Camille Mutel"[shape=box, pos = "-3,7!"];
	"Claude Schmitz"[shape=box]
	"Thomas Turine"[shape=box]
	"Odile Vansteenwinckel \n & François Beukelaers"[shape=box]
	"Collectif Yes Igor"[shape=box, pos = "-4,2!"];
	"Stéphane Arcas"[shape=box, pos = "5,0!"];
        "Festival Genèse" -> "Hichem Dahes"
	"Festival Genèse" -> "Pierre Megos"
	"Festival Genèse" -> "Camille Mutel"
	"Festival Genèse" -> "Claude Schmitz"
	"Festival Genèse" -> "Thomas Turine"
	"Festival Genèse" -> "Odile Vansteenwinckel \n & François Beukelaers"
	"Festival Genèse" -> "Collectif Yes Igor"
	"Festival Genèse" -> "Stéphane Arcas"
	"Pierre Megos" -> "Allesandro de Pascale"
	"Pierre Megos" -> "Iannis Heaulme"
	"Pierre Megos" -> "Julie Petit-Étienne"
	"Pierre Megos" -> "Florence Richard"
	"Pierre Megos" -> "Caroline De Decker"
	"Pierre Megos" -> "Raphaël L. Lungo"
	"Pierre Megos" -> "Daniel Gaviria Escobar"
	"Camille Mutel" -> "Gilles Gobeil"
	"Camille Mutel" -> "Matthieu Ferry"
	"Camille Mutel" -> "Olivier Weber"
	"Camille Mutel" -> "François Cacic"
	"Claude Schmitz" -> "Boris Dambly"
	"Claude Schmitz" -> "Arnaud Poirier"
	"Claude Schmitz" -> "Clément Losson"
	"Claude Schmitz" -> "Richard Klein"
	"Claude Schmitz" -> "Romain Lissoir"
	"Thomas Turine" -> "Marilyne Grimmer"
	"Thomas Turine" -> "Julie Petit-Étienne"
	"Thomas Turine" -> "Roxane Lefèbvre"
	"Thomas Turine" -> "Philippe Eustachon"
	"Thomas Turine" -> "Nicole Mossoux"
	"Thomas Turine" -> "Fabien Dehasseler"
	"Thomas Turine" -> "Julie Vermeulen"
	"Thomas Turine" -> "Barbara Malter Terrada"
	"Thomas Turine" -> "Yann Lecollaire"
	"Thomas Turine" -> "Natalia Sardi"
	"Thomas Turine" -> "Christophe Lagnaux"
	"Odile Vansteenwinckel \n & François Beukelaers" -> "Marie Bos"
	"Odile Vansteenwinckel \n & François Beukelaers" -> "Laurent Caron"
	"Collectif Yes Igor" -> "Laurent Dailleau"
	"Collectif Yes Igor" -> "Monsieur Gadou"
	"Collectif Yes Igor" -> "Isabelle Jelen"
	"Collectif Yes Igor" -> "Pierre Lachaud"
	"Collectif Yes Igor" -> "Bruno Lahontâa"
	"Collectif Yes Igor" -> "Éric Blosse"
	"Collectif Yes Igor" -> "Sophie Robin"
	"Collectif Yes Igor" -> "Jérôme Cazamayou"
	"Collectif Yes Igor" -> "Plataforma"
	"Stéphane Arcas" -> "Valérie Solanas"
	"Stéphane Arcas" -> "Cécile Chèvre"
	"Stéphane Arcas" -> "Rodolphe Coster"
	"Stéphane Arcas" -> "Ugo Dehaes"
	"Stéphane Arcas" -> "Fabien Dehasseler"
	"Stéphane Arcas" -> "François De Jonge"
	"Stéphane Arcas" -> "Paulo Guerreiro"
	"Stéphane Arcas" -> "Mathieu Hasseler"
	"Stéphane Arcas" -> "Julien Jaillot"
	"Stéphane Arcas" -> "Nicolas Luçon"
	"Stéphane Arcas" -> "Guylène Olivares"
	"Stéphane Arcas" -> "Julie Petit-Étienne"
	"Stéphane Arcas" -> "Antoine Pickels"
	"Stéphane Arcas" -> "Denis Laujol"
	"Stéphane Arcas" -> "Benoît Piret"
	"Stéphane Arcas" -> "Philippe Sangdor"
  }
}
