<?xml version="1.0" encoding="UTF-8" standalone="no"?>
<!-- Generated by graphviz version 2.26.3 (20100126.1600)
 -->

<!-- Title: protagonistes Pages: 1 -->

<svg
   xmlns:dc="http://purl.org/dc/elements/1.1/"
   xmlns:cc="http://creativecommons.org/ns#"
   xmlns:rdf="http://www.w3.org/1999/02/22-rdf-syntax-ns#"
   xmlns:svg="http://www.w3.org/2000/svg"
   xmlns="http://www.w3.org/2000/svg"
   xmlns:xlink="http://www.w3.org/1999/xlink"
   xmlns:sodipodi="http://sodipodi.sourceforge.net/DTD/sodipodi-0.dtd"
   xmlns:inkscape="http://www.inkscape.org/namespaces/inkscape"
   width="524.40942"
   height="372.04724"
   viewBox="0 0 419.4088 297.6378"
   id="svg2"
   version="1.1"
   inkscape:version="0.48.1 r9760"
   sodipodi:docname="bibles-force.svg">
  <metadata
     id="metadata995">
    <rdf:RDF>
      <cc:Work
         rdf:about="">
        <dc:format>image/svg+xml</dc:format>
        <dc:type
           rdf:resource="http://purl.org/dc/dcmitype/StillImage" />
        <dc:title></dc:title>
      </cc:Work>
    </rdf:RDF>
  </metadata>
  <defs
     id="defs993" />
  <sodipodi:namedview
     pagecolor="#ffffff"
     bordercolor="#666666"
     borderopacity="1"
     objecttolerance="10"
     gridtolerance="10"
     guidetolerance="10"
     inkscape:pageopacity="0"
     inkscape:pageshadow="2"
     inkscape:window-width="1280"
     inkscape:window-height="721"
     id="namedview991"
     showgrid="false"
     inkscape:zoom="0.98572682"
     inkscape:cx="408.40244"
     inkscape:cy="152.77073"
     inkscape:window-x="0"
     inkscape:window-y="25"
     inkscape:window-maximized="1"
     inkscape:current-layer="svg2"
     units="mm"
     inkscape:showpageshadow="false" />
  <g
     id="g4544"
     transform="translate(-3.2,-3.2)">
    <g
       transform="matrix(0.308142,0,0,0.308142,49.232568,296.4054)"
       id="node2"
       class="node">
      <title
         id="title8">Festival Genèse</title>
      <a
         xlink:title="Festival Genèse"
         id="a10">
        <polygon
           points="534.957,-500.4 465.027,-482.4 534.957,-464.4 604.886,-482.4 534.957,-500.4 "
           id="polygon12"
           style="fill:none;stroke:#000000" />
        <polyline
           points="476.648,-485.392 476.648,-479.409 "
           id="polyline14"
           style="fill:none;stroke:#000000" />
        <polyline
           points="523.336,-467.392 546.578,-467.392 "
           id="polyline16"
           style="fill:none;stroke:#000000" />
        <polyline
           points="593.265,-479.409 593.265,-485.392 "
           id="polyline18"
           style="fill:none;stroke:#000000" />
        <polyline
           points="546.578,-497.409 523.336,-497.409 "
           id="polyline20"
           style="fill:none;stroke:#000000" />
        <text
           x="534.95697"
           y="-478.89999"
           font-size="10.00"
           id="text22"
           style="font-size:10px;text-anchor:middle;font-family:Ume P Gothic Balsa">Festival Genèse</text>
      </a>
    </g>
    <g
       transform="matrix(0.308142,0,0,0.308142,49.232568,296.4054)"
       id="node3"
       class="node">
      <title
         id="title25">Hichem Dahes</title>
      <a
         xlink:title="Hichem Dahes"
         id="a27">
        <polygon
           points="476.071,-542.455 400.071,-542.455 400.071,-506.455 476.071,-506.455 476.071,-542.455 "
           id="polygon29"
           style="fill:none;stroke:#000000" />
        <text
           x="438.07101"
           y="-520.95502"
           font-size="10.00"
           id="text31"
           style="font-size:10px;text-anchor:middle;font-family:Ume P Gothic Balsa">Hichem Dahes</text>
      </a>
    </g>
    <g
       transform="matrix(0.308142,0,0,0.308142,49.232568,296.4054)"
       id="edge3"
       class="edge">
      <title
         id="title34">Festival Genèse-&gt;Hichem Dahes</title>
      <path
         d="m 503.953,-495.858 c -8.792,-3.816 -18.468,-8.016 -27.635,-11.995"
         id="path36"
         inkscape:connector-curvature="0"
         style="fill:none;stroke:#000000" />
      <polygon
         points="508.738,-493.781 503.455,-494.167 504.848,-497.377 504.848,-497.377 "
         id="polygon38"
         style="fill:#000000;stroke:#000000" />
    </g>
    <g
       transform="matrix(0.308142,0,0,0.308142,66.832568,296.4054)"
       id="node4"
       class="node">
      <title
         id="title41">Pierre Megos</title>
      <a
         xlink:title="Pierre Megos"
         id="a43">
        <polygon
           points="617.834,-248.803 689.834,-248.803 689.834,-284.803 689.834,-284.803 617.834,-284.803 "
           id="polygon45"
           style="fill:none;stroke:#000000" />
        <text
           x="653.83398"
           y="-263.30301"
           font-size="10.00"
           id="text47"
           style="font-size:10px;text-anchor:middle;font-family:Ume P Gothic Balsa">Pierre Megos</text>
      </a>
    </g>
    <g
       transform="matrix(0.308142,0,0,0.308142,49.232568,296.4054)"
       id="edge5"
       class="edge">
      <title
         id="title50">Festival Genèse-&gt;Pierre Megos</title>
      <path
         sodipodi:nodetypes="cc"
         d="m 558.228,-465.753 c 48.12794,48.63888 119.43277,78.33163 127.99838,180.595"
         id="path52"
         inkscape:connector-curvature="0"
         style="fill:none;stroke:#000000" />
      <polygon
         points="554.06,-468.935 559.096,-467.291 556.972,-464.509 556.972,-464.509 "
         id="polygon54"
         style="fill:#000000;stroke:#000000" />
    </g>
    <g
       transform="matrix(0.308142,0,0,0.308142,49.232568,296.4054)"
       id="node5"
       class="node">
      <title
         id="title57">Camille Mutel</title>
      <a
         xlink:title="Camille Mutel"
         id="a59">
        <polygon
           points="353.629,-459.241 279.629,-459.241 279.629,-423.241 353.629,-423.241 353.629,-459.241 "
           id="polygon61"
           style="fill:none;stroke:#000000" />
        <text
           x="316.629"
           y="-437.741"
           font-size="10.00"
           id="text63"
           style="font-size:10px;text-anchor:middle;font-family:Ume P Gothic Balsa">Camille Mutel</text>
      </a>
    </g>
    <g
       transform="matrix(0.308142,0,0,0.308142,49.232568,296.4054)"
       id="edge7"
       class="edge">
      <title
         id="title66">Festival Genèse-&gt;Camille Mutel</title>
      <path
         d="m 489.092,-473.754 c -40.244,7.587 -98.023,18.48 -135.401,25.526"
         id="path68"
         inkscape:connector-curvature="0"
         style="fill:none;stroke:#000000" />
      <polygon
         points="494.403,-474.755 489.813,-472.109 489.165,-475.548 489.165,-475.548 "
         id="polygon70"
         style="fill:#000000;stroke:#000000" />
    </g>
    <g
       transform="matrix(0.308142,0,0,0.308142,49.232568,296.4054)"
       id="node6"
       class="node">
      <title
         id="title73">Claude Schmitz</title>
      <a
         xlink:title="Claude Schmitz"
         id="a75">
        <polygon
           points="541.864,-662.231 459.864,-662.231 459.864,-626.231 541.864,-626.231 541.864,-662.231 "
           id="polygon77"
           style="fill:none;stroke:#000000" />
        <text
           x="500.86401"
           y="-640.73102"
           font-size="10.00"
           id="text79"
           style="font-size:10px;text-anchor:middle;font-family:Ume P Gothic Balsa">Claude Schmitz</text>
      </a>
    </g>
    <g
       transform="matrix(0.308142,0,0,0.308142,49.232568,296.4054)"
       id="edge9"
       class="edge">
      <title
         id="title82">Festival Genèse-&gt;Claude Schmitz</title>
      <path
         d="m 530.267,-504.663 c -6.805,-32.302 -19.287,-91.553 -25.572,-121.387"
         id="path84"
         inkscape:connector-curvature="0"
         style="fill:none;stroke:#000000" />
      <polygon
         points="531.308,-499.719 528.565,-504.251 531.99,-504.972 531.99,-504.972 "
         id="polygon86"
         style="fill:#000000;stroke:#000000" />
    </g>
    <g
       transform="matrix(0.308142,0,0,0.308142,49.232568,296.4054)"
       id="node7"
       class="node">
      <title
         id="title89">Thomas Turine</title>
      <a
         xlink:title="Thomas Turine"
         id="a91">
        <polygon
           points="543.36,-306.451 463.36,-306.451 463.36,-270.451 543.36,-270.451 543.36,-306.451 "
           id="polygon93"
           style="fill:none;stroke:#000000" />
        <text
           x="503.35999"
           y="-284.95099"
           font-size="10.00"
           id="text95"
           style="font-size:10px;text-anchor:middle;font-family:Ume P Gothic Balsa">Thomas Turine</text>
      </a>
    </g>
    <g
       transform="matrix(0.308142,0,0,0.308142,49.232568,296.4054)"
       id="edge11"
       class="edge">
      <title
         id="title98">Festival Genèse-&gt;Thomas Turine</title>
      <path
         d="m 531.286,-459.866 c -6.326,38.824 -19.156,117.581 -24.958,153.197"
         id="path100"
         inkscape:connector-curvature="0"
         style="fill:none;stroke:#000000" />
      <polygon
         points="532.097,-464.847 533.02,-459.63 529.566,-460.193 529.566,-460.193 "
         id="polygon102"
         style="fill:#000000;stroke:#000000" />
    </g>
    <g
       transform="matrix(0.308142,0,0,0.308142,49.232568,296.4054)"
       id="node8"
       class="node">
      <title
         id="title105">Odile Vansteenwinckel \n &amp; François Beukelaers</title>
      <a
         xlink:title="Odile Vansteenwinckel \n &amp; François Beukelaers"
         id="a107">
        <polygon
           points="485.524,-412.965 371.524,-412.965 371.524,-376.965 485.524,-376.965 485.524,-412.965 "
           id="polygon109"
           style="fill:none;stroke:#000000" />
        <text
           x="428.52399"
           y="-396.965"
           font-size="10.00"
           id="text111"
           style="font-size:10px;text-anchor:middle;font-family:Ume P Gothic Balsa">Odile Vansteenwinckel</text>
        <text
           x="428.52399"
           y="-385.965"
           font-size="10.00"
           id="text113"
           style="font-size:10px;text-anchor:middle;font-family:Ume P Gothic Balsa">&amp; François Beukelaers</text>
      </a>
    </g>
    <g
       transform="matrix(0.308142,0,0,0.308142,49.232568,296.4054)"
       id="edge13"
       class="edge">
      <title
         id="title116">Festival Genèse-&gt;Odile Vansteenwinckel \n &amp; François Beukelaers</title>
      <path
         d="m 513.862,-465.071 c -18.242,14.987 -44.532,36.584 -63.101,51.838"
         id="path118"
         inkscape:connector-curvature="0"
         style="fill:none;stroke:#000000" />
      <polygon
         points="517.857,-468.352 515.104,-463.826 512.882,-466.531 512.882,-466.531 "
         id="polygon120"
         style="fill:#000000;stroke:#000000" />
    </g>
    <g
       transform="matrix(0.308142,0,0,0.308142,49.232568,296.4054)"
       id="node9"
       class="node">
      <title
         id="title123">Collectif Yes Igor</title>
      <a
         xlink:title="Collectif Yes Igor"
         id="a125">
        <polygon
           points="394.858,-605.264 304.858,-605.264 304.858,-569.264 394.858,-569.264 394.858,-605.264 "
           id="polygon127"
           style="fill:none;stroke:#000000" />
        <text
           x="349.858"
           y="-583.76398"
           font-size="10.00"
           id="text129"
           style="font-size:10px;text-anchor:middle;font-family:Ume P Gothic Balsa">Collectif Yes Igor</text>
      </a>
    </g>
    <g
       transform="matrix(0.308142,0,0,0.308142,49.232568,296.4054)"
       id="edge15"
       class="edge">
      <title
         id="title132">Festival Genèse-&gt;Collectif Yes Igor</title>
      <path
         d="m 522.027,-502.28 c -10.01,-13.947 -25.041,-32.055 -42.256,-43.375 -25.625,-16.851 -58.569,-27.301 -84.87,-33.514"
         id="path134"
         inkscape:connector-curvature="0"
         style="fill:none;stroke:#000000" />
      <polygon
         points="524.969,-498.097 520.661,-501.18 523.524,-503.194 523.524,-503.194 "
         id="polygon136"
         style="fill:#000000;stroke:#000000" />
    </g>
    <g
       transform="matrix(0.308142,0,0,0.308142,66.832568,296.4054)"
       id="node10"
       class="node">
      <title
         id="title139">Stéphane Arcas</title>
      <a
         xlink:title="Stéphane Arcas"
         id="a141">
        <polygon
           points="627.441,-464.924 709.441,-464.924 709.441,-500.924 709.441,-500.924 627.441,-500.924 "
           id="polygon143"
           style="fill:none;stroke:#000000" />
        <text
           x="668.44098"
           y="-479.42401"
           font-size="10.00"
           id="text145"
           style="font-size:10px;text-anchor:middle;font-family:Ume P Gothic Balsa">Stéphane Arcas</text>
      </a>
    </g>
    <g
       transform="matrix(0.308142,0,0,0.308142,66.832568,296.4054)"
       id="edge17"
       class="edge">
      <title
         id="title148">Festival Genèse-&gt;Stéphane Arcas</title>
      <path
         sodipodi:nodetypes="cc"
         d="m 546.90206,-482.692 c 6.131,-0.024 74.48494,-0.048 80.23494,-0.07"
         id="path150"
         inkscape:connector-curvature="0"
         style="fill:none;stroke:#000000" />
      <polygon
         transform="translate(-57.116522,0)"
         points="609.038,-484.441 609.052,-480.941 609.052,-480.941 604.045,-482.671 "
         id="polygon152"
         style="fill:#000000;stroke:#000000" />
    </g>
    <g
       transform="matrix(0.308142,0,0,0.308142,82.832568,283.6054)"
       id="node20"
       class="node">
      <title
         id="title155">Allesandro de Pascale</title>
      <a
         xlink:title="Allesandro de Pascale"
         id="a157">
        <ellipse
           cx="930.13202"
           cy="-31.4505"
           rx="63.075001"
           ry="18"
           id="ellipse159"
           d="m 993.20702,-31.4505 c 0,9.941125 -28.23964,18 -63.075,18 -34.83536,0 -63.075,-8.058875 -63.075,-18 0,-9.941126 28.23964,-18 63.075,-18 34.83536,0 63.075,8.058874 63.075,18 z"
           sodipodi:cx="930.13202"
           sodipodi:cy="-31.4505"
           sodipodi:rx="63.075001"
           sodipodi:ry="18"
           style="fill:none;stroke:#000000" />
        <text
           x="930.13202"
           y="-27.9505"
           font-size="10.00"
           id="text161"
           style="font-size:10px;text-anchor:middle;font-family:Ume P Gothic Balsa">Allesandro de Pascale</text>
      </a>
    </g>
    <g
       transform="matrix(0.308142,0,0,0.308142,66.832568,296.4054)"
       id="edge19"
       class="edge">
      <title
         id="title164">Pierre Megos-&gt;Allesandro de Pascale</title>
      <path
         sodipodi:nodetypes="cc"
         d="m 692.805,-246.037 c 63.83785,69.70409 207.25853,91.34384 252.83906,158.310741"
         id="path166"
         inkscape:connector-curvature="0"
         style="fill:none;stroke:#000000" />
      <polygon
         points="691.631,-244.69 691.631,-244.69 688.132,-248.668 693.348,-247.74 "
         id="polygon168"
         style="fill:#000000;stroke:#000000" />
    </g>
    <g
       transform="matrix(0.308142,0,0,0.308142,49.232568,283.6054)"
       id="node22"
       class="node">
      <title
         id="title171">Iannis Heaulme</title>
      <a
         xlink:title="Iannis Heaulme"
         id="a173">
        <ellipse
           cx="638.96997"
           cy="-32.6604"
           rx="47.092999"
           ry="18"
           id="ellipse175"
           d="m 686.06297,-32.6604 c 0,9.941125 -21.08425,18 -47.093,18 -26.00874,0 -47.093,-8.058875 -47.093,-18 0,-9.941126 21.08426,-18 47.093,-18 26.00875,0 47.093,8.058874 47.093,18 z"
           sodipodi:cx="638.96997"
           sodipodi:cy="-32.6604"
           sodipodi:rx="47.092999"
           sodipodi:ry="18"
           style="fill:none;stroke:#000000" />
        <text
           x="638.96997"
           y="-29.1604"
           font-size="10.00"
           id="text177"
           style="font-size:10px;text-anchor:middle;font-family:Ume P Gothic Balsa">Iannis Heaulme</text>
      </a>
    </g>
    <g
       transform="matrix(0.308142,0,0,0.308142,66.832568,296.4054)"
       id="edge21"
       class="edge">
      <title
         id="title180">Pierre Megos-&gt;Iannis Heaulme</title>
      <path
         sodipodi:nodetypes="cc"
         d="m 654.048,-243.261 c 5.02867,52.42382 -26.92746,117.57017 -44.11792,154.568814"
         id="path182"
         inkscape:connector-curvature="0"
         style="fill:none;stroke:#000000" />
      <polygon
         points="652.297,-243.468 652.297,-243.468 654.029,-248.475 655.797,-243.481 "
         id="polygon184"
         style="fill:#000000;stroke:#000000" />
    </g>
    <g
       transform="matrix(0.308142,0,0,0.308142,66.832568,296.4054)"
       id="node24"
       class="node">
      <title
         id="title187">Julie Petit-Étienne</title>
      <a
         xlink:title="Julie Petit-Étienne"
         id="a189">
        <ellipse
           cx="699.17499"
           cy="-366.35501"
           rx="57.187302"
           ry="18"
           id="ellipse191"
           d="m 756.36229,-366.35501 c 0,9.94112 -25.60363,18 -57.1873,18 -31.58368,0 -57.1873,-8.05888 -57.1873,-18 0,-9.94113 25.60362,-18 57.1873,-18 31.58367,0 57.1873,8.05887 57.1873,18 z"
           sodipodi:cx="699.17499"
           sodipodi:cy="-366.35501"
           sodipodi:rx="57.187302"
           sodipodi:ry="18"
           style="fill:none;stroke:#000000" />
        <text
           x="699.17499"
           y="-362.85501"
           font-size="10.00"
           id="text193"
           style="font-size:10px;text-anchor:middle;font-family:Ume P Gothic Balsa">Julie Petit-Étienne</text>
      </a>
    </g>
    <g
       transform="matrix(0.308142,0,0,0.308142,66.832568,296.4054)"
       id="edge23"
       class="edge">
      <title
         id="title196">Pierre Megos-&gt;Julie Petit-Étienne</title>
      <path
         d="m 664.348,-289.888 c 8.086,-17.754 19.102,-41.941 26.563,-58.323"
         id="path198"
         inkscape:connector-curvature="0"
         style="fill:none;stroke:#000000" />
      <polygon
         points="665.816,-288.888 665.816,-288.888 662.151,-285.063 662.63,-290.338 "
         id="polygon200"
         style="fill:#000000;stroke:#000000" />
    </g>
    <g
       transform="matrix(0.308142,0,0,0.308142,66.832568,296.4054)"
       id="node26"
       class="node">
      <title
         id="title203">Florence Richard</title>
      <a
         xlink:title="Florence Richard"
         id="a205">
        <ellipse
           cx="765.53101"
           cy="-155.30299"
           rx="51.891998"
           ry="18"
           id="ellipse207"
           d="m 817.423,-155.30299 c 0,9.94112 -23.23283,18 -51.89199,18 -28.65916,0 -51.892,-8.05888 -51.892,-18 0,-9.94113 23.23284,-18 51.892,-18 28.65916,0 51.89199,8.05887 51.89199,18 z"
           sodipodi:cx="765.53101"
           sodipodi:cy="-155.30299"
           sodipodi:rx="51.891998"
           sodipodi:ry="18"
           style="fill:none;stroke:#000000" />
        <text
           x="765.53101"
           y="-151.80299"
           font-size="10.00"
           id="text209"
           style="font-size:10px;text-anchor:middle;font-family:Ume P Gothic Balsa">Florence Richard</text>
      </a>
    </g>
    <g
       transform="matrix(0.308142,0,0,0.308142,66.832568,296.4054)"
       id="edge25"
       class="edge">
      <title
         id="title212">Pierre Megos-&gt;Florence Richard</title>
      <path
         d="m 675.849,-244.828 c 21.198,21.161 52.834,52.741 72.314,72.187"
         id="path214"
         inkscape:connector-curvature="0"
         style="fill:none;stroke:#000000" />
      <polygon
         points="674.581,-243.621 674.581,-243.621 672.279,-248.391 677.054,-246.098 "
         id="polygon216"
         style="fill:#000000;stroke:#000000" />
    </g>
    <g
       transform="matrix(0.308142,0,0,0.308142,82.832568,296.4054)"
       id="node28"
       class="node">
      <title
         id="title219">Caroline De Decker</title>
      <a
         xlink:title="Caroline De Decker"
         id="a221">
        <ellipse
           cx="952.51801"
           cy="-164.298"
           rx="57.779499"
           ry="18"
           id="ellipse223"
           d="m 1010.2975,-164.298 c 0,9.94112 -25.86876,18 -57.77949,18 -31.91074,0 -57.7795,-8.05888 -57.7795,-18 0,-9.94113 25.86876,-18 57.7795,-18 31.91073,0 57.77949,8.05887 57.77949,18 z"
           sodipodi:cx="952.51801"
           sodipodi:cy="-164.298"
           sodipodi:rx="57.779499"
           sodipodi:ry="18"
           style="fill:none;stroke:#000000" />
        <text
           x="952.51801"
           y="-160.798"
           font-size="10.00"
           id="text225"
           style="font-size:10px;text-anchor:middle;font-family:Ume P Gothic Balsa">Caroline De Decker</text>
      </a>
    </g>
    <g
       transform="matrix(0.308142,0,0,0.308142,66.832568,296.4054)"
       id="edge27"
       class="edge">
      <title
         id="title228">Pierre Megos-&gt;Caroline De Decker</title>
      <path
         sodipodi:nodetypes="cc"
         d="m 694.611,-252.809 c 57.648,19.784 196.70397,64.52929 253.36597,83.97529"
         id="path230"
         inkscape:connector-curvature="0"
         style="fill:none;stroke:#000000" />
      <polygon
         points="694.024,-251.161 694.024,-251.161 689.863,-254.439 695.16,-254.471 "
         id="polygon232"
         style="fill:#000000;stroke:#000000" />
    </g>
    <g
       transform="matrix(0.308142,0,0,0.308142,66.832568,296.4054)"
       id="node30"
       class="node">
      <title
         id="title235">Raphaël L. Lungo</title>
      <a
         xlink:title="Raphaël L. Lungo"
         id="a237">
        <ellipse
           cx="819.55902"
           cy="-256.33801"
           rx="51.802299"
           ry="18"
           id="ellipse239"
           d="m 871.36132,-256.33801 c 0,9.94112 -23.19268,18 -51.8023,18 -28.60962,0 -51.8023,-8.05888 -51.8023,-18 0,-9.94113 23.19268,-18 51.8023,-18 28.60962,0 51.8023,8.05887 51.8023,18 z"
           sodipodi:cx="819.55902"
           sodipodi:cy="-256.33801"
           sodipodi:rx="51.802299"
           sodipodi:ry="18"
           style="fill:none;stroke:#000000" />
        <text
           x="819.55902"
           y="-252.838"
           font-size="10.00"
           id="text241"
           style="font-size:10px;text-anchor:middle;font-family:Ume P Gothic Balsa">Raphaël L. Lungo</text>
      </a>
    </g>
    <g
       transform="matrix(0.308142,0,0,0.308142,66.832568,296.4054)"
       id="edge29"
       class="edge">
      <title
         id="title244">Pierre Megos-&gt;Raphaël L. Lungo</title>
      <path
         d="m 695.406,-264.178 c 22.071,1.394 49.392,3.119 72.781,4.596"
         id="path246"
         inkscape:connector-curvature="0"
         style="fill:none;stroke:#000000" />
      <polygon
         points="695.083,-262.445 695.083,-262.445 690.203,-264.507 695.304,-265.938 "
         id="polygon248"
         style="fill:#000000;stroke:#000000" />
    </g>
    <g
       transform="matrix(0.308142,0,0,0.308142,66.832568,283.6054)"
       id="node32"
       class="node">
      <title
         id="title251">Daniel Gaviria Escobar</title>
      <a
         xlink:title="Daniel Gaviria Escobar"
         id="a253">
        <ellipse
           cx="763.56897"
           cy="-30.879"
           rx="64.752899"
           ry="18"
           id="ellipse255"
           d="m 828.32187,-30.879 c 0,9.941126 -28.99086,18 -64.7529,18 -35.76204,0 -64.7529,-8.058874 -64.7529,-18 0,-9.941125 28.99086,-18 64.7529,-18 35.76204,0 64.7529,8.058875 64.7529,18 z"
           sodipodi:cx="763.56897"
           sodipodi:cy="-30.879"
           sodipodi:rx="64.752899"
           sodipodi:ry="18"
           style="fill:none;stroke:#000000" />
        <text
           x="763.56897"
           y="-27.379"
           font-size="10.00"
           id="text257"
           style="font-size:10px;text-anchor:middle;font-family:Ume P Gothic Balsa">Daniel Gaviria Escobar</text>
      </a>
    </g>
    <g
       transform="matrix(0.308142,0,0,0.308142,66.832568,296.4054)"
       id="edge31"
       class="edge">
      <title
         id="title260">Pierre Megos-&gt;Daniel Gaviria Escobar</title>
      <path
         sodipodi:nodetypes="cc"
         d="m 664.405,-244.077 c 8.00083,95.65025 98.36526,132.05007 98.77082,153.360737"
         id="path262"
         inkscape:connector-curvature="0"
         style="fill:none;stroke:#000000" />
      <polygon
         points="662.785,-243.411 662.785,-243.411 662.263,-248.683 665.958,-244.887 "
         id="polygon264"
         style="fill:#000000;stroke:#000000" />
    </g>
    <g
       transform="matrix(0.308142,0,0,0.308142,31.632569,296.4054)"
       id="node34"
       class="node">
      <title
         id="title267">Gilles Gobeil</title>
      <a
         xlink:title="Gilles Gobeil"
         id="a269">
        <ellipse
           cx="41.5"
           cy="-132.31599"
           rx="40.116299"
           ry="18"
           id="ellipse271"
           d="m 81.616299,-132.31599 c 0,9.94112 -17.960679,18 -40.116299,18 -22.15562,0 -40.1162987,-8.05888 -40.1162987,-18 0,-9.94113 17.9606787,-18 40.1162987,-18 22.15562,0 40.116299,8.05887 40.116299,18 z"
           sodipodi:cx="41.5"
           sodipodi:cy="-132.31599"
           sodipodi:rx="40.116299"
           sodipodi:ry="18"
           style="fill:none;stroke:#000000" />
        <text
           x="41.5"
           y="-128.81599"
           font-size="10.00"
           id="text273"
           style="font-size:10px;text-anchor:middle;font-family:Ume P Gothic Balsa">Gilles Gobeil</text>
      </a>
    </g>
    <g
       transform="matrix(0.308142,0,0,0.308142,49.232568,296.4054)"
       id="edge33"
       class="edge">
      <title
         id="title276">Camille Mutel-&gt;Gilles Gobeil</title>
      <path
         sodipodi:nodetypes="csc"
         d="m 301.921,-418.832 c -11.798,17.511 -29.112,42.203 -45.952,62.526 -68.186,82.291 -201.479375,176.75754 -239.093375,212.74254"
         id="path278"
         inkscape:connector-curvature="0"
         style="fill:none;stroke:#000000" />
      <polygon
         points="304.797,-423.122 303.466,-417.994 300.559,-419.944 300.559,-419.944 "
         id="polygon280"
         style="fill:#000000;stroke:#000000" />
    </g>
    <g
       transform="matrix(0.308142,0,0,0.308142,31.632569,296.4054)"
       id="node36"
       class="node">
      <title
         id="title283">Matthieu Ferry</title>
      <a
         xlink:title="Matthieu Ferry"
         id="a285">
        <ellipse
           cx="49.908798"
           cy="-507.858"
           rx="47.092999"
           ry="18"
           id="ellipse287"
           d="m 97.001797,-507.858 c 0,9.94112 -21.084254,18 -47.092999,18 -26.008745,0 -47.0929983,-8.05888 -47.0929983,-18 0,-9.94113 21.0842533,-18 47.0929983,-18 26.008745,0 47.092999,8.05887 47.092999,18 z"
           sodipodi:cx="49.908798"
           sodipodi:cy="-507.858"
           sodipodi:rx="47.092999"
           sodipodi:ry="18"
           style="fill:none;stroke:#000000" />
        <text
           x="49.908798"
           y="-504.358"
           font-size="10.00"
           id="text289"
           style="font-size:10px;text-anchor:middle;font-family:Ume P Gothic Balsa">Matthieu Ferry</text>
      </a>
    </g>
    <g
       transform="matrix(0.308142,0,0,0.308142,49.232568,296.4054)"
       id="edge35"
       class="edge">
      <title
         id="title292">Camille Mutel-&gt;Matthieu Ferry</title>
      <path
         sodipodi:nodetypes="cc"
         d="m 274.427,-451.781 c -50.846,-12.7 -188.209141,-37.59275 -237.756941,-49.96775"
         id="path294"
         inkscape:connector-curvature="0"
         style="fill:none;stroke:#000000" />
      <polygon
         points="279.543,-450.504 274.268,-450.017 275.116,-453.413 275.116,-453.413 "
         id="polygon296"
         style="fill:#000000;stroke:#000000" />
    </g>
    <g
       transform="matrix(0.308142,0,0,0.308142,31.632569,296.4054)"
       id="node38"
       class="node">
      <title
         id="title299">Olivier Weber</title>
      <a
         xlink:title="Olivier Weber"
         id="a301">
        <ellipse
           cx="63.334099"
           cy="-283.89401"
           rx="42.972401"
           ry="18"
           id="ellipse303"
           d="m 106.3065,-283.89401 c 0,9.94112 -19.2394,18 -42.972401,18 -23.733002,0 -42.972401,-8.05888 -42.972401,-18 0,-9.94113 19.239399,-18 42.972401,-18 23.733001,0 42.972401,8.05887 42.972401,18 z"
           sodipodi:cx="63.334099"
           sodipodi:cy="-283.89401"
           sodipodi:rx="42.972401"
           sodipodi:ry="18"
           style="fill:none;stroke:#000000" />
        <text
           x="63.334099"
           y="-280.39401"
           font-size="10.00"
           id="text305"
           style="font-size:10px;text-anchor:middle;font-family:Ume P Gothic Balsa">Olivier Weber</text>
      </a>
    </g>
    <g
       transform="matrix(0.308142,0,0,0.308142,49.232568,296.4054)"
       id="edge37"
       class="edge">
      <title
         id="title308">Camille Mutel-&gt;Olivier Weber</title>
      <path
         sodipodi:nodetypes="csc"
         d="m 274.811,-422.893 c -28.927,13.314 -134.92856,29.70644 -167.28556,50.07344 -34.313,21.598 -55.998987,55.59334 -77.482287,73.87934"
         id="path310"
         inkscape:connector-curvature="0"
         style="fill:none;stroke:#000000" />
      <polygon
         points="279.365,-424.979 275.548,-421.306 274.091,-424.488 274.091,-424.488 "
         id="polygon312"
         style="fill:#000000;stroke:#000000" />
    </g>
    <g
       transform="matrix(0.308142,0,0,0.308142,31.632569,296.4054)"
       id="node40"
       class="node">
      <title
         id="title315">François Cacic</title>
      <a
         xlink:title="François Cacic"
         id="a317">
        <ellipse
           cx="73.840401"
           cy="-405.694"
           rx="47.092999"
           ry="18"
           id="ellipse319"
           d="m 120.9334,-405.694 c 0,9.94113 -21.084254,18 -47.092999,18 -26.008745,0 -47.092999,-8.05887 -47.092999,-18 0,-9.94113 21.084254,-18 47.092999,-18 26.008745,0 47.092999,8.05887 47.092999,18 z"
           sodipodi:cx="73.840401"
           sodipodi:cy="-405.694"
           sodipodi:rx="47.092999"
           sodipodi:ry="18"
           style="fill:none;stroke:#000000" />
        <text
           x="73.840401"
           y="-402.194"
           font-size="10.00"
           id="text321"
           style="font-size:10px;text-anchor:middle;font-family:Ume P Gothic Balsa">François Cacic</text>
      </a>
    </g>
    <g
       transform="matrix(0.308142,0,0,0.308142,49.232568,296.4054)"
       id="edge39"
       class="edge">
      <title
         id="title324">Camille Mutel-&gt;François Cacic</title>
      <path
         sodipodi:nodetypes="cc"
         d="m 274.54,-435.078 c -43.784,6.41 -166.04992,22.45672 -210.576923,28.97572"
         id="path326"
         inkscape:connector-curvature="0"
         style="fill:none;stroke:#000000" />
      <polygon
         points="279.49,-435.803 274.797,-433.347 274.29,-436.81 274.29,-436.81 "
         id="polygon328"
         style="fill:#000000;stroke:#000000" />
    </g>
    <g
       transform="matrix(0.308142,0,0,0.308142,49.232568,307.6054)"
       id="node42"
       class="node">
      <title
         id="title331">Boris Dambly</title>
      <a
         xlink:title="Boris Dambly"
         id="a333">
        <ellipse
           cx="430.81299"
           cy="-907.63501"
           rx="41.795101"
           ry="18"
           id="ellipse335"
           d="m 472.60809,-907.63501 c 0,9.94113 -18.7123,18 -41.7951,18 -23.0828,0 -41.7951,-8.05887 -41.7951,-18 0,-9.94113 18.7123,-18 41.7951,-18 23.0828,0 41.7951,8.05887 41.7951,18 z"
           sodipodi:cx="430.81299"
           sodipodi:cy="-907.63501"
           sodipodi:rx="41.795101"
           sodipodi:ry="18"
           style="fill:none;stroke:#000000" />
        <text
           x="430.81299"
           y="-904.13501"
           font-size="10.00"
           id="text337"
           style="font-size:10px;text-anchor:middle;font-family:Ume P Gothic Balsa">Boris Dambly</text>
      </a>
    </g>
    <g
       transform="matrix(0.308142,0,0,0.308142,49.232568,296.4054)"
       id="edge41"
       class="edge">
      <title
         id="title340">Claude Schmitz-&gt;Boris Dambly</title>
      <path
         sodipodi:nodetypes="ccc"
         d="m 485.514,-666.578 c -16.374,-25.261 -53.73585,-53.79567 -64.10785,-94.97567 -9.937,-39.456 6.95532,-66.3481 9.36532,-92.0721"
         id="path342"
         inkscape:connector-curvature="0"
         style="fill:none;stroke:#000000" />
      <polygon
         points="488.265,-662.376 484.062,-665.601 486.99,-667.518 486.99,-667.518 "
         id="polygon344"
         style="fill:#000000;stroke:#000000" />
    </g>
    <g
       transform="matrix(0.308142,0,0,0.308142,49.232568,296.4054)"
       id="node44"
       class="node">
      <title
         id="title347">Arnaud Poirier</title>
      <a
         xlink:title="Arnaud Poirier"
         id="a349">
        <ellipse
           cx="480.39301"
           cy="-776.11798"
           rx="44.828899"
           ry="18"
           id="ellipse351"
           d="m 525.2219,-776.11798 c 0,9.94112 -20.07058,18 -44.82889,18 -24.75832,0 -44.8289,-8.05888 -44.8289,-18 0,-9.94113 20.07058,-18 44.8289,-18 24.75831,0 44.82889,8.05887 44.82889,18 z"
           sodipodi:cx="480.39301"
           sodipodi:cy="-776.11798"
           sodipodi:rx="44.828899"
           sodipodi:ry="18"
           style="fill:none;stroke:#000000" />
        <text
           x="480.39301"
           y="-772.61798"
           font-size="10.00"
           id="text353"
           style="font-size:10px;text-anchor:middle;font-family:Ume P Gothic Balsa">Arnaud Poirier</text>
      </a>
    </g>
    <g
       transform="matrix(0.308142,0,0,0.308142,49.232568,296.4054)"
       id="edge43"
       class="edge">
      <title
         id="title356">Claude Schmitz-&gt;Arnaud Poirier</title>
      <path
         d="m 497.245,-667.55 c -4.001,-25.775 -10.362,-66.752 -14.017,-90.301"
         id="path358"
         inkscape:connector-curvature="0"
         style="fill:none;stroke:#000000" />
      <polygon
         points="498.061,-662.293 495.565,-666.965 499.023,-667.502 499.023,-667.502 "
         id="polygon360"
         style="fill:#000000;stroke:#000000" />
    </g>
    <g
       transform="matrix(0.308142,0,0,0.308142,49.232568,296.4054)"
       id="node46"
       class="node">
      <title
         id="title363">Clément Losson</title>
      <a
         xlink:title="Clément Losson"
         id="a365">
        <ellipse
           cx="614.78601"
           cy="-797.85101"
           rx="50.123798"
           ry="18"
           id="ellipse367"
           d="m 664.90981,-797.85101 c 0,9.94112 -22.44119,18 -50.1238,18 -27.68261,0 -50.1238,-8.05888 -50.1238,-18 0,-9.94113 22.44119,-18 50.1238,-18 27.68261,0 50.1238,8.05887 50.1238,18 z"
           sodipodi:cx="614.78601"
           sodipodi:cy="-797.85101"
           sodipodi:rx="50.123798"
           sodipodi:ry="18"
           style="fill:none;stroke:#000000" />
        <text
           x="614.78601"
           y="-794.35101"
           font-size="10.00"
           id="text369"
           style="font-size:10px;text-anchor:middle;font-family:Ume P Gothic Balsa">Clément Losson</text>
      </a>
    </g>
    <g
       transform="matrix(0.308142,0,0,0.308142,49.232568,296.4054)"
       id="edge45"
       class="edge">
      <title
         id="title372">Claude Schmitz-&gt;Clément Losson</title>
      <path
         d="m 517.616,-666.82 c 22.83,-30.785 63.244,-85.282 84.024,-113.304"
         id="path374"
         inkscape:connector-curvature="0"
         style="fill:none;stroke:#000000" />
      <polygon
         points="514.38,-662.456 515.953,-667.515 518.764,-665.43 518.764,-665.43 "
         id="polygon376"
         style="fill:#000000;stroke:#000000" />
    </g>
    <g
       transform="matrix(0.308142,0,0,0.308142,66.832568,307.6054)"
       id="node48"
       class="node">
      <title
         id="title379">Richard Klein</title>
      <a
         xlink:title="Richard Klein"
         id="a381">
        <ellipse
           cx="749.12598"
           cy="-901.75098"
           rx="41.885101"
           ry="18"
           id="ellipse383"
           d="m 791.01108,-901.75098 c 0,9.94113 -18.7526,18 -41.8851,18 -23.13251,0 -41.8851,-8.05887 -41.8851,-18 0,-9.94112 18.75259,-18 41.8851,-18 23.1325,0 41.8851,8.05888 41.8851,18 z"
           sodipodi:cx="749.12598"
           sodipodi:cy="-901.75098"
           sodipodi:rx="41.885101"
           sodipodi:ry="18"
           style="fill:none;stroke:#000000" />
        <text
           x="749.12598"
           y="-898.25098"
           font-size="10.00"
           id="text385"
           style="font-size:10px;text-anchor:middle;font-family:Ume P Gothic Balsa">Richard Klein</text>
      </a>
    </g>
    <g
       transform="matrix(0.308142,0,0,0.308142,49.232568,296.4054)"
       id="edge47"
       class="edge">
      <title
         id="title388">Claude Schmitz-&gt;Richard Klein</title>
      <path
         sodipodi:nodetypes="cc"
         d="m 526.424,-665.829 c 79.44943,-63.68723 220.13624,-103.06977 280.20425,-181.46575"
         id="path390"
         inkscape:connector-curvature="0"
         style="fill:none;stroke:#000000" />
      <polygon
         points="522.472,-662.441 525.129,-667.024 527.407,-664.366 527.407,-664.366 "
         id="polygon392"
         style="fill:#000000;stroke:#000000" />
    </g>
    <g
       transform="matrix(0.308142,0,0,0.308142,49.232568,307.6054)"
       id="node50"
       class="node">
      <title
         id="title395">Romain Lissoir</title>
      <a
         xlink:title="Romain Lissoir"
         id="a397">
        <ellipse
           cx="575.198"
           cy="-906.43799"
           rx="45.915699"
           ry="18"
           id="ellipse399"
           d="m 621.1137,-906.43799 c 0,9.94113 -20.55716,18 -45.9157,18 -25.35854,0 -45.9157,-8.05887 -45.9157,-18 0,-9.94112 20.55716,-18 45.9157,-18 25.35854,0 45.9157,8.05888 45.9157,18 z"
           sodipodi:cx="575.198"
           sodipodi:cy="-906.43799"
           sodipodi:rx="45.915699"
           sodipodi:ry="18"
           style="fill:none;stroke:#000000" />
        <text
           x="575.198"
           y="-902.93799"
           font-size="10.00"
           id="text401"
           style="font-size:10px;text-anchor:middle;font-family:Ume P Gothic Balsa">Romain Lissoir</text>
      </a>
    </g>
    <g
       transform="matrix(0.308142,0,0,0.308142,49.232568,296.4054)"
       id="edge49"
       class="edge">
      <title
         id="title404">Claude Schmitz-&gt;Romain Lissoir</title>
      <path
         sodipodi:nodetypes="cc"
         d="m 507.402,-667.291 c 14.575,-51.412 52.23563,-138.11835 65.40363,-184.56735"
         id="path406"
         inkscape:connector-curvature="0"
         style="fill:none;stroke:#000000" />
      <polygon
         points="505.974,-662.253 505.654,-667.541 509.021,-666.586 509.021,-666.586 "
         id="polygon408"
         style="fill:#000000;stroke:#000000" />
    </g>
    <g
       transform="matrix(0.308142,0,0,0.308142,49.232568,296.4054)"
       id="edge53"
       class="edge">
      <title
         id="title411">Thomas Turine-&gt;Julie Petit-Étienne</title>
      <path
         sodipodi:nodetypes="cc"
         d="m 548.53,-306.422 c 35.032,-13.937 117.80083,-45.49254 150.09983,-58.34254"
         id="path413"
         inkscape:connector-curvature="0"
         style="fill:none;stroke:#000000" />
      <polygon
         points="543.458,-304.404 547.457,-307.878 548.751,-304.626 548.751,-304.626 "
         id="polygon415"
         style="fill:#000000;stroke:#000000" />
    </g>
    <g
       transform="matrix(0.308142,0,0,0.308142,49.232568,283.6054)"
       id="node52"
       class="node">
      <title
         id="title418">Marilyne Grimmer</title>
      <a
         xlink:title="Marilyne Grimmer"
         id="a420">
        <ellipse
           cx="452.35599"
           cy="-25.0613"
           rx="54.157001"
           ry="18"
           id="ellipse422"
           d="m 506.51299,-25.0613 c 0,9.941125 -24.24692,17.9999997 -54.157,17.9999997 -29.91009,0 -54.157,-8.0588747 -54.157,-17.9999997 0,-9.941126 24.24691,-18 54.157,-18 29.91008,0 54.157,8.058874 54.157,18 z"
           sodipodi:cx="452.35599"
           sodipodi:cy="-25.0613"
           sodipodi:rx="54.157001"
           sodipodi:ry="18"
           style="fill:none;stroke:#000000" />
        <text
           x="452.35599"
           y="-21.5613"
           font-size="10.00"
           id="text424"
           style="font-size:10px;text-anchor:middle;font-family:Ume P Gothic Balsa">Marilyne Grimmer</text>
      </a>
    </g>
    <g
       transform="matrix(0.308142,0,0,0.308142,49.232568,296.4054)"
       id="edge51"
       class="edge">
      <title
         id="title427">Thomas Turine-&gt;Marilyne Grimmer</title>
      <path
         sodipodi:nodetypes="csc"
         d="m 507.408,-265.491 c 3.606,24.263 12.34611,67.35087 6.81411,100.76487 -7.88,47.595 -48.36657,53.41627 -62.51757,79.849467"
         id="path429"
         inkscape:connector-curvature="0"
         style="fill:none;stroke:#000000" />
      <polygon
         points="506.647,-270.433 509.138,-265.758 505.679,-265.225 505.679,-265.225 "
         id="polygon431"
         style="fill:#000000;stroke:#000000" />
    </g>
    <g
       transform="matrix(0.308142,0,0,0.308142,49.232568,296.4054)"
       id="node55"
       class="node">
      <title
         id="title434">Roxane Lefèbvre</title>
      <a
         xlink:title="Roxane Lefèbvre"
         id="a436">
        <ellipse
           cx="599.89099"
           cy="-171.27499"
           rx="51.213699"
           ry="18"
           id="ellipse438"
           d="m 651.10469,-171.27499 c 0,9.94112 -22.92915,18 -51.2137,18 -28.28454,0 -51.2137,-8.05888 -51.2137,-18 0,-9.94113 22.92916,-18 51.2137,-18 28.28455,0 51.2137,8.05887 51.2137,18 z"
           sodipodi:cx="599.89099"
           sodipodi:cy="-171.27499"
           sodipodi:rx="51.213699"
           sodipodi:ry="18"
           style="fill:none;stroke:#000000" />
        <text
           x="599.89099"
           y="-167.77499"
           font-size="10.00"
           id="text440"
           style="font-size:10px;text-anchor:middle;font-family:Ume P Gothic Balsa">Roxane Lefèbvre</text>
      </a>
    </g>
    <g
       transform="matrix(0.308142,0,0,0.308142,49.232568,296.4054)"
       id="edge55"
       class="edge">
      <title
         id="title443">Thomas Turine-&gt;Roxane Lefèbvre</title>
      <path
         d="m 521.572,-266.344 c 18.53,22.494 46.877,56.902 63.904,77.571"
         id="path445"
         inkscape:connector-curvature="0"
         style="fill:none;stroke:#000000" />
      <polygon
         points="518.231,-270.399 522.761,-267.653 520.06,-265.427 520.06,-265.427 "
         id="polygon447"
         style="fill:#000000;stroke:#000000" />
    </g>
    <g
       transform="matrix(0.308142,0,0,0.308142,49.232568,296.4054)"
       id="edge57"
       class="edge">
      <title
         id="title459">Thomas Turine-&gt;Philippe Eustachon</title>
      <path
         d="m 477.473,-266.975 c -38.906,32.279 -111.65,92.631 -146.94,121.91"
         id="path461"
         inkscape:connector-curvature="0"
         style="fill:none;stroke:#000000" />
      <polygon
         points="481.588,-270.388 478.858,-265.849 476.623,-268.543 476.623,-268.543 "
         id="polygon463"
         style="fill:#000000;stroke:#000000" />
    </g>
    <g
       transform="matrix(0.308142,0,0,0.308142,49.232568,283.6054)"
       id="node59"
       class="node">
      <title
         id="title466">Nicole Mossoux</title>
      <a
         xlink:title="Nicole Mossoux"
         id="a468">
        <ellipse
           cx="313.58301"
           cy="-19"
           rx="48.859001"
           ry="18"
           id="ellipse470"
           d="m 362.44201,-19 c 0,9.9411255 -21.87492,18 -48.859,18 -26.98408,0 -48.859,-8.0588745 -48.859,-18 0,-9.941125 21.87492,-18 48.859,-18 26.98408,0 48.859,8.058875 48.859,18 z"
           sodipodi:cx="313.58301"
           sodipodi:cy="-19"
           sodipodi:rx="48.859001"
           sodipodi:ry="18"
           style="fill:none;stroke:#000000" />
        <text
           x="313.58301"
           y="-15.5"
           font-size="10.00"
           id="text472"
           style="font-size:10px;text-anchor:middle;font-family:Ume P Gothic Balsa">Nicole Mossoux</text>
      </a>
    </g>
    <g
       transform="matrix(0.308142,0,0,0.308142,49.232568,296.4054)"
       id="edge59"
       class="edge">
      <title
         id="title475">Thomas Turine-&gt;Nicole Mossoux</title>
      <path
         sodipodi:nodetypes="csc"
         d="m 478.356,-266.541 c -66.24919,65.8206 -107.551,81.15649 -101.60619,123.95437 5.20083,37.44189 -23.63851,50.882754 -61.87532,63.855782"
         id="path477"
         inkscape:connector-curvature="0"
         style="fill:none;stroke:#000000" />
      <polygon
         points="482.248,-270.07 479.72,-265.415 477.369,-268.007 477.369,-268.007 "
         id="polygon479"
         style="fill:#000000;stroke:#000000" />
    </g>
    <g
       transform="matrix(0.308142,0,0,0.308142,49.232568,296.4054)"
       id="node61"
       class="node">
      <title
         id="title482">Fabien Dehasseler</title>
      <a
         xlink:title="Fabien Dehasseler"
         id="a484">
        <ellipse
           cx="578.07397"
           cy="-382.42801"
           rx="54.243401"
           ry="18"
           id="ellipse486"
           d="m 632.31738,-382.42801 c 0,9.94113 -24.2856,18 -54.24341,18 -29.9578,0 -54.2434,-8.05887 -54.2434,-18 0,-9.94112 24.2856,-18 54.2434,-18 29.95781,0 54.24341,8.05888 54.24341,18 z"
           sodipodi:cx="578.07397"
           sodipodi:cy="-382.42801"
           sodipodi:rx="54.243401"
           sodipodi:ry="18"
           style="fill:none;stroke:#000000" />
        <text
           x="578.07397"
           y="-378.92801"
           font-size="10.00"
           id="text488"
           style="font-size:10px;text-anchor:middle;font-family:Ume P Gothic Balsa">Fabien Dehasseler</text>
      </a>
    </g>
    <g
       transform="matrix(0.308142,0,0,0.308142,49.232568,296.4054)"
       id="edge61"
       class="edge">
      <title
         id="title491">Thomas Turine-&gt;Fabien Dehasseler</title>
      <path
         d="m 521.017,-310.661 c 13.207,-16.611 31.013,-39.009 43.201,-54.338"
         id="path493"
         inkscape:connector-curvature="0"
         style="fill:none;stroke:#000000" />
      <polygon
         points="517.765,-306.571 519.507,-311.574 522.247,-309.395 522.247,-309.395 "
         id="polygon495"
         style="fill:#000000;stroke:#000000" />
    </g>
    <g
       transform="matrix(0.308142,0,0,0.308142,49.232568,296.4054)"
       id="node63"
       class="node">
      <title
         id="title498">Julie Vermeulen</title>
      <a
         xlink:title="Julie Vermeulen"
         id="a500">
        <ellipse
           cx="364.29001"
           cy="-286.94901"
           rx="50.123798"
           ry="18"
           id="ellipse502"
           d="m 414.41381,-286.94901 c 0,9.94113 -22.44119,18 -50.1238,18 -27.68261,0 -50.1238,-8.05887 -50.1238,-18 0,-9.94112 22.44119,-18 50.1238,-18 27.68261,0 50.1238,8.05888 50.1238,18 z"
           sodipodi:cx="364.29001"
           sodipodi:cy="-286.94901"
           sodipodi:rx="50.123798"
           sodipodi:ry="18"
           style="fill:none;stroke:#000000" />
        <text
           x="364.29001"
           y="-283.44901"
           font-size="10.00"
           id="text504"
           style="font-size:10px;text-anchor:middle;font-family:Ume P Gothic Balsa">Julie Vermeulen</text>
      </a>
    </g>
    <g
       transform="matrix(0.308142,0,0,0.308142,49.232568,296.4054)"
       id="edge63"
       class="edge">
      <title
         id="title507">Thomas Turine-&gt;Julie Vermeulen</title>
      <path
         d="m 458.056,-287.962 c -13.982,0.151 -29.458,0.318 -43.74,0.473"
         id="path509"
         inkscape:connector-curvature="0"
         style="fill:none;stroke:#000000" />
      <polygon
         points="463.135,-288.017 458.154,-286.213 458.116,-289.712 458.116,-289.712 "
         id="polygon511"
         style="fill:#000000;stroke:#000000" />
    </g>
    <g
       transform="matrix(0.308142,0,0,0.308142,49.232568,283.6054)"
       id="node65"
       class="node">
      <title
         id="title514">Barbara Malter Terrada</title>
      <a
         xlink:title="Barbara Malter Terrada"
         id="a516">
        <ellipse
           cx="543.21002"
           cy="-59.851101"
           rx="66.018799"
           ry="18"
           id="ellipse518"
           d="m 609.22882,-59.851101 c 0,9.941126 -29.55762,18 -66.0188,18 -36.46117,0 -66.0188,-8.058874 -66.0188,-18 0,-9.941125 29.55763,-18 66.0188,-18 36.46118,0 66.0188,8.058875 66.0188,18 z"
           sodipodi:cx="543.21002"
           sodipodi:cy="-59.851101"
           sodipodi:rx="66.018799"
           sodipodi:ry="18"
           style="fill:none;stroke:#000000" />
        <text
           x="543.21002"
           y="-56.351101"
           font-size="10.00"
           id="text520"
           style="font-size:10px;text-anchor:middle;font-family:Ume P Gothic Balsa">Barbara Malter Terrada</text>
      </a>
    </g>
    <g
       transform="matrix(0.308142,0,0,0.308142,49.232568,296.4054)"
       id="edge65"
       class="edge">
      <title
         id="title523">Thomas Turine-&gt;Barbara Malter Terrada</title>
      <path
         sodipodi:nodetypes="cc"
         d="m 507.431,-265.096 c 7.966,45.699 29.24587,105.11157 36.40987,146.20867"
         id="path525"
         inkscape:connector-curvature="0"
         style="fill:none;stroke:#000000" />
      <polygon
         points="506.553,-270.13 509.136,-265.505 505.688,-264.904 505.688,-264.904 "
         id="polygon527"
         style="fill:#000000;stroke:#000000" />
    </g>
    <g
       transform="matrix(0.308142,0,0,0.308142,31.632569,283.6054)"
       id="node67"
       class="node">
      <title
         id="title530">Yann Lecollaire</title>
      <a
         xlink:title="Yann Lecollaire"
         id="a532">
        <ellipse
           cx="117.78"
           cy="-21.0574"
           rx="47.772701"
           ry="18"
           id="ellipse534"
           d="m 165.5527,-21.0574 c 0,9.941126 -21.38857,18.0000003 -47.7727,18.0000003 -26.384136,0 -47.772702,-8.0588743 -47.772702,-18.0000003 0,-9.941125 21.388566,-18 47.772702,-18 26.38413,0 47.7727,8.058875 47.7727,18 z"
           sodipodi:cx="117.78"
           sodipodi:cy="-21.0574"
           sodipodi:rx="47.772701"
           sodipodi:ry="18"
           style="fill:none;stroke:#000000" />
        <text
           x="117.78"
           y="-17.5574"
           font-size="10.00"
           id="text536"
           style="font-size:10px;text-anchor:middle;font-family:Ume P Gothic Balsa">Yann Lecollaire</text>
      </a>
    </g>
    <g
       transform="matrix(0.308142,0,0,0.308142,49.232568,296.4054)"
       id="edge67"
       class="edge">
      <title
         id="title539">Thomas Turine-&gt;Yann Lecollaire</title>
      <path
         sodipodi:nodetypes="cc"
         d="M 467.588,-267.801 C 372.58509,-166.00306 197.21346,-147.0833 100.74153,-72.146226"
         id="path541"
         inkscape:connector-curvature="0"
         style="fill:none;stroke:#000000" />
      <polygon
         points="471.98,-270.37 468.547,-266.335 466.781,-269.357 466.781,-269.357 "
         id="polygon543"
         style="fill:#000000;stroke:#000000" />
    </g>
    <g
       transform="matrix(0.308142,0,0,0.308142,49.232568,296.4054)"
       id="node69"
       class="node">
      <title
         id="title546">Natalia Sardi</title>
      <a
         xlink:title="Natalia Sardi"
         id="a548">
        <ellipse
           cx="261.625"
           cy="-244.451"
           rx="40.029099"
           ry="18"
           id="ellipse550"
           d="m 301.6541,-244.451 c 0,9.94112 -17.92164,18 -40.0291,18 -22.10746,0 -40.0291,-8.05888 -40.0291,-18 0,-9.94113 17.92164,-18 40.0291,-18 22.10746,0 40.0291,8.05887 40.0291,18 z"
           sodipodi:cx="261.625"
           sodipodi:cy="-244.451"
           sodipodi:rx="40.029099"
           sodipodi:ry="18"
           style="fill:none;stroke:#000000" />
        <text
           x="261.625"
           y="-240.951"
           font-size="10.00"
           id="text552"
           style="font-size:10px;text-anchor:middle;font-family:Ume P Gothic Balsa">Natalia Sardi</text>
      </a>
    </g>
    <g
       transform="matrix(0.308142,0,0,0.308142,49.232568,296.4054)"
       id="edge69"
       class="edge">
      <title
         id="title555">Thomas Turine-&gt;Natalia Sardi</title>
      <path
         d="m 458.239,-280.238 c -46.03,8.378 -116.612,21.225 -159.506,29.033"
         id="path557"
         inkscape:connector-curvature="0"
         style="fill:none;stroke:#000000" />
      <polygon
         points="463.171,-281.136 458.565,-278.519 457.938,-281.962 457.938,-281.962 "
         id="polygon559"
         style="fill:#000000;stroke:#000000" />
    </g>
    <g
       transform="matrix(0.308142,0,0,0.308142,49.232568,296.4054)"
       id="node71"
       class="node">
      <title
         id="title562">Christophe Lagnaux</title>
      <a
         xlink:title="Christophe Lagnaux"
         id="a564">
        <ellipse
           cx="448.80701"
           cy="-168.375"
           rx="58.866299"
           ry="18"
           id="ellipse566"
           d="m 507.67331,-168.375 c 0,9.94113 -26.35534,18 -58.8663,18 -32.51096,0 -58.8663,-8.05887 -58.8663,-18 0,-9.94113 26.35534,-18 58.8663,-18 32.51096,0 58.8663,8.05887 58.8663,18 z"
           sodipodi:cx="448.80701"
           sodipodi:cy="-168.375"
           sodipodi:rx="58.866299"
           sodipodi:ry="18"
           style="fill:none;stroke:#000000" />
        <text
           x="448.80701"
           y="-164.875"
           font-size="10.00"
           id="text568"
           style="font-size:10px;text-anchor:middle;font-family:Ume P Gothic Balsa">Christophe Lagnaux</text>
      </a>
    </g>
    <g
       transform="matrix(0.308142,0,0,0.308142,49.232568,296.4054)"
       id="edge71"
       class="edge">
      <title
         id="title571">Thomas Turine-&gt;Christophe Lagnaux</title>
      <path
         d="m 492.929,-265.492 c -10.461,23.025 -26.353,58.006 -35.938,79.102"
         id="path573"
         inkscape:connector-curvature="0"
         style="fill:none;stroke:#000000" />
      <polygon
         points="495.074,-270.214 494.599,-264.938 491.413,-266.386 491.413,-266.386 "
         id="polygon575"
         style="fill:#000000;stroke:#000000" />
    </g>
    <g
       transform="matrix(0.308142,0,0,0.308142,31.632569,296.4054)"
       id="node73"
       class="node">
      <title
         id="title578">Marie Bos</title>
      <a
         xlink:title="Marie Bos"
         id="a580">
        <ellipse
           cx="173.295"
           cy="-166.908"
           rx="34.227798"
           ry="18"
           id="ellipse582"
           d="m 207.5228,-166.908 c 0,9.94112 -15.32431,18 -34.2278,18 -18.90349,0 -34.2278,-8.05888 -34.2278,-18 0,-9.94113 15.32431,-18 34.2278,-18 18.90349,0 34.2278,8.05887 34.2278,18 z"
           sodipodi:cx="173.295"
           sodipodi:cy="-166.908"
           sodipodi:rx="34.227798"
           sodipodi:ry="18"
           style="fill:none;stroke:#000000" />
        <text
           x="173.295"
           y="-163.408"
           font-size="10.00"
           id="text584"
           style="font-size:10px;text-anchor:middle;font-family:Ume P Gothic Balsa">Marie Bos</text>
      </a>
    </g>
    <g
       transform="matrix(0.308142,0,0,0.308142,49.232568,296.4054)"
       id="edge73"
       class="edge">
      <title
         id="title587">Odile Vansteenwinckel \n &amp; François Beukelaers-&gt;Marie Bos</title>
      <path
         sodipodi:nodetypes="cc"
         d="m 385.627,-374.498 c -78.19935,68.59632 -190.77223,109.77129 -245.30907,194.77894"
         id="path589"
         inkscape:connector-curvature="0"
         style="fill:none;stroke:#000000" />
      <polygon
         points="390.101,-376.812 386.464,-372.96 384.856,-376.069 384.856,-376.069 "
         id="polygon591"
         style="fill:#000000;stroke:#000000" />
    </g>
    <g
       transform="matrix(0.308142,0,0,0.308142,31.632569,296.4054)"
       id="node75"
       class="node">
      <title
         id="title594">Laurent Caron</title>
      <a
         xlink:title="Laurent Caron"
         id="a596">
        <ellipse
           cx="208.369"
           cy="-356.224"
           rx="45.915699"
           ry="18"
           id="ellipse598"
           d="m 254.2847,-356.224 c 0,9.94113 -20.55716,18 -45.9157,18 -25.35854,0 -45.9157,-8.05887 -45.9157,-18 0,-9.94112 20.55716,-18 45.9157,-18 25.35854,0 45.9157,8.05888 45.9157,18 z"
           sodipodi:cx="208.369"
           sodipodi:cy="-356.224"
           sodipodi:rx="45.915699"
           sodipodi:ry="18"
           style="fill:none;stroke:#000000" />
        <text
           x="208.369"
           y="-352.724"
           font-size="10.00"
           id="text600"
           style="font-size:10px;text-anchor:middle;font-family:Ume P Gothic Balsa">Laurent Caron</text>
      </a>
    </g>
    <g
       transform="matrix(0.308142,0,0,0.308142,49.232568,296.4054)"
       id="edge75"
       class="edge">
      <title
         id="title603">Odile Vansteenwinckel \n &amp; François Beukelaers-&gt;Laurent Caron</title>
      <path
         sodipodi:nodetypes="cc"
         d="m 366.32,-384.019 c -37.066,6.523 -136.20273,20.21513 -169.00073,25.98613"
         id="path605"
         inkscape:connector-curvature="0"
         style="fill:none;stroke:#000000" />
      <polygon
         points="371.256,-384.887 366.635,-382.297 366.028,-385.744 366.028,-385.744 "
         id="polygon607"
         style="fill:#000000;stroke:#000000" />
    </g>
    <g
       transform="matrix(0.308142,0,0,0.308142,31.632569,307.6054)"
       id="node77"
       class="node">
      <title
         id="title610">Laurent Dailleau</title>
      <a
         xlink:title="Laurent Dailleau"
         id="a612">
        <ellipse
           cx="217.02"
           cy="-905.15399"
           rx="50.0364"
           ry="18"
           id="ellipse614"
           d="m 267.0564,-905.15399 c 0,9.94112 -22.40206,18 -50.0364,18 -27.63434,0 -50.0364,-8.05888 -50.0364,-18 0,-9.94113 22.40206,-18 50.0364,-18 27.63434,0 50.0364,8.05887 50.0364,18 z"
           sodipodi:cx="217.02"
           sodipodi:cy="-905.15399"
           sodipodi:rx="50.0364"
           sodipodi:ry="18"
           style="fill:none;stroke:#000000" />
        <text
           x="217.02"
           y="-901.65399"
           font-size="10.00"
           id="text616"
           style="font-size:10px;text-anchor:middle;font-family:Ume P Gothic Balsa">Laurent Dailleau</text>
      </a>
    </g>
    <g
       transform="matrix(0.308142,0,0,0.308142,49.232568,296.4054)"
       id="edge77"
       class="edge">
      <title
         id="title619">Collectif Yes Igor-&gt;Laurent Dailleau</title>
      <path
         sodipodi:nodetypes="cc"
         d="M 340.312,-610.108 C 315.095,-670.454 181.99385,-796.26071 159.36185,-850.42071"
         id="path621"
         inkscape:connector-curvature="0"
         style="fill:none;stroke:#000000" />
      <polygon
         points="342.335,-605.266 338.793,-609.205 342.022,-610.554 342.022,-610.554 "
         id="polygon623"
         style="fill:#000000;stroke:#000000" />
    </g>
    <g
       transform="matrix(0.308142,0,0,0.308142,31.632569,296.4054)"
       id="node79"
       class="node">
      <title
         id="title626">Monsieur Gadou</title>
      <a
         xlink:title="Monsieur Gadou"
         id="a628">
        <ellipse
           cx="57.119301"
           cy="-717.70801"
           rx="50.0364"
           ry="18"
           id="ellipse630"
           d="m 107.1557,-717.70801 c 0,9.94113 -22.402059,18 -50.036399,18 -27.634341,0 -50.0364,-8.05887 -50.0364,-18 0,-9.94112 22.402059,-18 50.0364,-18 27.63434,0 50.036399,8.05888 50.036399,18 z"
           sodipodi:cx="57.119301"
           sodipodi:cy="-717.70801"
           sodipodi:rx="50.0364"
           sodipodi:ry="18"
           style="fill:none;stroke:#000000" />
        <text
           x="57.119301"
           y="-714.20801"
           font-size="10.00"
           id="text632"
           style="font-size:10px;text-anchor:middle;font-family:Ume P Gothic Balsa">Monsieur Gadou</text>
      </a>
    </g>
    <g
       transform="matrix(0.308142,0,0,0.308142,49.232568,296.4054)"
       id="edge79"
       class="edge">
      <title
         id="title635">Collectif Yes Igor-&gt;Monsieur Gadou</title>
      <path
         sodipodi:nodetypes="cc"
         d="M 299.721,-599.781 C 167.73608,-603.7329 69.409852,-630.48389 -4.3782211,-699.27143"
         id="path637"
         inkscape:connector-curvature="0"
         style="fill:none;stroke:#000000" />
      <polygon
         points="304.679,-598.429 299.395,-598.057 300.316,-601.433 300.316,-601.433 "
         id="polygon639"
         style="fill:#000000;stroke:#000000" />
    </g>
    <g
       transform="matrix(0.308142,0,0,0.308142,31.632569,296.4054)"
       id="node81"
       class="node">
      <title
         id="title642">Isabelle Jelen</title>
      <a
         xlink:title="Isabelle Jelen"
         id="a644">
        <ellipse
           cx="90.262299"
           cy="-601.92102"
           rx="43.060398"
           ry="18"
           id="ellipse646"
           d="m 133.3227,-601.92102 c 0,9.94112 -19.2788,18 -43.060401,18 -23.781602,0 -43.060399,-8.05888 -43.060399,-18 0,-9.94113 19.278797,-18 43.060399,-18 23.781601,0 43.060401,8.05887 43.060401,18 z"
           sodipodi:cx="90.262299"
           sodipodi:cy="-601.92102"
           sodipodi:rx="43.060398"
           sodipodi:ry="18"
           style="fill:none;stroke:#000000" />
        <text
           x="90.262299"
           y="-598.42102"
           font-size="10.00"
           id="text648"
           style="font-size:10px;text-anchor:middle;font-family:Ume P Gothic Balsa">Isabelle Jelen</text>
      </a>
    </g>
    <g
       transform="matrix(0.308142,0,0,0.308142,49.232568,296.4054)"
       id="edge81"
       class="edge">
      <title
         id="title651">Collectif Yes Igor-&gt;Isabelle Jelen</title>
      <path
         sodipodi:nodetypes="cc"
         d="m 299.453,-590.11 c -48.337,-2.729 -178.26168,-7.73619 -223.948677,-10.31619"
         id="path653"
         inkscape:connector-curvature="0"
         style="fill:none;stroke:#000000" />
      <polygon
         points="304.64,-589.817 299.549,-588.352 299.746,-591.846 299.746,-591.846 "
         id="polygon655"
         style="fill:#000000;stroke:#000000" />
    </g>
    <g
       transform="matrix(0.308142,0,0,0.308142,31.632569,296.4054)"
       id="node83"
       class="node">
      <title
         id="title658">Pierre Lachaud</title>
      <a
         xlink:title="Pierre Lachaud"
         id="a660">
        <ellipse
           cx="206.92599"
           cy="-768.62903"
           rx="47.092999"
           ry="18"
           id="ellipse662"
           d="m 254.01899,-768.62903 c 0,9.94113 -21.08425,18 -47.093,18 -26.00874,0 -47.09299,-8.05887 -47.09299,-18 0,-9.94112 21.08425,-18 47.09299,-18 26.00875,0 47.093,8.05888 47.093,18 z"
           sodipodi:cx="206.92599"
           sodipodi:cy="-768.62903"
           sodipodi:rx="47.092999"
           sodipodi:ry="18"
           style="fill:none;stroke:#000000" />
        <text
           x="206.92599"
           y="-765.12903"
           font-size="10.00"
           id="text664"
           style="font-size:10px;text-anchor:middle;font-family:Ume P Gothic Balsa">Pierre Lachaud</text>
      </a>
    </g>
    <g
       transform="matrix(0.308142,0,0,0.308142,49.232568,296.4054)"
       id="edge83"
       class="edge">
      <title
         id="title667">Collectif Yes Igor-&gt;Pierre Lachaud</title>
      <path
         sodipodi:nodetypes="cc"
         d="M 332.257,-609.597 C 303.434,-646.17 174.998,-717.41355 148.904,-750.52455"
         id="path669"
         inkscape:connector-curvature="0"
         style="fill:none;stroke:#000000" />
      <polygon
         points="335.63,-605.317 331.161,-608.161 333.91,-610.328 333.91,-610.328 "
         id="polygon671"
         style="fill:#000000;stroke:#000000" />
    </g>
    <g
       transform="matrix(0.308142,0,0,0.308142,31.632569,307.6054)"
       id="node85"
       class="node">
      <title
         id="title674">Bruno Lahontâa</title>
      <a
         xlink:title="Bruno Lahontâa"
         id="a676">
        <ellipse
           cx="62.962399"
           cy="-876.70697"
           rx="48.859001"
           ry="18"
           id="ellipse678"
           d="m 111.8214,-876.70697 c 0,9.94113 -21.87492,18 -48.859001,18 -26.984082,0 -48.859002,-8.05887 -48.859002,-18 0,-9.94113 21.87492,-18 48.859002,-18 26.984081,0 48.859001,8.05887 48.859001,18 z"
           sodipodi:cx="62.962399"
           sodipodi:cy="-876.70697"
           sodipodi:rx="48.859001"
           sodipodi:ry="18"
           style="fill:none;stroke:#000000" />
        <text
           x="62.962399"
           y="-873.20697"
           font-size="10.00"
           id="text680"
           style="font-size:10px;text-anchor:middle;font-family:Ume P Gothic Balsa">Bruno Lahontâa</text>
      </a>
    </g>
    <g
       transform="matrix(0.308142,0,0,0.308142,49.232568,296.4054)"
       id="edge85"
       class="edge">
      <title
         id="title683">Collectif Yes Igor-&gt;Bruno Lahontâa</title>
      <path
         sodipodi:nodetypes="cc"
         d="M 325.454,-608.923 C 243.76281,-693.54877 74.373601,-741.66301 2.612436,-822.26927"
         id="path685"
         inkscape:connector-curvature="0"
         style="fill:none;stroke:#000000" />
      <polygon
         points="329.37,-605.419 324.477,-607.449 326.811,-610.057 326.811,-610.057 "
         id="polygon687"
         style="fill:#000000;stroke:#000000" />
    </g>
    <g
       transform="matrix(0.308142,0,0,0.308142,31.632569,296.4054)"
       id="node87"
       class="node">
      <title
         id="title690">Éric Blosse</title>
      <a
         xlink:title="Éric Blosse"
         id="a692">
        <ellipse
           cx="229.453"
           cy="-647.00897"
           rx="37.1721"
           ry="18"
           id="ellipse694"
           d="m 266.6251,-647.00897 c 0,9.94112 -16.64251,18 -37.1721,18 -20.52958,0 -37.1721,-8.05888 -37.1721,-18 0,-9.94113 16.64252,-18 37.1721,-18 20.52959,0 37.1721,8.05887 37.1721,18 z"
           sodipodi:cx="229.453"
           sodipodi:cy="-647.00897"
           sodipodi:rx="37.1721"
           sodipodi:ry="18"
           style="fill:none;stroke:#000000" />
        <text
           x="229.453"
           y="-643.50897"
           font-size="10.00"
           id="text696"
           style="font-size:10px;text-anchor:middle;font-family:Ume P Gothic Balsa">Éric Blosse</text>
      </a>
    </g>
    <g
       transform="matrix(0.308142,0,0,0.308142,49.232568,296.4054)"
       id="edge87"
       class="edge">
      <title
         id="title699">Collectif Yes Igor-&gt;Éric Blosse</title>
      <path
         sodipodi:nodetypes="cc"
         d="m 308.513,-607.78 c -17.593,-8.729 -84.82526,-26.41304 -100.29826,-34.09104"
         id="path701"
         inkscape:connector-curvature="0"
         style="fill:none;stroke:#000000" />
      <polygon
         points="313.406,-605.352 308.149,-606.007 309.705,-609.142 309.705,-609.142 "
         id="polygon703"
         style="fill:#000000;stroke:#000000" />
    </g>
    <g
       transform="matrix(0.308142,0,0,0.308142,49.232568,307.6054)"
       id="node89"
       class="node">
      <title
         id="title706">Sophie Robin</title>
      <a
         xlink:title="Sophie Robin"
         id="a708">
        <ellipse
           cx="334.70801"
           cy="-848.46399"
           rx="41.795101"
           ry="18"
           id="ellipse710"
           d="m 376.50311,-848.46399 c 0,9.94113 -18.71231,18 -41.7951,18 -23.0828,0 -41.7951,-8.05887 -41.7951,-18 0,-9.94112 18.7123,-18 41.7951,-18 23.08279,0 41.7951,8.05888 41.7951,18 z"
           sodipodi:cx="334.70801"
           sodipodi:cy="-848.46399"
           sodipodi:rx="41.795101"
           sodipodi:ry="18"
           style="fill:none;stroke:#000000" />
        <text
           x="334.70801"
           y="-844.96399"
           font-size="10.00"
           id="text712"
           style="font-size:10px;text-anchor:middle;font-family:Ume P Gothic Balsa">Sophie Robin</text>
      </a>
    </g>
    <g
       transform="matrix(0.308142,0,0,0.308142,49.232568,296.4054)"
       id="edge89"
       class="edge">
      <title
         id="title715">Collectif Yes Igor-&gt;Sophie Robin</title>
      <path
         sodipodi:nodetypes="cc"
         d="m 337.057,-610.187 c -42.12939,-84.0121 -78.27289,-113.58916 -3.99965,-183.95534"
         id="path717"
         inkscape:connector-curvature="0"
         style="fill:none;stroke:#000000" />
      <polygon
         points="339.487,-605.531 335.622,-609.154 338.725,-610.773 338.725,-610.773 "
         id="polygon719"
         style="fill:#000000;stroke:#000000" />
    </g>
    <g
       transform="matrix(0.308142,0,0,0.308142,49.232568,296.4054)"
       id="node91"
       class="node">
      <title
         id="title722">Jérôme Cazamayou</title>
      <a
         xlink:title="Jérôme Cazamayou"
         id="a724">
        <ellipse
           cx="364.16501"
           cy="-711.85602"
           rx="57.779499"
           ry="18"
           id="ellipse726"
           d="m 421.94451,-711.85602 c 0,9.94113 -25.86877,18 -57.7795,18 -31.91074,0 -57.7795,-8.05887 -57.7795,-18 0,-9.94112 25.86876,-18 57.7795,-18 31.91073,0 57.7795,8.05888 57.7795,18 z"
           sodipodi:cx="364.16501"
           sodipodi:cy="-711.85602"
           sodipodi:rx="57.779499"
           sodipodi:ry="18"
           style="fill:none;stroke:#000000" />
        <text
           x="364.16501"
           y="-708.35602"
           font-size="10.00"
           id="text728"
           style="font-size:10px;text-anchor:middle;font-family:Ume P Gothic Balsa">Jérôme Cazamayou</text>
      </a>
    </g>
    <g
       transform="matrix(0.308142,0,0,0.308142,49.232568,296.4054)"
       id="edge91"
       class="edge">
      <title
         id="title731">Collectif Yes Igor-&gt;Jérôme Cazamayou</title>
      <path
         d="m 352.539,-610.611 c 2.765,-24.083 7.02,-61.136 9.543,-83.107"
         id="path733"
         inkscape:connector-curvature="0"
         style="fill:none;stroke:#000000" />
      <polygon
         points="351.938,-605.381 350.77,-610.548 354.247,-610.149 354.247,-610.149 "
         id="polygon735"
         style="fill:#000000;stroke:#000000" />
    </g>
    <g
       transform="matrix(0.308142,0,0,0.308142,31.632569,296.4054)"
       id="node93"
       class="node">
      <title
         id="title738">Plataforma</title>
      <a
         xlink:title="Plataforma"
         id="a740">
        <ellipse
           cx="212.12601"
           cy="-511.98099"
           rx="35.997101"
           ry="18"
           id="ellipse742"
           d="m 248.12311,-511.98099 c 0,9.94113 -16.11645,18 -35.9971,18 -19.88065,0 -35.9971,-8.05887 -35.9971,-18 0,-9.94112 16.11645,-18 35.9971,-18 19.88065,0 35.9971,8.05888 35.9971,18 z"
           sodipodi:cx="212.12601"
           sodipodi:cy="-511.98099"
           sodipodi:rx="35.997101"
           sodipodi:ry="18"
           style="fill:none;stroke:#000000" />
        <text
           x="212.12601"
           y="-508.48099"
           font-size="10.00"
           id="text744"
           style="font-size:10px;text-anchor:middle;font-family:Ume P Gothic Balsa">Plataforma</text>
      </a>
    </g>
    <g
       transform="matrix(0.308142,0,0,0.308142,49.232568,296.4054)"
       id="edge93"
       class="edge">
      <title
         id="title747">Collectif Yes Igor-&gt;Plataforma</title>
      <path
         sodipodi:nodetypes="cc"
         d="m 312.447,-566.816 c -24.103,13.175 -100.84682,38.30869 -121.88882,49.80969"
         id="path749"
         inkscape:connector-curvature="0"
         style="fill:none;stroke:#000000" />
      <polygon
         points="316.868,-569.232 313.32,-565.298 311.641,-568.37 311.641,-568.37 "
         id="polygon751"
         style="fill:#000000;stroke:#000000" />
    </g>
    <g
       transform="matrix(0.308142,0,0,0.308142,66.832568,296.4054)"
       id="edge117"
       class="edge">
      <title
         id="title754">Stéphane Arcas-&gt;Julie Petit-Étienne</title>
      <path
         d="m 674.589,-459.604 c 5.836,22.134 14.486,54.942 19.817,75.163"
         id="path756"
         inkscape:connector-curvature="0"
         style="fill:none;stroke:#000000" />
      <polygon
         points="672.826,-459.429 672.826,-459.429 673.243,-464.71 676.21,-460.322 "
         id="polygon758"
         style="fill:#000000;stroke:#000000" />
    </g>
    <g
       transform="matrix(0.308142,0,0,0.308142,49.232568,296.4054)"
       id="edge103"
       class="edge">
      <title
         id="title761">Stéphane Arcas-&gt;Fabien Dehasseler</title>
      <path
         sodipodi:nodetypes="cc"
         d="m 684.1245,-464.07847 c -16.507,18.356 -75.3855,47.54847 -90.4865,64.34247"
         id="path763"
         inkscape:connector-curvature="0"
         style="fill:none;stroke:#000000" />
      <polygon
         transform="translate(32.800592,0)"
         points="649.824,-459.604 647.222,-461.944 647.222,-461.944 651.866,-464.492 "
         id="polygon765"
         style="fill:#000000;stroke:#000000" />
    </g>
    <g
       transform="matrix(0.308142,0,0,0.308142,82.832568,296.4054)"
       id="node95"
       class="node">
      <title
         id="title768">Valérie Solanas</title>
      <a
         xlink:title="Valérie Solanas"
         id="a770">
        <ellipse
           cx="933.508"
           cy="-420.078"
           rx="47.179798"
           ry="18"
           id="ellipse772"
           d="m 980.68779,-420.078 c 0,9.94112 -21.12311,18 -47.17979,18 -26.05669,0 -47.1798,-8.05888 -47.1798,-18 0,-9.94113 21.12311,-18 47.1798,-18 26.05668,0 47.17979,8.05887 47.17979,18 z"
           sodipodi:cx="933.508"
           sodipodi:cy="-420.078"
           sodipodi:rx="47.179798"
           sodipodi:ry="18"
           style="fill:none;stroke:#000000" />
        <text
           x="933.508"
           y="-416.578"
           font-size="10.00"
           id="text774"
           style="font-size:10px;text-anchor:middle;font-family:Ume P Gothic Balsa">Valérie Solanas</text>
      </a>
    </g>
    <g
       transform="matrix(0.308142,0,0,0.308142,66.832568,296.4054)"
       id="edge95"
       class="edge">
      <title
         id="title777">Stéphane Arcas-&gt;Valérie Solanas</title>
      <path
         sodipodi:nodetypes="csc"
         d="m 712.372,-462.859 c 13.048,5.348 27.516,10.693 41.202,14.507 44.778,12.479 148.2639,24.47827 185.0089,28.57727"
         id="path779"
         inkscape:connector-curvature="0"
         style="fill:none;stroke:#000000" />
      <polygon
         points="711.579,-461.293 711.579,-461.293 707.633,-464.827 712.922,-464.526 "
         id="polygon781"
         style="fill:#000000;stroke:#000000" />
    </g>
    <g
       transform="matrix(0.308142,0,0,0.308142,82.832568,296.4054)"
       id="node97"
       class="node">
      <title
         id="title784">Cécile Chèvre</title>
      <a
         xlink:title="Cécile Chèvre"
         id="a786">
        <ellipse
           cx="964.99402"
           cy="-305.66"
           rx="44.828899"
           ry="18"
           id="ellipse788"
           d="m 1009.8229,-305.66 c 0,9.94112 -20.07056,18 -44.82888,18 -24.75832,0 -44.8289,-8.05888 -44.8289,-18 0,-9.94113 20.07058,-18 44.8289,-18 24.75832,0 44.82888,8.05887 44.82888,18 z"
           sodipodi:cx="964.99402"
           sodipodi:cy="-305.66"
           sodipodi:rx="44.828899"
           sodipodi:ry="18"
           style="fill:none;stroke:#000000" />
        <text
           x="964.99402"
           y="-302.16"
           font-size="10.00"
           id="text790"
           style="font-size:10px;text-anchor:middle;font-family:Ume P Gothic Balsa">Cécile Chèvre</text>
      </a>
    </g>
    <g
       transform="matrix(0.308142,0,0,0.308142,66.832568,296.4054)"
       id="edge97"
       class="edge">
      <title
         id="title793">Stéphane Arcas-&gt;Cécile Chèvre</title>
      <path
         sodipodi:nodetypes="cc"
         d="m 706.447,-462.28 c 87.57125,62.73482 187.34133,86.68364 277.39828,144.34196"
         id="path795"
         inkscape:connector-curvature="0"
         style="fill:none;stroke:#000000" />
      <polygon
         points="705.42,-460.847 705.42,-460.847 701.876,-464.784 707.102,-463.916 "
         id="polygon797"
         style="fill:#000000;stroke:#000000" />
    </g>
    <g
       transform="matrix(0.308142,0,0,0.308142,82.832568,296.4054)"
       id="node99"
       class="node">
      <title
         id="title800">Rodolphe Coster</title>
      <a
         xlink:title="Rodolphe Coster"
         id="a802">
        <ellipse
           cx="867.10101"
           cy="-551.89697"
           rx="51.213699"
           ry="18"
           id="ellipse804"
           d="m 918.31471,-551.89697 c 0,9.94112 -22.92915,18 -51.2137,18 -28.28454,0 -51.2137,-8.05888 -51.2137,-18 0,-9.94113 22.92916,-18 51.2137,-18 28.28455,0 51.2137,8.05887 51.2137,18 z"
           sodipodi:cx="867.10101"
           sodipodi:cy="-551.89697"
           sodipodi:rx="51.213699"
           sodipodi:ry="18"
           style="fill:none;stroke:#000000" />
        <text
           x="867.10101"
           y="-548.39697"
           font-size="10.00"
           id="text806"
           style="font-size:10px;text-anchor:middle;font-family:Ume P Gothic Balsa">Rodolphe Coster</text>
      </a>
    </g>
    <g
       transform="matrix(0.308142,0,0,0.308142,66.832568,296.4054)"
       id="edge99"
       class="edge">
      <title
         id="title809">Stéphane Arcas-&gt;Rodolphe Coster</title>
      <path
         sodipodi:nodetypes="cc"
         d="m 714.72,-498.992 c 35.328,-12.266 121.78882,-36.96776 154.40982,-48.29376"
         id="path811"
         inkscape:connector-curvature="0"
         style="fill:none;stroke:#000000" />
      <polygon
         points="714.901,-497.202 714.901,-497.202 709.603,-497.216 713.753,-500.509 "
         id="polygon813"
         style="fill:#000000;stroke:#000000" />
    </g>
    <g
       transform="matrix(0.308142,0,0,0.308142,82.832568,296.4054)"
       id="node101"
       class="node">
      <title
         id="title816">Ugo Dehaes</title>
      <a
         xlink:title="Ugo Dehaes"
         id="a818">
        <ellipse
           cx="983.69299"
           cy="-510.987"
           rx="38.851799"
           ry="18"
           id="ellipse820"
           d="m 1022.5448,-510.987 c 0,9.94113 -17.3946,18 -38.85181,18 -21.45725,0 -38.8518,-8.05887 -38.8518,-18 0,-9.94113 17.39455,-18 38.8518,-18 21.45721,0 38.85181,8.05887 38.85181,18 z"
           sodipodi:cx="983.69299"
           sodipodi:cy="-510.987"
           sodipodi:rx="38.851799"
           sodipodi:ry="18"
           style="fill:none;stroke:#000000" />
        <text
           x="983.69299"
           y="-507.487"
           font-size="10.00"
           id="text822"
           style="font-size:10px;text-anchor:middle;font-family:Ume P Gothic Balsa">Ugo Dehaes</text>
      </a>
    </g>
    <g
       transform="matrix(0.308142,0,0,0.308142,66.832568,296.4054)"
       id="edge101"
       class="edge">
      <title
         id="title825">Stéphane Arcas-&gt;Ugo Dehaes</title>
      <path
         sodipodi:nodetypes="cc"
         d="m 714.796,-487.051 c 62.318,-5.547 224.13355,-17.63697 282.29355,-22.81497"
         id="path827"
         inkscape:connector-curvature="0"
         style="fill:none;stroke:#000000" />
      <polygon
         points="714.79,-485.293 714.79,-485.293 709.655,-486.593 714.48,-488.779 "
         id="polygon829"
         style="fill:#000000;stroke:#000000" />
    </g>
    <g
       transform="matrix(0.308142,0,0,0.308142,49.232568,296.4054)"
       id="node104"
       class="node">
      <title
         id="title832">François De Jonge</title>
      <a
         xlink:title="François De Jonge"
         id="a834">
        <ellipse
           cx="609.30103"
           cy="-576.435"
           rx="55.923"
           ry="18"
           id="ellipse836"
           d="m 665.22403,-576.435 c 0,9.94113 -25.03758,18 -55.923,18 -30.88542,0 -55.923,-8.05887 -55.923,-18 0,-9.94112 25.03758,-18 55.923,-18 30.88542,0 55.923,8.05888 55.923,18 z"
           sodipodi:cx="609.30103"
           sodipodi:cy="-576.435"
           sodipodi:rx="55.923"
           sodipodi:ry="18"
           style="fill:none;stroke:#000000" />
        <text
           x="609.30103"
           y="-572.935"
           font-size="10.00"
           id="text838"
           style="font-size:10px;text-anchor:middle;font-family:Ume P Gothic Balsa">François De Jonge</text>
      </a>
    </g>
    <g
       transform="matrix(0.308142,0,0,0.308142,66.832568,296.4054)"
       id="edge105"
       class="edge">
      <title
         id="title841">Stéphane Arcas-&gt;François De Jonge</title>
      <path
         sodipodi:nodetypes="cc"
         d="m 654.216,-505.416 c -10.355,-16.374 -90.02796,-38.239 -99.59296,-53.362"
         id="path843"
         inkscape:connector-curvature="0"
         style="fill:none;stroke:#000000" />
      <polygon
         points="655.845,-506.115 655.845,-506.115 657.038,-500.954 652.887,-504.244 "
         id="polygon845"
         style="fill:#000000;stroke:#000000" />
    </g>
    <g
       transform="matrix(0.308142,0,0,0.308142,82.832568,296.4054)"
       id="node106"
       class="node">
      <title
         id="title848">Paulo Guerreiro</title>
      <a
         xlink:title="Paulo Guerreiro"
         id="a850">
        <ellipse
           cx="962.44098"
           cy="-636.323"
           rx="48.9482"
           ry="18"
           id="ellipse852"
           d="m 1011.3892,-636.323 c 0,9.94113 -21.91488,18 -48.94822,18 -27.03335,0 -48.9482,-8.05887 -48.9482,-18 0,-9.94112 21.91485,-18 48.9482,-18 27.03334,0 48.94822,8.05888 48.94822,18 z"
           sodipodi:cx="962.44098"
           sodipodi:cy="-636.323"
           sodipodi:rx="48.9482"
           sodipodi:ry="18"
           style="fill:none;stroke:#000000" />
        <text
           x="962.44098"
           y="-632.823"
           font-size="10.00"
           id="text854"
           style="font-size:10px;text-anchor:middle;font-family:Ume P Gothic Balsa">Paulo Guerreiro</text>
      </a>
    </g>
    <g
       transform="matrix(0.308142,0,0,0.308142,66.832568,296.4054)"
       id="edge107"
       class="edge">
      <title
         id="title857">Stéphane Arcas-&gt;Paulo Guerreiro</title>
      <path
         sodipodi:nodetypes="cc"
         d="m 707.618,-503.366 c 60.114,-31.365 205.6138,-102.14187 258.4258,-129.69687"
         id="path859"
         inkscape:connector-curvature="0"
         style="fill:none;stroke:#000000" />
      <polygon
         points="708.273,-501.734 708.273,-501.734 703.031,-500.972 706.654,-504.837 "
         id="polygon861"
         style="fill:#000000;stroke:#000000" />
    </g>
    <g
       transform="matrix(0.308142,0,0,0.308142,82.832568,307.6054)"
       id="node108"
       class="node">
      <title
         id="title864">Mathieu Hasseler</title>
      <a
         xlink:title="Mathieu Hasseler"
         id="a866">
        <ellipse
           cx="935.388"
           cy="-890.01398"
           rx="51.891998"
           ry="18"
           id="ellipse868"
           d="m 987.28,-890.01398 c 0,9.94113 -23.23284,18 -51.892,18 -28.65916,0 -51.892,-8.05887 -51.892,-18 0,-9.94112 23.23284,-18 51.892,-18 28.65916,0 51.892,8.05888 51.892,18 z"
           sodipodi:cx="935.388"
           sodipodi:cy="-890.01398"
           sodipodi:rx="51.891998"
           sodipodi:ry="18"
           style="fill:none;stroke:#000000" />
        <text
           x="935.388"
           y="-886.51398"
           font-size="10.00"
           id="text870"
           style="font-size:10px;text-anchor:middle;font-family:Ume P Gothic Balsa">Mathieu Hasseler</text>
      </a>
    </g>
    <g
       transform="matrix(0.308142,0,0,0.308142,66.832568,296.4054)"
       id="edge109"
       class="edge">
      <title
         id="title873">Stéphane Arcas-&gt;Mathieu Hasseler</title>
      <path
         sodipodi:nodetypes="csc"
         d="m 674.957,-506.237 c 5.668,-19.036 17.78294,-45.20741 25.216,-69.236 45.50877,-147.11455 197.19852,-225.35694 240.60452,-270.01694"
         id="path875"
         inkscape:connector-curvature="0"
         style="fill:none;stroke:#000000" />
      <polygon
         points="676.536,-505.403 676.536,-505.403 673.447,-501.1 673.178,-506.39 "
         id="polygon877"
         style="fill:#000000;stroke:#000000" />
    </g>
    <g
       transform="matrix(0.308142,0,0,0.308142,66.832568,296.4054)"
       id="node110"
       class="node">
      <title
         id="title880">Julien Jaillot</title>
      <a
         xlink:title="Julien Jaillot"
         id="a882">
        <ellipse
           cx="801.33899"
           cy="-671.83099"
           rx="41.795101"
           ry="18"
           id="ellipse884"
           d="m 843.13409,-671.83099 c 0,9.94112 -18.7123,18 -41.7951,18 -23.0828,0 -41.7951,-8.05888 -41.7951,-18 0,-9.94113 18.7123,-18 41.7951,-18 23.0828,0 41.7951,8.05887 41.7951,18 z"
           sodipodi:cx="801.33899"
           sodipodi:cy="-671.83099"
           sodipodi:rx="41.795101"
           sodipodi:ry="18"
           style="fill:none;stroke:#000000" />
        <text
           x="801.33899"
           y="-668.33099"
           font-size="10.00"
           id="text886"
           style="font-size:10px;text-anchor:middle;font-family:Ume P Gothic Balsa">Julien Jaillot</text>
      </a>
    </g>
    <g
       transform="matrix(0.308142,0,0,0.308142,66.832568,296.4054)"
       id="edge111"
       class="edge">
      <title
         id="title889">Stéphane Arcas-&gt;Julien Jaillot</title>
      <path
         d="m 673.713,-506.483 c 4.984,-19.406 13.628,-47.177 26.46,-68.99 20.047,-34.077 55.579,-63.823 78.75,-80.939"
         id="path891"
         inkscape:connector-curvature="0"
         style="fill:none;stroke:#000000" />
      <polygon
         points="675.313,-505.67 675.313,-505.67 672.403,-501.244 671.918,-506.519 "
         id="polygon893"
         style="fill:#000000;stroke:#000000" />
    </g>
    <g
       transform="matrix(0.308142,0,0,0.308142,82.832568,296.4054)"
       id="node112"
       class="node">
      <title
         id="title896">Nicolas Luçon</title>
      <a
         xlink:title="Nicolas Luçon"
         id="a898">
        <ellipse
           cx="940.15601"
           cy="-755.01398"
           rx="44.235699"
           ry="18"
           id="ellipse900"
           d="m 984.3917,-755.01398 c 0,9.94113 -19.80499,18 -44.23569,18 -24.43071,0 -44.2357,-8.05887 -44.2357,-18 0,-9.94112 19.80499,-18 44.2357,-18 24.4307,0 44.23569,8.05888 44.23569,18 z"
           sodipodi:cx="940.15601"
           sodipodi:cy="-755.01398"
           sodipodi:rx="44.235699"
           sodipodi:ry="18"
           style="fill:none;stroke:#000000" />
        <text
           x="940.15601"
           y="-751.51398"
           font-size="10.00"
           id="text902"
           style="font-size:10px;text-anchor:middle;font-family:Ume P Gothic Balsa">Nicolas Luçon</text>
      </a>
    </g>
    <g
       transform="matrix(0.308142,0,0,0.308142,66.832568,296.4054)"
       id="edge113"
       class="edge">
      <title
         id="title905">Stéphane Arcas-&gt;Nicolas Luçon</title>
      <path
         sodipodi:nodetypes="csc"
         d="m 700.097,-503.927 c 21.862,-15.089 51.136,-36.48 74.749,-57.954 63.836,-58.052 155.55178,-146.6575 181.64278,-182.1825"
         id="path907"
         inkscape:connector-curvature="0"
         style="fill:none;stroke:#000000" />
      <polygon
         points="700.94,-502.383 700.94,-502.383 695.827,-500.995 698.958,-505.268 "
         id="polygon909"
         style="fill:#000000;stroke:#000000" />
    </g>
    <g
       transform="matrix(0.308142,0,0,0.308142,66.832568,296.4054)"
       id="node114"
       class="node">
      <title
         id="title912">Guylène Olivares</title>
      <a
         xlink:title="Guylène Olivares"
         id="a914">
        <ellipse
           cx="819.53198"
           cy="-361.961"
           rx="51.802299"
           ry="18"
           id="ellipse916"
           d="m 871.33428,-361.961 c 0,9.94113 -23.19268,18 -51.8023,18 -28.60962,0 -51.8023,-8.05887 -51.8023,-18 0,-9.94112 23.19268,-18 51.8023,-18 28.60962,0 51.8023,8.05888 51.8023,18 z"
           sodipodi:cx="819.53198"
           sodipodi:cy="-361.961"
           sodipodi:rx="51.802299"
           sodipodi:ry="18"
           style="fill:none;stroke:#000000" />
        <text
           x="819.53198"
           y="-358.461"
           font-size="10.00"
           id="text918"
           style="font-size:10px;text-anchor:middle;font-family:Ume P Gothic Balsa">Guylène Olivares</text>
      </a>
    </g>
    <g
       transform="matrix(0.308142,0,0,0.308142,66.832568,296.4054)"
       id="edge115"
       class="edge">
      <title
         id="title921">Stéphane Arcas-&gt;Guylène Olivares</title>
      <path
         d="m 695.294,-461.426 c 29.573,23.676 76.492,61.239 103.412,82.791"
         id="path923"
         inkscape:connector-curvature="0"
         style="fill:none;stroke:#000000" />
      <polygon
         points="693.87,-460.324 693.87,-460.324 691.061,-464.815 696.058,-463.056 "
         id="polygon925"
         style="fill:#000000;stroke:#000000" />
    </g>
    <g
       transform="matrix(0.308142,0,0,0.308142,66.832568,296.4054)"
       id="node117"
       class="node">
      <title
         id="title928">Antoine Pickels</title>
      <a
         xlink:title="Antoine Pickels"
         id="a930">
        <ellipse
           cx="789.24902"
           cy="-462.25101"
           rx="48.859001"
           ry="18"
           id="ellipse932"
           d="m 838.10802,-462.25101 c 0,9.94113 -21.87492,18 -48.859,18 -26.98408,0 -48.859,-8.05887 -48.859,-18 0,-9.94112 21.87492,-18 48.859,-18 26.98408,0 48.859,8.05888 48.859,18 z"
           sodipodi:cx="789.24902"
           sodipodi:cy="-462.25101"
           sodipodi:rx="48.859001"
           sodipodi:ry="18"
           style="fill:none;stroke:#000000" />
        <text
           x="789.24902"
           y="-458.75101"
           font-size="10.00"
           id="text934"
           style="font-size:10px;text-anchor:middle;font-family:Ume P Gothic Balsa">Antoine Pickels</text>
      </a>
    </g>
    <g
       transform="matrix(0.308142,0,0,0.308142,66.832568,296.4054)"
       id="edge119"
       class="edge">
      <title
         id="title937">Stéphane Arcas-&gt;Antoine Pickels</title>
      <path
         d="m 714.73,-475.003 c 9.761,1.67 20.043,3.43 29.747,5.09"
         id="path939"
         inkscape:connector-curvature="0"
         style="fill:none;stroke:#000000" />
      <polygon
         points="714.312,-473.299 714.312,-473.299 709.678,-475.868 714.902,-476.749 "
         id="polygon941"
         style="fill:#000000;stroke:#000000" />
    </g>
    <g
       transform="matrix(0.308142,0,0,0.308142,66.832568,296.4054)"
       id="node119"
       class="node">
      <title
         id="title944">Denis Laujol</title>
      <a
         xlink:title="Denis Laujol"
         id="a946">
        <ellipse
           cx="765.71301"
           cy="-780.125"
           rx="40.029099"
           ry="18"
           id="ellipse948"
           d="m 805.74211,-780.125 c 0,9.94113 -17.92164,18 -40.0291,18 -22.10746,0 -40.0291,-8.05887 -40.0291,-18 0,-9.94113 17.92164,-18 40.0291,-18 22.10746,0 40.0291,8.05887 40.0291,18 z"
           sodipodi:cx="765.71301"
           sodipodi:cy="-780.125"
           sodipodi:rx="40.029099"
           sodipodi:ry="18"
           style="fill:none;stroke:#000000" />
        <text
           x="765.71301"
           y="-776.625"
           font-size="10.00"
           id="text950"
           style="font-size:10px;text-anchor:middle;font-family:Ume P Gothic Balsa">Denis Laujol</text>
      </a>
    </g>
    <g
       transform="matrix(0.308142,0,0,0.308142,66.832568,296.4054)"
       id="edge121"
       class="edge">
      <title
         id="title953">Stéphane Arcas-&gt;Denis Laujol</title>
      <path
         d="m 675.993,-506 c 18.739,-57.252 67.059,-204.889 83.859,-256.219"
         id="path955"
         inkscape:connector-curvature="0"
         style="fill:none;stroke:#000000" />
      <polygon
         points="677.598,-505.276 677.598,-505.276 674.379,-501.068 674.271,-506.364 "
         id="polygon957"
         style="fill:#000000;stroke:#000000" />
    </g>
    <g
       transform="matrix(0.308142,0,0,0.308142,66.832568,296.4054)"
       id="node121"
       class="node">
      <title
         id="title960">Benoît Piret</title>
      <a
         xlink:title="Benoît Piret"
         id="a962">
        <ellipse
           cx="743.771"
           cy="-575.62903"
           rx="41.795101"
           ry="18"
           id="ellipse964"
           d="m 785.5661,-575.62903 c 0,9.94113 -18.71231,18 -41.7951,18 -23.0828,0 -41.79511,-8.05887 -41.79511,-18 0,-9.94112 18.71231,-18 41.79511,-18 23.08279,0 41.7951,8.05888 41.7951,18 z"
           sodipodi:cx="743.771"
           sodipodi:cy="-575.62903"
           sodipodi:rx="41.795101"
           sodipodi:ry="18"
           style="fill:none;stroke:#000000" />
        <text
           x="743.771"
           y="-572.12903"
           font-size="10.00"
           id="text966"
           style="font-size:10px;text-anchor:middle;font-family:Ume P Gothic Balsa">Benoît Piret</text>
      </a>
    </g>
    <g
       transform="matrix(0.308142,0,0,0.308142,66.832568,296.4054)"
       id="edge123"
       class="edge">
      <title
         id="title969">Stéphane Arcas-&gt;Benoît Piret</title>
      <path
         d="m 686.609,-505.282 c 13.325,-16.399 31.147,-38.331 43.326,-53.32"
         id="path971"
         inkscape:connector-curvature="0"
         style="fill:none;stroke:#000000" />
      <polygon
         points="687.835,-504.017 687.835,-504.017 683.324,-501.24 685.119,-506.224 "
         id="polygon973"
         style="fill:#000000;stroke:#000000" />
    </g>
    <g
       transform="matrix(0.308142,0,0,0.308142,49.232568,296.4054)"
       id="node123"
       class="node">
      <title
         id="title976">Philippe Sangdor</title>
      <a
         xlink:title="Philippe Sangdor"
         id="a978">
        <ellipse
           cx="642.54901"
           cy="-683.81"
           rx="50.123798"
           ry="18"
           id="ellipse980"
           d="m 692.67281,-683.81 c 0,9.94113 -22.44119,18 -50.1238,18 -27.68261,0 -50.1238,-8.05887 -50.1238,-18 0,-9.94112 22.44119,-18 50.1238,-18 27.68261,0 50.1238,8.05888 50.1238,18 z"
           sodipodi:cx="642.54901"
           sodipodi:cy="-683.81"
           sodipodi:rx="50.123798"
           sodipodi:ry="18"
           style="fill:none;stroke:#000000" />
        <text
           x="642.54901"
           y="-680.31"
           font-size="10.00"
           id="text982"
           style="font-size:10px;text-anchor:middle;font-family:Ume P Gothic Balsa">Philippe Sangdor</text>
      </a>
    </g>
    <g
       transform="matrix(0.308142,0,0,0.308142,66.832568,296.4054)"
       id="edge125"
       class="edge">
      <title
         id="title985">Stéphane Arcas-&gt;Philippe Sangdor</title>
      <path
         sodipodi:nodetypes="cc"
         d="m 669.385,-506.073 c 28.79683,-84.00998 -65.23266,-104.9593 -86.07006,-159.06255"
         id="path987"
         inkscape:connector-curvature="0"
         style="fill:none;stroke:#000000" />
      <polygon
         points="671.131,-505.9 671.131,-505.9 669.244,-500.95 667.632,-505.996 "
         id="polygon989"
         style="fill:#000000;stroke:#000000" />
    </g>
    <g
       style="fill:#ffffff"
       transform="matrix(0.308142,0,0,0.308142,49.338594,296.4054)"
       id="node57"
       class="node">
      <title
         id="title450">Philippe Eustachon</title>
      <a
         style="fill:#ffffff"
         xlink:title="Philippe Eustachon"
         id="a452">
        <ellipse
           cx="310.298"
           cy="-128.27699"
           rx="56.011501"
           ry="18"
           id="ellipse454"
           d="m 366.30951,-128.27699 c 0,9.94112 -25.07721,18 -56.01151,18 -30.93429,0 -56.0115,-8.05888 -56.0115,-18 0,-9.94113 25.07721,-18 56.0115,-18 30.9343,0 56.01151,8.05887 56.01151,18 z"
           sodipodi:cx="310.298"
           sodipodi:cy="-128.27699"
           sodipodi:rx="56.011501"
           sodipodi:ry="18"
           style="fill:#ffffff;stroke:#000000" />
        <text
           x="310.298"
           y="-124.777"
           font-size="10.00"
           id="text456"
           style="font-size:10px;text-anchor:middle;fill:#000000;font-family:Ume P Gothic Balsa">Philippe Eustachon</text>
      </a>
    </g>
  </g>
</svg>
