2011-05-10 12:04:31 +0200

Alexandre Leray

Créé le dépôt 

2011-05-10 14:09:41 +0200

Alexandre Leray

Commencé le page de drag and drop de fichiers 

2011-05-10 15:32:52 +0200

Alexandre Leray

Amélioré le design de la page drag'n drop 

2011-05-10 17:58:37 +0200

Alexandre Leray

Utilisation de dorparea.js modifié pour l'occasion 

2011-05-10 19:02:35 +0200

Alexandre Leray

Customizé le html5 drag n drop 

2011-05-10 19:45:50 +0200

Alexandre Leray

Ajouté le répertoire "uploads" au gitignore 

2011-05-11 12:45:41 +0200

Alexandre Leray

Merge branch 'master' into custom_droparea.js 

2011-05-18 11:47:56 +0200

Alexandre Leray

Créé un dossier pour le programme et ses sources 

2011-05-18 14:07:32 +0200

Alexandre Leray

1er formatage markdown la version 1 du programme 

2011-05-18 19:04:08 +0200

Alexandre Leray

Created a script to upload files by email 

2011-05-18 21:16:41 +0200

Ludivine Loiseau

ajout des fichiers fonts collection de modules 

2011-05-19 15:49:18 +0200

Hélène

experimentation context 

2011-05-19 16:17:12 +0200

Alexandre Leray

Tests de mon côté pour le booklet 

2011-05-19 18:04:15 +0200

Hélène

Ajouté 1 script pour convertir les images du Booklet + les images converties 

2011-05-19 19:21:33 +0200

Alexandre Leray

D'autres tests pour le booklet 

2011-05-19 19:22:16 +0200

Alexandre Leray

Ajouté des fichiers podofo pour l'imposition 

2011-05-19 19:26:42 +0200

Alexandre Leray

Merge remote branch 'origin/master' 

2011-05-20 11:25:18 +0200

Stéphanie Vilayphiou

add pdf-list for podofo 

2011-05-20 11:26:45 +0200

Stéphanie Vilayphiou

put back ludi identity folder 

2011-05-20 12:47:42 +0200

Pierre Huyghebaert

morceaux 

2011-05-21 11:03:24 +0200

Ludivine Loiseau

ajout fichier recherche logo 

2011-05-27 22:41:29 +0200

Alexandre Leray

test steph. 1 colonne, tentative d'utilisation de la MARGE 

2011-05-28 16:10:22 +0200

Alexandre Leray

sections, titles, table of content. title page + cleaning 

2011-05-28 16:12:51 +0200

Alexandre Leray

sections, titles, table of content. title page + cleaning 

2011-05-28 21:20:05 +0200

Alexandre Leray

cleaning layout and margins 

2011-05-29 17:19:43 +0200

Ludivine Loiseau

ajout des fichiers textes, plan, agenda + photos Ichem 

2011-05-29 17:19:54 +0200

Ludivine Loiseau

Merge branch 'master' of git.constantvzw.org:balsamine 

2011-05-29 18:33:03 +0200

Ludivine Loiseau

fontes size mix test 

2011-05-29 18:48:36 +0200

Stéphanie Vilayphiou

setup indentations 

2011-05-29 18:53:46 +0200

pierreh

pierreh se met enfin en git balsa mode, enfin essaie, espere ne rien casser 

2011-05-29 19:03:47 +0200

Stéphanie Vilayphiou

ignore openoffice temp files 

2011-05-29 19:30:41 +0200

Stéphanie Vilayphiou

put tests in tests folder 

2011-05-30 00:48:40 +0200

Ludivine Loiseau

Ume Balsa et layout tests 

2011-05-30 01:12:39 +0200

Stéphanie Vilayphiou

new project structure. start to work on structure styles. paragraphs, headings 

2011-05-30 01:13:45 +0200

Stéphanie Vilayphiou

Merge branch 'master' of git.constantvzw.org:balsamine into alex 

2011-05-30 01:15:49 +0200

Stéphanie Vilayphiou

reclean structure folder 

2011-05-30 01:15:33 +0200

pierreh

logo un peu 

2011-05-30 01:17:47 +0200

pierreh

logo un peu 

2011-05-30 01:24:16 +0200

Stéphanie Vilayphiou

Merge branch 'alex' 

2011-05-31 16:54:52 +0200

Alexandre Leray

programme version définitive! j'ai modifié légèrement le html (corrections typos essentiellement) 

2011-06-01 02:37:04 +0200

Alexandre Leray

programme piqure à cheval 

2011-06-01 02:38:11 +0200

Alexandre Leray

ume gothic version écriture verticale 

2011-06-01 10:12:23 +0200

Ludivine Loiseau

suite logo et start posters 

2011-06-01 18:30:44 +0200

Alexandre Leray

programme pour présentation balsa 2 

2011-06-01 18:30:58 +0200

Alexandre Leray

Merge branch 'master' of git.constantvzw.org:balsamine 

2011-06-01 18:45:03 +0200

Alexandre Leray

clean styles 

2011-06-01 22:26:30 +0200

Ludivine Loiseau

ajustement logo par Piet + suite posters et début dessins photos 

2011-06-03 13:10:08 +0200

Stéphanie Vilayphiou

images in context 

2011-06-03 13:10:30 +0200

Stéphanie Vilayphiou

programme ultime 3 

2011-06-03 17:29:36 +0200

Stéphanie Vilayphiou

affiner espaces 

2011-06-03 17:29:51 +0200

Stéphanie Vilayphiou

logos partenaires 

2011-06-03 17:30:21 +0200

Stéphanie Vilayphiou

commencé à traiter le doc ultime 

2011-06-03 19:12:19 +0200

Alexandre Leray

formatage du texte. sections. espaces ponctuations. capitales accentuées. double espace. paragraphes consécutifs ou non 

2011-06-03 19:12:46 +0200

Alexandre Leray

redécoupage du contenu en articles 

2011-06-03 19:24:36 +0200

Alexandre Leray

format edito + martine 

2011-06-03 19:30:18 +0200

Alexandre Leray

remis les réglages de marge et d'image pour martine 

2011-06-03 19:52:01 +0200

Alexandre Leray

bold= suoligné rouge. traité 3 et 4 

2011-06-04 13:30:51 +0200

Stéphanie Vilayphiou

fix staff definition list bug 

2011-06-04 14:25:41 +0200

Stéphanie Vilayphiou

footnotes. traité 4 et 5 

2011-06-04 14:28:25 +0200

Stéphanie Vilayphiou

footnotes. traité 4 et 5 

2011-06-04 15:20:28 +0200

Stéphanie Vilayphiou

production block. traité 6--12 

2011-06-04 19:32:58 +0200

Stéphanie Vilayphiou

numéro 13 

2011-06-04 19:56:21 +0200

Ludivine Loiseau

une to do liste 

2011-06-04 21:27:52 +0200

Stéphanie Vilayphiou

14 -- 18 + citations imbriquées + todo 

2011-06-04 21:31:19 +0200

Ludivine Loiseau

premier pdf context ludi 

2011-06-04 21:58:09 +0200

Ludivine Loiseau

go 

2011-06-05 18:09:36 +0200

Stéphanie Vilayphiou

fini de couler 

2011-06-06 23:07:55 +0200

Ludivine Loiseau

photos Hichem livraison 1 - low 

2011-06-06 23:08:04 +0200

Ludivine Loiseau

Merge branch 'master' of git.constantvzw.org:balsamine 

2011-06-06 23:11:18 +0200

Ludivine Loiseau

+1 

2011-06-07 01:56:58 +0200

root

commencé à appliquer les styles en dur 

2011-06-07 11:34:20 +0200

Ludivine Loiseau

gimp export paths svg Sabine à partir des psd 

2011-06-07 12:56:09 +0200

Ludivine Loiseau

start poster portraits 

2011-06-07 14:26:59 +0200

Ludivine Loiseau

suite poster er détourages 

2011-06-07 14:28:42 +0200

Alexandre Leray

petits réglages. listes, staff... 

2011-06-07 14:28:52 +0200

Alexandre Leray

Merge branch 'master' of git.constantvzw.org:balsamine 

2011-06-07 14:29:05 +0200

Ludivine Loiseau

Merge branch 'master' of git.constantvzw.org:balsamine 

2011-06-07 14:48:07 +0200

Alexandre Leray

test schéma sabine 

2011-06-07 14:56:34 +0200

Alexandre Leray

lettrines partout. page équipe en 2cols 

2011-06-07 15:00:06 +0200

Alexandre Leray

staff lists en générique 

2011-06-07 15:10:53 +0200

Alexandre Leray

indent staff list 

2011-06-07 15:12:31 +0200

Ludivine Loiseau

test vignette sabine 

2011-06-07 15:13:42 +0200

Alexandre Leray

stylé playsubtitle 

2011-06-07 15:14:00 +0200

Alexandre Leray

stylé playsubtitle 

2011-06-07 15:25:52 +0200

Alexandre Leray

Merge branch 'master' of git.constantvzw.org:balsamine 

2011-06-07 15:27:29 +0200

Alexandre Leray

vignette sabine 

2011-06-07 15:27:41 +0200

Alexandre Leray

test staff list tout centré 

2011-06-07 15:28:54 +0200

Ludivine Loiseau

to do new 

2011-06-07 15:54:00 +0200

Alexandre Leray

modifs suggestions ludi 

2011-06-07 16:08:31 +0200

Alexandre Leray

artiste + petit. titre + grand 

2011-06-07 16:08:46 +0200

Alexandre Leray

artiste + petit. titre + grand 

2011-06-07 16:11:18 +0200

Alexandre Leray

maquette asymétrique 

2011-06-07 17:25:22 +0200

Stéphanie Vilayphiou

les vignettes dans les marges! 

2011-06-07 17:28:44 +0200

Ludivine Loiseau

psd pour test script 

2011-06-07 17:29:26 +0200

Ludivine Loiseau

Merge branch 'master' of git.constantvzw.org:balsamine 

2011-06-07 17:34:02 +0200

Ludivine Loiseau

psd vers script 

2011-06-07 18:40:50 +0200

Stéphanie Vilayphiou

réglages césures. add howto PSD to SVG dans readme 

2011-06-07 18:44:18 +0200

Stéphanie Vilayphiou

ajouté une espace manquante 

2011-06-07 20:12:48 +0200

Ludivine Loiseau

les euros dans la Gothic et la Ring 

2011-06-07 21:49:49 +0200

Stéphanie Vilayphiou

Merge branch 'master' of git.constantvzw.org:balsamine 

2011-06-08 02:05:36 +0200

Stéphanie Vilayphiou

gimp plugin to transform layers to svg 

2011-06-08 10:56:41 +0200

Stéphanie Vilayphiou

Merge branch 'master' of git.constantvzw.org:balsamine 

2011-06-08 11:17:11 +0200

Ludivine Loiseau

logo suite 

2011-06-08 11:26:36 +0200

Stéphanie Vilayphiou

changé les chemins dans plugin gimp 

2011-06-08 11:26:59 +0200

Stéphanie Vilayphiou

déplacé readme à la racine 

2011-06-08 11:49:34 +0200

Stéphanie Vilayphiou

changé chemin + copyright dans plugin 

2011-06-08 11:49:53 +0200

Stéphanie Vilayphiou

instructions pour utiliser le plugin gimp 

2011-06-08 11:56:29 +0200

Stéphanie Vilayphiou

Merge branch 'master' of git.constantvzw.org:balsamine 

2011-06-08 12:25:38 +0200

Ludivine Loiseau

logo brico 

2011-06-08 15:40:34 +0200

Stéphanie Vilayphiou

Merge branch 'master' of git.constantvzw.org:balsamine 

2011-06-08 19:18:30 +0200

Stéphanie Vilayphiou

euros à la place de € 

2011-06-08 19:18:51 +0200

Stéphanie Vilayphiou

nouveaux logos 

2011-06-09 00:21:15 +0200

Stéphanie Vilayphiou

agenda! 

2011-06-09 00:33:03 +0200

Ludivine Loiseau

poster suite et logo en morceaux 

2011-06-09 09:07:48 +0200

Ludivine Loiseau

reprise logo - test labyrinthe 

2011-06-09 14:03:22 +0200

Ludivine Loiseau

logo passage relais to Pierre 

2011-06-09 14:31:44 +0200

Ludivine Loiseau

tracés en eps 

2011-06-09 14:36:14 +0200

Stéphanie Vilayphiou

infos en marge. retouches taille. retouche agenda 

2011-06-09 14:36:28 +0200

Stéphanie Vilayphiou

Merge branch 'master' of git.constantvzw.org:balsamine 

2011-06-09 14:53:35 +0200

Stéphanie Vilayphiou

svg -> png 

2011-06-09 14:53:36 +0200

Ludivine Loiseau

trqc2s png 

2011-06-09 14:54:13 +0200

Stéphanie Vilayphiou

Merge branch 'master' of git.constantvzw.org:balsamine 

2011-06-09 15:08:12 +0200

Ludivine Loiseau

go 

2011-06-09 15:08:55 +0200

Stéphanie Vilayphiou

vignettes 

2011-06-09 15:09:03 +0200

Stéphanie Vilayphiou

Merge branch 'master' of git.constantvzw.org:balsamine 

2011-06-10 01:20:20 +0200

Ludivine Loiseau

svg eps png 

2011-06-10 01:30:15 +0200

Stéphanie Vilayphiou

corrections + reste vignette 

2011-06-10 01:40:19 +0200

Stéphanie Vilayphiou

pb image sur odile 

2011-06-10 11:38:04 +0200

Stéphanie Vilayphiou

update todo 

2011-06-10 20:41:05 +0200

Ludivine Loiseau

derniers psd, svg Hichem, mise à jour To Do et fichier corrections Word 

2011-06-11 12:42:19 +0200

Ludivine Loiseau

corrections en cours et probleme de génération du pdf 

2011-06-11 16:09:50 +0200

Ludivine Loiseau

corrections quasi ok 

2011-06-11 21:03:09 +0200

Ludivine Loiseau

spiro de cheveux grecs 

2011-06-11 23:49:08 +0200

Ludivine Loiseau

mail sur la rampe de lancement dans la To Do liste 

2011-06-12 13:21:40 +0200

Ludivine Loiseau

start cdv et vecto logo partners 

2011-06-12 17:15:07 +0200

Ludivine Loiseau

partie photos version 1 

2011-06-12 17:46:27 +0200

Ludivine Loiseau

partie photos version 2 

2011-06-13 12:05:28 +0200

Ludivine Loiseau

superpositions portraits svg -  montage cover avec enveloppe coupée 

2011-06-13 12:53:40 +0200

Ludivine Loiseau

titres hichem 

2011-06-13 16:41:51 +0200

Ludivine Loiseau

ajout des derniers tiff et svg portraits, titres dans partie photos et test d'outline text dans les styles (failed) 

2011-06-13 21:03:10 +0200

Ludivine Loiseau

premiers résultats graphviz sur les tarifs 

2011-06-13 21:30:51 +0200

Ludivine Loiseau

graphviz step 2 

2011-06-13 23:44:28 +0200

pierreh

logo structure labyrinthe 

2011-06-14 00:24:13 +0200

pierreh

logo dans le cercle - ultra bizarre 

2011-06-14 02:46:42 +0200

Ludivine Loiseau

graphviz on t'aura 

2011-06-15 00:19:32 +0200

Ludivine Loiseau

cahier couleur, partie infos, plan 

2011-06-15 00:23:11 +0200

Ludivine Loiseau

et un peu de menage 

2011-06-15 02:52:59 +0200

Alexandre Leray

corrections + trucs dans les marges revisités, du coup ligne de base ok 

2011-06-15 01:11:41 +0200

Ludivine Loiseau

mardi 

2011-06-15 12:36:28 +0200

Ludivine Loiseau

recup styles steph 

2011-06-15 14:39:56 +0200

Stéphanie Vilayphiou

réparation bis 

2011-06-16 00:22:03 +0200

Alexandre Leray

Ajouté le graphviz pour notre présentation 

2011-06-15 22:26:35 +0200

Ludivine Loiseau

Merge branch 'master' of git.constantvzw.org:balsamine 

2011-06-16 00:04:23 +0200

Ludivine Loiseau

tetris part starting 

2011-06-16 00:19:11 +0200

Stéphanie Vilayphiou

Merge branch 'master' of git.constantvzw.org:balsamine 

2011-06-16 01:09:51 +0200

Stéphanie Vilayphiou

agenda custom gantt 

2011-06-16 02:13:04 +0200

Stéphanie Vilayphiou

vignettes 300dpi. isabelle nouzha frame 

2011-06-16 04:13:17 +0200

Alexandre Leray

Reglé le style "bold" (encadrés dans le texte) 

2011-06-16 04:14:07 +0200

Alexandre Leray

Merge branch 'master' of git.constantvzw.org:balsamine 

2011-06-16 04:16:07 +0200

Ludivine Loiseau

cover svg et pages infos ok 1 

2011-06-16 04:27:06 +0200

pierreh

cover presque la 

2011-06-16 04:27:12 +0200

pierreh

Merge branch 'master' of git.constantvzw.org:balsamine 

2011-06-16 04:35:51 +0200

pierreh

la cover 

2011-06-16 04:40:41 +0200

pierreh

la cover une variante 

2011-06-16 04:49:43 +0200

Stéphanie Vilayphiou

umepgothicbalsa 

2011-06-16 04:49:59 +0200

Stéphanie Vilayphiou

Merge branch 'master' of git.constantvzw.org:balsamine 

2011-06-16 04:50:43 +0200

pierreh

la cover 2 eps 

2011-06-16 04:51:37 +0200

Stéphanie Vilayphiou

constellations 

2011-06-16 04:52:11 +0200

Stéphanie Vilayphiou

agenda sur A5 

2011-06-16 04:52:34 +0200

Stéphanie Vilayphiou

agenda A5 dans print 

2011-06-16 04:55:45 +0200

pierreh

la cover 2 pdf 

2011-06-16 05:18:04 +0200

Stéphanie Vilayphiou

constellations bis 

2011-06-16 05:18:29 +0200

pierreh

logo clean 

2011-06-16 05:22:45 +0200

pierreh

logo a4 

2011-06-16 05:26:58 +0200

Stéphanie Vilayphiou

derniers ajustements 

2011-06-16 05:27:06 +0200

Stéphanie Vilayphiou

Merge branch 'master' of git.constantvzw.org:balsamine 

2011-06-16 14:53:07 +0200

Stéphanie Vilayphiou

todo 

2011-06-16 15:20:01 +0200

Ludivine Loiseau

c'est reparti 

2011-06-16 16:26:22 +0200

Stéphanie Vilayphiou

lien entre salon refusés 1 et 2. festival genèse= nuages de points 

2011-06-16 16:29:24 +0200

Stéphanie Vilayphiou

sauts de lignes dans OSP 

2011-06-16 16:33:34 +0200

Stéphanie Vilayphiou

sauts de lignes dans OSP 

2011-06-16 16:48:33 +0200

Stéphanie Vilayphiou

grands espaces dans les titres. genèse: Big titre 

2011-06-16 16:59:00 +0200

Stéphanie Vilayphiou

encadré début programme genèse 

2011-06-16 17:01:01 +0200

Stéphanie Vilayphiou

encadré début programme genèse 

2011-06-16 17:03:06 +0200

Stéphanie Vilayphiou

saut de ligne dans signatures 

2011-06-16 17:03:53 +0200

Stéphanie Vilayphiou

saut de ligne dans signatures 

2011-06-16 17:52:04 +0200

Stéphanie Vilayphiou

saut de ligne quand il n'y a pas de 'role', évite superposition dessin et texte en marge 

2011-06-16 17:55:20 +0200

Stéphanie Vilayphiou

URLs soulignées en context 

2011-06-16 18:33:17 +0200

Ludivine Loiseau

corrections ok 

2011-06-16 18:47:13 +0200

Stéphanie Vilayphiou

footnote martine dans marges. * à gauche 

2011-06-16 18:52:40 +0200

Stéphanie Vilayphiou

footnote osp dans la marge 

2011-06-16 19:19:19 +0200

Stéphanie Vilayphiou

schéma osp centré 

2011-06-16 19:30:13 +0200

Stéphanie Vilayphiou

merge avec ludi 

2011-06-16 19:32:15 +0200

Stéphanie Vilayphiou

enlevé ** dans osp 

2011-06-16 19:34:57 +0200

Stéphanie Vilayphiou

coquille dans odile 

2011-06-16 19:35:58 +0200

Stéphanie Vilayphiou

mini erreur de souligné 

2011-06-16 19:43:17 +0200

Stéphanie Vilayphiou

salon des refusés. formatage texte marge 

2011-06-16 20:09:21 +0200

Stéphanie Vilayphiou

corrections agenda 

2011-06-16 20:10:37 +0200

Stéphanie Vilayphiou

todo 

2011-06-16 20:32:49 +0200

Stéphanie Vilayphiou

todo 

2011-06-16 20:33:35 +0200

Ludivine Loiseau

sur la rampe 

2011-06-16 20:33:39 +0200

Stéphanie Vilayphiou

original constellations 

2011-06-16 20:34:18 +0200

Stéphanie Vilayphiou

Merge branch 'master' of git.constantvzw.org:balsamine 

2011-06-16 22:18:59 +0200

Stéphanie Vilayphiou

folio en gothic vertical 

2011-06-16 22:56:06 +0200

Ludivine Loiseau

b qui joue de l'orgue 

2011-06-16 23:19:14 +0200

Stéphanie Vilayphiou

pdf 64 pages généré direct depuis context 

2011-06-17 00:09:29 +0200

Stéphanie Vilayphiou

pagination commence à la cover. pages blanches sans numéros 

2011-06-17 00:09:43 +0200

Stéphanie Vilayphiou

Merge branch 'master' of git.constantvzw.org:balsamine 

2011-06-17 00:12:54 +0200

Stéphanie Vilayphiou

todo updaté 

2011-06-17 00:18:52 +0200

pierreh

organ in the b in the font 

2011-06-17 00:26:06 +0200

pierreh

Merge branch 'master' of git.constantvzw.org:balsamine 

2011-06-17 00:40:13 +0200

pierreh

constellations high def 

2011-06-17 01:04:17 +0200

Stéphanie Vilayphiou

coquille martine 

2011-06-17 01:23:30 +0200

Stéphanie Vilayphiou

git log + refait pages blanches 

2011-06-17 01:24:31 +0200

Stéphanie Vilayphiou

Merge branch 'master' of git.constantvzw.org:balsamine 

2011-06-17 01:27:05 +0200

Ludivine Loiseau

vignettes et first pdf 

2011-06-17 01:32:21 +0200

Stéphanie Vilayphiou

Merge remote-tracking branch 'origin/master' 

2011-06-17 01:41:12 +0200

Stéphanie Vilayphiou

jpg mis à jour 

2011-06-17 02:05:53 +0200

pierreh

constellations vectorisé 

2011-06-17 02:06:17 +0200

pierreh

Merge branch 'master' of git.constantvzw.org:balsamine 

2011-06-17 02:08:48 +0200

pierreh

cover def en svg 

2011-06-17 02:15:56 +0200

Ludivine Loiseau

constellation et miniature 

2011-06-17 02:16:43 +0200

Stéphanie Vilayphiou

graph noms 

2011-06-17 02:16:53 +0200

Stéphanie Vilayphiou

track gitlog 

2011-06-17 02:16:57 +0200

pierreh

cover def en pdf 

2011-06-17 02:17:36 +0200

Stéphanie Vilayphiou

Merge branch 'master' of git.constantvzw.org:balsamine 

2011-06-17 02:17:59 +0200

Stéphanie Vilayphiou

Merge branch 'master' of git.constantvzw.org:balsamine 

2011-06-17 03:00:59 +0200

pierreh

schema osp bitmapped 

2011-06-17 03:01:48 +0200

Stéphanie Vilayphiou

Merge branch 'master' of git.constantvzw.org:balsamine 

2011-06-17 03:24:33 +0200

Stéphanie Vilayphiou

dernières retouches 

2011-06-17 03:26:37 +0200

Ludivine Loiseau

Merge branch 'master' of git.constantvzw.org:balsamine 

2011-06-17 03:27:03 +0200

Stéphanie Vilayphiou

plan podofo superposition 

2011-06-17 03:33:43 +0200

Ludivine Loiseau

constellations 

2011-06-17 03:34:32 +0200

Ludivine Loiseau

reparation constellations 

2011-06-17 03:35:31 +0200

Ludivine Loiseau

fichiers pour constellations 

2011-06-17 03:44:05 +0200

Ludivine Loiseau

etoiles 

2011-06-17 03:45:11 +0200

Stéphanie Vilayphiou

constellations ! 

2011-06-17 03:48:00 +0200

Stéphanie Vilayphiou

git log FINAAAAAAAAAAAAAAAAAAAL 
